EDI_CONVT_20170131
TableName	Actflag	Created	Changed	ConvtID	SecID	ISIN	FromDate	ToDate	RatioNew	RatioOld	CurenCD	CurPair	Price	MandOptFlag	ResSecID	ResSectyCD	ResISIN	ResIssuername	ResSecurityDesc	Fractions	FXrate	PartFinalFlag	PriceAsPercent	Notes
CONVT	U	2015/09/22	2017/01/30	23279	4513425	FR0012739548	2016/07/20	2019/12/31	0.0440000	1.0000000	EUR		292.27272	O	52138	EQS	FR0013181864	CGG	Ordinary Shares			P		
CONVT	U	2012/11/23	2017/01/30	15119	3933348	FR0011357664	2016/07/20	2018/12/31	0.0440000	1.0000000	EUR		730.45454	O	52138	EQS	FR0013181864	CGG	Ordinary Shares			P		
CONVT	U	2014/04/05	2017/01/31	17723	4219333	XS1046477581	2017/01/25	2020/09/17	7063.1647000	1.0000000	USD		28.31591	O	49647	EQS	NL0012169213	Qiagen NV	Ordinary Shares			P		CURRENT CONVERSION PRICE (SUBJECT`TO CHANGE): USD 28.3417
CONVT	U	2014/09/08	2017/01/30	19895	4069825	DE000A1TNBW1	2016/05/13	2018/06/13	10616.6128758	1.0000000	EUR		9.41920	O	570059	EQS	DE000A0LD2U1	Alstria Office REIT-AG	Ordinary Shares			P		Conversion Price: EUR 10.0710 - subject to adjustment as provided in the Terms and Conditions<BR>Conversion Ratio: 9,929.5005 Shares per Bond initially - representing the number of Shares corresponding to EUR 100,000 Principal Amount per Bond divided by the Conversion Price, subject to adjustment pursuant to anti-dilution provisions <BR>Conversion Right: Unless previously redeemed, or purchased and cancelled, the Bonds will be convertible at the option of the holder during the Conversion Period into Shares of the Issuer at the prevailing Conversion Ratio (subject to Cash Alternative Election)<BR>Conversion Period: The Conversion Right may be exercised at the option of the holder from 24 July 2013 until the close of business on the day falling 10 calendar days prior to the Maturity Date, or in the event of early redemption, until the close of business on the 10th day before the date fixed for redemption
CONVT	D	2014/11/26	2017/01/30	20607	4386811	US81762PAB85	2013/11/13	2018/10/31	13.5357000	1.0000000	USD		73.87870	O	3697981	EQS	US81762P1021	ServiceNow Inc	Ordinary Shares	C		P		Convertible  YES<BR>Share Amount  13.53570<BR>CUSIP (of equity security)  81762P102<BR>Date (Convertible Information)  --
CONVT	U	2015/06/01	2017/01/30	22774	4522263	US31816QAA94	2015/06/03	2035/05/31	16.4572000	1.0000000	USD		60.76367	O	4105485	EQS	US31816Q1013	FireEye Inc	Ordinary Shares	C		P		The initial conversion rate for the Series A notes is 16.4572 shares of common stock per USD1,000 principal amount of notes (which is equivalent to an initial conversion price of approximately USD60.76 per share) will be settled in cash, shares of FireEye s common stock or a combination thereof, at FireEye s election.
CONVT	U	2016/04/29	2017/01/31	26312	4763211	US49926DAA72	2016/05/05	2021/10/31	54.2741000	1.0000000	USD		18.42000	O	4196302	EQS	US49926D1090	Knowles Corp	Ordinary Shares	C		P		The initial conversion rate for the notes is 54.2741 shares of Knowles` common stock per usd1,000 principal amount of notes
CONVT	I	2017/01/31	2017/01/31	27710	5026699	US220485AA48	2017/01/26	2047/01/13	51440.3200000	1.0000000	USD		3.88800	O	80976	DR	US0231112063	Amarin Corp	ADR	C		P		Subject to and upon compliance with the provisions of this Indenture, a Holder will have the right, at such Holder s option, to exchange its Notes, or any portion so long as the principal amount of such Holder s Notes not exchanged equals USD200,000 or an integral multiple of USD1,000 in excess thereof, into a number of ADSs determined in accordance with Section 7.03 hereof based on an initial exchange rate of 257.2016 ADSs (subject to adjustment provided in this Article 7, the   Exchange Rate  ) per USD1,000 principal amount of Notes at any time prior to the close of business on the second Business Day immediately preceding the Maturity Date.
CONVT	U	2016/06/27	2017/01/30	26564	1325196	US02503Q2093	2002/04/01	2032/03/30	0.8000000	1.0000000	USD		12.50000	O	67164	EQS	US0243431055	American Bank Inc	Ordinary Shares			P		
CONVT	U	2016/09/28	2017/01/31	26970	4917465	US38147UAA51	2016/10/04	2022/03/31	40.8397000	1.0000000	USD		24.48597	O	4445484	EQS	US38147U1079	Goldman Sachs BDC Inc	Ordinary Shares	C		P		the Convertible Notes will be convertible into cash, shares of the Company`s common stock or a combination of cash and shares of the Company`s common stock, at the Company`s election, at an initial conversion rate of 40.8397 shares of common stock per usd1,000 principal amount of the Convertible Notes, which is equivalent to an initial conversion price of approximately usd24.49 per share of the Company`s common stock
CONVT	I	2017/01/31	2017/01/31	27712	5016967	US922417AD23	2017/01/19	2023/01/14	24.9800000	1.0000000	USD		40.03000	O	44129	EQS	US9224171002	Veeco Instruments Inc	Ordinary Shares			P		24.9800 shares of the Issuer s common stock per USD1,000 principal amount of Notes
CONVT	I	2017/01/31	2017/01/31	27713	5034463		2017/01/21	2017/07/19			USD		0.85000	O	1546129	EQS	US3998192005	Grow Condos Inc	Ordinary Shares			P		The Note is due July 20, 2017 and bears an interest rate of 10%, and is convertible into shares of our common stock at  0.85 per share.
CONVT	D	2017/01/12	2017/01/31	27398	5016967	US922417AD23	2017/01/19	2023/07/14	24.9800000	1.0000000	USD		40.03000	O	44129	EQS	US9224171002	Veeco Instruments Inc	Ordinary Shares			P		24.9800 shares of the Issuer s common stock per USD1,000 principal amount of Notes
CONVT	I	2017/01/30	2017/01/30	27703	4386811	US81762PAB85	2013/11/14	2018/10/31	13.5357000	1.0000000	USD		73.87870	O	3697981	EQS	US81762P1021	ServiceNow Inc	Ordinary Shares	C		P		Convertible  YES<BR>Share Amount  13.53570<BR>CUSIP (of equity security)  81762P102<BR>Date (Convertible Information)  --
CONVT	U	2017/01/30	2017/01/31	27704	5032583	US44052WAA27	2017/02/02	2022/06/30	40.0400000	1.0000000	USD		24.98000	O	4521575	EQS	US44052W1045	Horizon Global Corp	Ordinary Shares	C		P		
CONVT	I	2017/01/30	2017/01/30	27705	5031781	US92828Q2084	2017/02/02	2020/02/01			USD		110.00000	O	1269949	EQS	US92828Q1094	Virtus Investment Partners Inc	Ordinary Shares			P		The conversion rate for each share of Mandatory Convertible Preferred Stock will not be more than 0.9091 shares of Common Stock and not less than 0.7576 shares of Common Stock (respectively, the  Maximum Conversion Rate  and  Minimum Conversion Rate ), depending on the Applicable Market Value of the Common Stock, as described below. The Maximum Conversion Rate and the Minimum Conversion Rate are subject to adjustment as described in the Mandatory Convertible Preferred Preliminary Prospectus Supplement.<BR>The following table illustrates the conversion rate per share of the Mandatory Convertible Preferred Stock, subject to certain anti-dilution adjustments described in the Mandatory Convertible Preferred Preliminary Prospectus Supplement, based on the Applicable Market Value of the Common Stock: <BR>Applicable Market Value of the Common Stock<BR>Greater than the Threshold Appreciation Price <BR>Equal to or less than the Threshold Appreciation<BR>Price but greater than or equal to the Initial Price<BR>Less than the Initial Price<BR><BR>Conversion Rate per Share of Mandatory Convertible Preferred Stock<BR>0.7576 shares of Common Stock, which is the<BR>Minimum Conversion Rate<BR>Between 0.7576 and 0.9091 shares of<BR>Common Stock, determined by dividing<BR>100.00 by the Applicable Market Value<BR>0.9091 shares of Common Stock, which is the<BR>Maximum Conversion Rate.
CONVT	I	2017/01/30	2017/01/30	27706	4278948	CH0245239287	2015/06/18	2020/06/17	416.6666666	1.0000000	CHF		2.40000	O	19868	EQS	CH0003245351	Von Roll Holding AG	Bearer Shares	C		P		
EDI_ENDOFFILE
