EDI_LAWST_20170131
TableName	Actflag	Created	Changed	LawstID	SecID	ISIN	IssID	EffectiveDate	LAType	Regdate
LAWST	D	2002/03/29	2013/07/15	282	5031541	US46625HRY89	35134	2012/10/05	CLSACT	
LAWST	U	2004/04/22	2010/01/08	980	5034141	US594918CB81	36229	2010/01/07	CLSACT	
LAWST	U	2004/04/22	2010/01/08	980	5034149	US594918CA09	36229	2010/01/07	CLSACT	
LAWST	U	2004/04/22	2010/01/08	980	5034176	US594918BZ68	36229	2010/01/07	CLSACT	
LAWST	U	2004/04/22	2010/01/08	980	5034179	US594918BY93	36229	2010/01/07	CLSACT	
LAWST	U	2004/04/22	2010/01/08	980	5034182	US594918BX11	36229	2010/01/07	CLSACT	
LAWST	U	2004/04/22	2010/01/08	980	5034186	US594918BW38	36229	2010/01/07	CLSACT	
LAWST	U	2004/04/22	2010/01/08	980	5034190	US594918BV54	36229	2010/01/07	CLSACT	
LAWST	U	2004/08/25	2013/01/04	1132	5032575	US17324XAT72	31453	2013/01/03	CLSACT	
LAWST	U	2004/08/25	2013/01/04	1132	5032578	US17324CEH51	31453	2013/01/03	CLSACT	
LAWST	U	2004/08/25	2013/01/04	1132	5032655	US17324CEG78	31453	2013/01/03	CLSACT	
LAWST	U	2004/08/25	2013/01/04	1132	5032678	US17298CFE30	31453	2013/01/03	CLSACT	
LAWST	U	2004/08/31	2012/07/11	1141	5033704	US13606APP74	41817	2012/07/09	CLSACT	
LAWST	U	2004/10/01	2012/10/20	1181	5032541	US3136G4LE16	71538	2012/10/19	CLSACT	
LAWST	U	2004/10/01	2012/10/20	1181	5032735	US3136G4KX06	71538	2012/10/19	CLSACT	
LAWST	U	2004/10/01	2012/10/20	1181	5032793	US3136G4LD33	71538	2012/10/19	CLSACT	
LAWST	D	2004/10/25	2013/06/26	1201	5034207	US59156RBC16	36149	2012/01/20	CLSACT	
LAWST	U	2005/02/12	2009/05/14	1339	5032657	US61766A6249	36408	2009/05/13	CLSACT	
LAWST	U	2005/02/12	2009/05/14	1339	5032727	US61766A6165	36408	2009/05/13	CLSACT	
LAWST	U	2005/02/17	2012/12/24	1354	5032731	US94986R4A63	40751	2012/12/21	CLSACT	
LAWST	U	2005/03/29	2011/07/07	1427	4761756	DE000DE04WL4	20481	2011/07/06	CLSACT	
LAWST	U	2005/03/29	2011/07/07	1427	4853896	DE000DE04WY7	20481	2011/07/06	CLSACT	
LAWST	U	2005/03/29	2011/07/07	1427	4857029	DE000DB9TZH6	20481	2011/07/06	CLSACT	
LAWST	U	2005/03/29	2011/07/07	1427	4871094	DE000DB9TZX3	20481	2011/07/06	CLSACT	
LAWST	U	2005/03/29	2011/07/07	1427	4899023	DE000DE04W27	20481	2011/07/06	CLSACT	
LAWST	U	2005/03/29	2011/07/07	1427	4915805	DE000DE04W35	20481	2011/07/06	CLSACT	
LAWST	U	2005/03/29	2011/07/07	1427	4933222	DE000DE04W68	20481	2011/07/06	CLSACT	
LAWST	U	2005/03/29	2011/07/07	1427	4945617	DE000DE04W50	20481	2011/07/06	CLSACT	
LAWST	U	2005/03/29	2011/07/07	1427	4953300	DE000DB9T2H7	20481	2011/07/06	CLSACT	
LAWST	U	2005/03/29	2011/07/07	1427	4954623	DE000DB9T2J3	20481	2011/07/06	CLSACT	
LAWST	U	2005/03/29	2011/07/07	1427	4961380	DE000DE04W76	20481	2011/07/06	CLSACT	
LAWST	U	2005/03/29	2011/07/07	1427	4996602	XS0809895476	20481	2011/07/06	CLSACT	
LAWST	U	2005/03/29	2011/07/07	1427	5021262	DE000DL19TA6	20481	2011/07/06	CLSACT	
LAWST	U	2005/03/29	2011/07/07	1427	5024890	XS1555052650	20481	2011/07/06	CLSACT	
LAWST	D	2007/06/02	2009/03/13	1995	5030722	US06741VJ455	108321	2007/06/01		
LAWST	D	2007/06/02	2009/03/13	1995	5034069	US06741VJP85	108321	2007/06/01		
LAWST	D	2007/06/02	2009/03/13	1995	5034074	US06741VJB99	108321	2007/06/01		
LAWST	D	2007/06/11	2013/06/14	2016	5030497	CH0352765157	19310	2012/01/20	CLSACT	
LAWST	U	2007/11/23	2012/03/14	2351	5033720	US3134GA2M58	72104	2012/03/13	CLSACT	
LAWST	U	2007/11/23	2012/03/14	2351	5033724	US3134GA2N32	72104	2012/03/13	CLSACT	
LAWST	U	2007/11/23	2012/03/14	2351	5032482	US3134GA2E33	72104	2012/03/13	CLSACT	
LAWST	U	2007/11/23	2012/03/14	2351	5032532	US3134GA2J20	72104	2012/03/13	CLSACT	
LAWST	U	2007/11/23	2012/03/14	2351	5032533	US3134GA2H63	72104	2012/03/13	CLSACT	
LAWST	U	2007/11/23	2012/03/14	2351	5032536	US3134GAZ987	72104	2012/03/13	CLSACT	
LAWST	U	2007/11/23	2012/03/14	2351	5032552	US3134GA2F08	72104	2012/03/13	CLSACT	
LAWST	U	2007/11/23	2012/03/14	2351	5032638	US3134GA2K92	72104	2012/03/13	CLSACT	
LAWST	U	2007/11/23	2012/03/14	2351	5033731	US3134GA2L75	72104	2012/03/13	CLSACT	
LAWST	U	2007/11/23	2012/03/14	2351	5033804	US3134GAY576	72104	2012/03/13	CLSACT	
LAWST	U	2007/11/23	2012/03/14	2351	5033854	US3134GAZ490	72104	2012/03/13	CLSACT	
LAWST	U	2007/11/23	2012/03/14	2351	5034081	US3134GA2R46	72104	2012/03/13	CLSACT	
LAWST	U	2007/11/23	2012/03/14	2351	5034084	US3134GA2T02	72104	2012/03/13	CLSACT	
LAWST	U	2007/11/23	2012/03/14	2351	5034136	US3134GA2P89	72104	2012/03/13	CLSACT	
LAWST	U	2008/02/08	2012/12/20	2450	5034101	US40054KUX26	33931	2012/12/13	CLSACT	
LAWST	U	2008/02/08	2012/12/20	2450	5032613	US40054KTG12	33931	2012/12/13	CLSACT	
LAWST	U	2008/02/08	2012/12/20	2450	5032617	US40054KTF39	33931	2012/12/13	CLSACT	
LAWST	U	2008/02/08	2012/12/20	2450	5032623	US40054KTJ50	33931	2012/12/13	CLSACT	
LAWST	U	2008/02/08	2012/12/20	2450	5032626	US40054KTE63	33931	2012/12/13	CLSACT	
LAWST	U	2008/02/08	2012/12/20	2450	5032628	US40054KTN62	33931	2012/12/13	CLSACT	
LAWST	U	2008/02/08	2012/12/20	2450	5032631	US40054KTM89	33931	2012/12/13	CLSACT	
LAWST	U	2008/02/08	2012/12/20	2450	5032633	US40054KTL07	33931	2012/12/13	CLSACT	
LAWST	U	2008/02/08	2012/12/20	2450	5032635	US40054KTK24	33931	2012/12/13	CLSACT	
LAWST	U	2008/02/08	2012/12/20	2450	5032637	US40054KTY28	33931	2012/12/13	CLSACT	
LAWST	U	2008/02/08	2012/12/20	2450	5032641	US40054KU386	33931	2012/12/13	CLSACT	
LAWST	U	2008/02/08	2012/12/20	2450	5032644	US40054KU535	33931	2012/12/13	CLSACT	
LAWST	U	2008/02/08	2012/12/20	2450	5032683	US40054KUQ74	33931	2012/12/13	CLSACT	
LAWST	U	2008/02/08	2012/12/20	2450	5032700	US40054KUP91	33931	2012/12/13	CLSACT	
LAWST	U	2008/02/08	2012/12/20	2450	5032704	US40054KUN44	33931	2012/12/13	CLSACT	
LAWST	U	2008/02/08	2012/12/20	2450	5034091	US40054KTX45	33931	2012/12/13	CLSACT	
LAWST	U	2008/02/08	2012/12/20	2450	5034093	US40054KUV69	33931	2012/12/13	CLSACT	
LAWST	U	2008/02/08	2012/12/20	2450	5034098	US40054KUW43	33931	2012/12/13	CLSACT	
LAWST	D	2008/05/13	2008/06/13	2565	5030555	US78012KZG56	43403	2008/05/19	CLSACT	
LAWST	U	2008/12/06	2008/12/13	2683	5032486	US3132X0PC95	33150	2008/12/12	CLSACT	
LAWST	U	2008/12/06	2008/12/13	2683	5032749	US3132X0NY34	33150	2008/12/12	CLSACT	
LAWST	U	2008/12/06	2008/12/13	2683	5034056	US3132X0NZ09	33150	2008/12/12	CLSACT	
LAWST	U	2007/06/11	2008/05/10	2010	5032665	US17325E1507	75718	2008/05/09	CLSACT	
LAWST	U	2007/06/11	2008/05/10	2010	5029793	XS1556932660	75718	2008/05/09	CLSACT	
LAWST	U	2007/06/11	2008/05/10	2010	5034280	XS1556936224	75718	2008/05/09	CLSACT	
LAWST	I	2009/10/19	2009/10/19	2890	5033971	US140420UC24	126449	2009/10/16	CLSACT	
LAWST	I	2009/10/19	2009/10/19	2890	5033985	US140420UD07	126449	2009/10/16	CLSACT	
LAWST	I	2009/10/19	2009/10/19	2890	5033994	US140420UE89	126449	2009/10/16	CLSACT	
LAWST	I	2009/10/19	2009/10/19	2890	5034005	US140420UF54	126449	2009/10/16	CLSACT	
LAWST	I	2009/10/19	2009/10/19	2890	5034011	US140420UH11	126449	2009/10/16	CLSACT	
LAWST	I	2009/10/19	2009/10/19	2890	5034016	US140420UJ76	126449	2009/10/16	CLSACT	
LAWST	I	2009/10/19	2009/10/19	2890	5034026	US140420UL23	126449	2009/10/16	CLSACT	
LAWST	I	2009/10/19	2009/10/19	2890	5034041	US140420UM06	126449	2009/10/16	CLSACT	
LAWST	I	2009/10/19	2009/10/19	2890	5034051	US140420UP37	126449	2009/10/16	CLSACT	
LAWST	I	2009/10/19	2009/10/19	2890	5034060	US140420UQ10	126449	2009/10/16	CLSACT	
LAWST	I	2009/10/19	2009/10/19	2890	5034068	US140420UR92	126449	2009/10/16	CLSACT	
LAWST	I	2009/10/19	2009/10/19	2890	5034243	US140420US75	126449	2009/10/16	CLSACT	
LAWST	I	2009/10/19	2009/10/19	2890	5034250	US140420UT58	126449	2009/10/16	CLSACT	
LAWST	I	2009/10/19	2009/10/19	2890	5034260	US140420VL14	126449	2009/10/16	CLSACT	
EDI_ENDOFFILE
