EDI_FRNFX_20170131
TableName	Actflag	Created	Changed	FrnfxID	SecID	ISIN	EffectiveDate	OldFRNType	OldFRNIndexBenchmark	OldFrnMargin	OldMinimumInterestRate	OldMaximumInterestRate	OldRounding	NewFRNType	NewFRNindexBenchmark	NewFrnMargin	NewMinimumInterestRate	NewMaximumInterestRate	NewRounding	Eventtype	OldFrnIntAdjFreq	NewFrnIntAdjFreq
FRNFX	D	2015/11/23	2017/01/31	61734	4649754	XS1317710884	2018/11/25	BASIC						BASIC		5.30000				FRNFX		
FRNFX	I	2017/01/31	2017/01/31	61735	4649754	XS1317710884	2020/11/25	SUFRN	USTR3Y	5.30000				SUFRN	USTR3Y	8.30000				FRNFX		
FRNFX	I	2017/01/30	2017/01/30	67799	5031776	US3133EG5V33	2017/01/27	BASIC						FLR	USDLIBOR1M	-0.14500				CORR		
FRNFX	I	2017/01/30	2017/01/30	67801	5031764	US3133EG5X98	2017/01/30	BASIC	USDLIBOR1M	-0.07000				FLR	USDLIBOR1M	-0.07000				CORR		
FRNFX	I	2017/01/30	2017/01/30	67803	5031531	XS1531383625	2017/01/25	BASIC	EURIBOR3M	1.55000				FLR	EURIBOR3M	1.55000				CORR		
FRNFX	I	2017/01/30	2017/01/30	67804	5030675	US40054KUH75	2017/01/27	BASIC	USDLIBOR3M	4.00000				FLR	USDLIBOR3M	4.00000				CORR		
FRNFX	I	2017/01/30	2017/01/30	67805	5031567	XS1531385166	2017/01/25	BASIC	EURIBOR3M	1.55000				FLR	EURIBOR3M	1.55000				CORR		
FRNFX	I	2017/01/30	2017/01/30	67806	5031604	XS1531383971	2017/01/25	BASIC	EURIBOR3M	1.55000				FLR	EURIBOR3M	1.55000				CORR		
FRNFX	I	2017/01/30	2017/01/30	67807	5030362	US3130AAR597	2017/01/27	BASIC	USDLIBOR1M	-0.22000			3	FLR	USDLIBOR1M	-0.22000			3	CORR		
FRNFX	I	2017/01/31	2017/01/31	67808	5031771	US3133EG5W16	2017/01/31	BASIC	USFEDRATE	0.05000				FLR	USFEDRATE	0.05000				CORR		
FRNFX	I	2017/01/31	2017/01/31	67809	5032501	US3130AARR11	2017/01/30	BASIC	USDLIBOR1M	-0.04500			3	FLR	USDLIBOR1M	-0.04500			3	CORR		
FRNFX	I	2017/01/31	2017/01/31	67810	5031908	US40054KSW70	2017/01/31	BASIC	BSI					COLLAR	BSI			6.50000		CORR		
FRNFX	I	2017/01/31	2017/01/31	67811	4193465	IT0004981467	2017/01/31	COLLAR	BSI		3.00000	3.25000		COLLAR	BSI		3.00000	3.75000		FRNFX		
FRNFX	I	2017/01/31	2017/01/31	67812	5028224	US06741VGX47	2017/01/31	BASIC	BSI			8.50000		COLLAR	BSI			8.50000		CORR		
FRNFX	I	2017/01/31	2017/01/31	67813	5022557	US06741VGA44	2017/01/31	BASIC	BSI					COLLAR	BSI			10.00000		CORR		
FRNFX	I	2017/01/31	2017/01/31	67814	5022557	US06741VGA44	2021/01/26	COLLAR	BSI			10.00000		COLLAR	BSI			12.00000		FRNFX		
FRNFX	I	2017/01/31	2017/01/31	67815	5022557	US06741VGA44	2025/01/26	COLLAR	BSI			12.00000		COLLAR	BSI			14.00000		FRNFX		
FRNFX	I	2017/01/31	2017/01/31	67816	5022543	US06741VHE56	2017/01/31	BASIC	BSI			9.00000		COLLAR	BSI			9.00000		CORR		
FRNFX	I	2017/01/31	2017/01/31	67817	5024906	US06741VG972	2017/01/31	BASIC	BSI					COLLAR	BSI			7.25000		CORR		
FRNFX	I	2017/01/31	2017/01/31	67818	5030672	US22548QSQ90	2019/01/31	COLLAR	BSI			12.00000		COLLAR	BSI			10.00000		FRNFX		
FRNFX	I	2017/01/31	2017/01/31	67819	5030684	US22548QS554	2022/01/31	COLLAR	S&P500			7.00000		COLLAR	S&P500			10.00000		FRNFX		
FRNFX	I	2017/01/31	2017/01/31	67820	5030679	US22548QS638	2022/01/31	COLLAR	BSI			7.00000		COLLAR	BSI			10.00000		FRNFX		
FRNFX	I	2017/01/31	2017/01/31	67821	5030679	US22548QS638	2025/01/31	COLLAR	BSI			10.00000		COLLAR	BSI			12.00000		FRNFX		
FRNFX	I	2017/01/31	2017/01/31	67822	5030661	US22548QS711	2022/01/31	COLLAR	BSI			9.00000		COLLAR	BSI			12.00000		FRNFX		
FRNFX	I	2017/01/31	2017/01/31	67823	5030661	US22548QS711	2025/01/31	COLLAR	BSI			12.00000		COLLAR	BSI			15.00000		FRNFX		
FRNFX	I	2017/01/31	2017/01/31	67824	4649754	XS1317710884	2015/11/25	BASIC	USTR3Y	5.30000				SUFRN	USTR3Y	5.30000				CORR		
EDI_ENDOFFILE
