EDI_SCEXH_20170131
TableName	Actflag	Created	Changed	ScExhID	SecID	ISIN	ExchgCD	ListStatus	Lot	MinTrdgQty	ListDate	DelistDate	LocalCode	JunkLocalcode	PriceTick	TickSize	ListCategory	Notes
SCEXH	U	2007/01/04	2017/01/30	615116	467936	XS0271577180	ISISE	D	100			2017/01/10						
SCEXH	U	2016/07/11	2017/01/31	6788714	4829261	IS0000027373	ISISE	D			2016/07/11	2017/01/11	LBANK 170110					
SCEXH	U	2016/07/30	2017/01/31	6811625	4849580	LV0000801314	LVRSE	D				2017/01/11						
SCEXH	U	2016/11/01	2017/01/31	6921498	4950552	CY0146870817	CYCSE	S					TB13K16					
SCEXH	U	2009/07/03	2017/01/31	1979909	1481540	XS0435613327	GBLSE	D	100		2009/07/02							
SCEXH	U	2009/10/09	2017/01/31	2162399	1603799	XS0456511939	GBLSE	D	100									
SCEXH	U	2010/03/09	2017/01/30	2454598	1792575	XS0487381336	GBLSE	D	100									
SCEXH	U	2016/07/15	2017/01/30	6793528	4823650	XS1443120073	GBLSE	D	100			2017/01/09						
SCEXH	I	2017/01/30	2017/01/30	7012441	5009533	XS1515377072	GBLSE	N										
SCEXH	U	2017/01/07	2017/01/31	6990045	5012457	XS1537893478	GBLSE	D			2016/12/21	2017/01/31						
SCEXH	U	2017/01/07	2017/01/31	6990374	5012760	XS1539644671	GBLSE	D				2017/02/01						
SCEXH	I	2017/01/30	2017/01/30	7012336	5032148	XS1558014178	GBLSE	N										
SCEXH	I	2017/01/30	2017/01/30	7012397	5009535	XS1515377155	GBLSE	N										
SCEXH	I	2017/01/30	2017/01/30	7012407	5009539	XS1519032665	GBLSE	N										
SCEXH	I	2017/01/30	2017/01/30	7012824	5031155	XS1557157150	GBLSE	N										
SCEXH	I	2017/01/30	2017/01/30	7012826	5032204	XS1558022940	GBLSE	N										
SCEXH	I	2017/01/31	2017/01/31	7013767	5029446	XS1556278833	GBLSE	N										
SCEXH	U	2017/01/27	2017/01/31	7011027	5031430	XS1556193339	GBLSE				2017/01/27		59YV					
SCEXH	U	2017/01/27	2017/01/31	7011363	5021702	XS1554111556	GBLSE				2017/01/27		60AA					
SCEXH	U	2017/01/27	2017/01/31	7010990	5021713	XS1554102050	GBLSE				2017/01/27		60BD					
SCEXH	U	2017/01/27	2017/01/31	7011349	4952291	XS1514332789	GBLSE				2017/01/27		60BU					
SCEXH	U	2017/01/27	2017/01/31	7011377	5020343	XS1551631358	GBLSE				2017/01/27		60CL					
SCEXH	U	2017/01/27	2017/01/31	7010994	5020408	XS1551749788	GBLSE				2017/01/27		60DD					
SCEXH	U	2017/01/26	2017/01/30	7009980	5029709	XS1558013014	GBLSE				2017/01/27		60DO					
SCEXH	U	2015/03/05	2017/01/31	6305304	4458358	XS1199647766	GBLSE	D	100		2015/03/10	2017/01/11	75HL					
SCEXH	U	2014/01/14	2017/01/30	5958125	4178812	XS1013617136	GBLSE	D			2014/01/06	2017/01/10	79QZ					
SCEXH	U	2014/01/14	2017/01/30	5958133	4178817	XS1013612095	GBLSE	D			2014/10/06	2017/01/10	79RI					
SCEXH	U	2014/01/14	2017/01/30	5958178	4178860	XS1013611527	GBLSE	D			2014/01/06	2017/01/10	79RM					
SCEXH	U	2013/11/14	2017/01/30	5913983	4142073	XS0995097671	GBLSE	D	100		2013/11/21	2017/01/10	82CR					
SCEXH	U	2004/03/27	2017/01/31	203820	143711	XS0140144204	GBLSE	D	100			2017/01/11	AG93					
SCEXH	U	2005/12/11	2017/01/30	439795	311928	XS0140850412	GBLSE	D	100			2017/01/09	AH52					
SCEXH	U	2007/06/12	2017/01/31	724637	596605	BG2040007218	BGBSE	D				2017/01/11						
SCEXH	U	2012/08/10	2017/01/30	5552284	3412605	LT0000405078	LTNSE	D				2017/01/10	VLBBSTR00117					
SCEXH	U	2014/02/05	2017/01/30	5978281	4193330	TRSAKFH11710	TRIMKB	D				2017/01/10						
SCEXH	U	2016/06/06	2017/01/30	6751163	4795372	TRFDSTF11719	TRIMKB	D				2017/01/10						
SCEXH	U	2016/08/18	2017/01/30	6832354	4868585	TRFDSTF11727	TRIMKB	D				2017/01/10						
SCEXH	U	2016/08/20	2017/01/31	6835493	4871435	TRFAKFK11711	TRIMKB	D				2017/01/11						
SCEXH	U	2016/08/22	2017/01/31	6836735	4872583	TRQTISB11714	TRIMKB	D				2017/01/11						
SCEXH	U	2016/08/22	2017/01/30	6836780	4872628	TRQNURL11713	TRIMKB	D				2017/01/10						
SCEXH	U	2016/08/22	2017/01/30	6836814	4872667	TRQTISB11722	TRIMKB	D				2017/01/10						
SCEXH	U	2016/08/22	2017/01/31	6837121	4872945	TRQYKBK11717	TRIMKB	D				2017/01/11						
SCEXH	U	2016/09/24	2017/01/30	6880428	4912998	TRQTISB11730	TRIMKB	D				2017/01/10						
SCEXH	U	2016/10/10	2017/01/31	6898851	4929973	TRQAKYB11718	TRIMKB	D				2017/01/11						
SCEXH	U	2016/11/08	2017/01/31	6928244	4956577	TRQTHAL11713	TRIMKB	D				2017/01/11						
SCEXH	U	2013/09/28	2017/01/31	5884256	4117202	FI4000033006	FIHSE	D				2017/01/11	DANZ000017					
SCEXH	I	2017/01/30	2017/01/30	7013484	5031220	NO0010783368	NOOB	N			2017/01/27		DTSB05 PRO					
SCEXH	I	2017/01/30	2017/01/30	7013491	4926638	NO0010776206	NOOB	N			2016/10/07		FFMK01 PRO					
SCEXH	I	2017/01/30	2017/01/30	7013489	5028952	NO0010782980	NOOB	N			2017/01/30		HGSB15 PRO					
SCEXH	I	2017/01/30	2017/01/30	7013486	5028961	NO0010783095	NOOB	N			2017/01/30		HSPG21 PRO					
SCEXH	U	2013/01/11	2017/01/30	5684339	3960628	NO0010669641	NOOB	D			2013/01/10	2017/01/10	PARB10 PRO					
SCEXH	U	2017/01/25	2017/01/30	7009133	5026280	NO0010782782	NOOB				2017/01/24		RHEM 135					
SCEXH	U	2006/12/20	2017/01/30	602437	457044	XS0271574328	IEISE	D	100			2017/01/10						
SCEXH	U	2006/12/20	2017/01/30	602445	457051	XS0271577776	IEISE	D	100			2017/01/10						
SCEXH	U	2006/12/20	2017/01/30	602456	457060	XS0271578584	IEISE	D	100			2017/01/10						
SCEXH	U	2006/12/20	2017/01/30	602458	457063	XS0271578154	IEISE	D	100			2017/01/10						
SCEXH	U	2007/11/06	2017/01/30	808655	467936	XS0271577180	IEISE	D				2017/01/10						
SCEXH	U	2012/01/07	2017/01/31	4871855	3416296	XS0728789578	IEISE	D	100		2012/01/10	2017/01/11						
SCEXH	U	2013/07/02	2017/01/30	5822769	4061148	XS0946719811	IEISE	D			2013/07/01	2017/01/10						
SCEXH	U	2013/10/10	2017/01/30	5892057	4121678	XS0976109917	IEISE	D	1		2013/10/15	2017/01/10						
SCEXH	U	2013/10/11	2017/01/31	5893177	4124644	XS0979448494	IEISE	D			2014/03/05	2017/01/11						
SCEXH	U	2014/01/09	2017/01/31	5952430	4173480	XS1003212542	IEISE	D	1		2014/01/10	2017/01/11						
SCEXH	U	2014/01/11	2017/01/30	5955460	4174829	XS1011653372	IEISE	D	1		2014/01/09	2017/01/10						
SCEXH	U	2015/01/06	2017/01/31	6253557	4419091	GB00BNFX5655	IEISE	D			2015/01/02	2017/01/27						
SCEXH	U	2015/03/30	2017/01/31	6326877	4475673	GB00BNFX5N25	IEISE	D			2015/03/02	2017/01/27						
SCEXH	U	2015/03/30	2017/01/31	6327842	4476478	XS1211308231	IEISE		100		2015/04/13							
SCEXH	U	2016/01/09	2017/01/30	6609850	4680570	XS1344752420	IEISE	D	1		2016/01/11	2017/01/10						
SCEXH	U	2016/01/09	2017/01/30	6609882	4680601	XS1344760449	IEISE	D	1		2016/01/11	2017/01/10						
SCEXH	U	2016/01/13	2017/01/31	6613401	4683835	XS1345350836	IEISE	D	1		2016/01/12	2017/01/11						
SCEXH	U	2016/06/08	2017/01/30	6753880	4797843	XS1431731436	IEISE	D	1		2016/06/07	2017/01/10						
SCEXH	U	2016/08/11	2017/01/30	6826463	4863170	XS1470710358	IEISE	R	1		2016/08/10							
SCEXH	U	2016/08/11	2017/01/30	6826315	4863024	XS1470709939	IEISE	R	1		2016/08/10							
SCEXH	U	2016/12/03	2017/01/30	6954519	4980230	XS1531306717	IEISE	R			2017/01/27							
SCEXH	U	2016/12/12	2017/01/30	6963622	4987910	XS1533906498	IEISE	D			2016/12/09	2017/01/10						
SCEXH	U	2016/12/27	2017/01/31	6978334	5001655	US40053CAA36	IEISE				2017/01/27							
SCEXH	U	2017/01/13	2017/01/31	6997077	5018961	XS1538285393	IEISE	D			2016/12/20	2017/01/31						
SCEXH	I	2017/01/30	2017/01/30	7013485	5019964	XS1551748467	IEISE	N			2017/01/27							
SCEXH	I	2017/01/30	2017/01/30	7012379	5020065	XS1551930693	IEISE	N										
SCEXH	I	2017/01/31	2017/01/31	7014205	5029786	XS1547426541	IEISE	N			2017/01/30							
SCEXH	I	2017/01/31	2017/01/31	7014190	5034280	XS1556936224	IEISE	N			2017/01/30							
SCEXH	U	2017/01/27	2017/01/30	7011737	5004933	XS1261166752	IEISE				2017/01/26							
SCEXH	I	2017/01/30	2017/01/30	7012254	5031884	US781764AA33	IEISE	N										
SCEXH	U	2017/01/30	2017/01/30	7012256	5032556	XS1555995379	IEISE	N			2017/01/27							
SCEXH	I	2017/01/30	2017/01/30	7012264	5032563	GB00BD363C83	IEISE	N	100									
SCEXH	U	2017/01/30	2017/01/30	7012422	5029457	XS1556820600	IEISE	N			2017/01/27							
SCEXH	U	2017/01/30	2017/01/30	7012428	5026597	XS1555317111	IEISE	N			2017/01/27							
SCEXH	U	2017/01/30	2017/01/30	7012432	5029497	XS1556943519	IEISE	N			2017/01/27							
SCEXH	I	2017/01/30	2017/01/30	7012455	5032710	XS1559530719	IEISE	N										
SCEXH	I	2017/01/30	2017/01/30	7012461	5032716	XS1535018409	IEISE	N										
SCEXH	U	2017/01/30	2017/01/30	7012474	5023825	XS1554449758	IEISE	N			2017/01/27							
SCEXH	I	2017/01/30	2017/01/30	7012542	5032787	XS1555805693	IEISE	N			2017/01/27							
SCEXH	I	2017/01/30	2017/01/30	7012591	5032834	XS1535020215	IEISE	N										
SCEXH	I	2017/01/30	2017/01/30	7012598	5032841	USG9347QAA60	IEISE	N			2017/01/27							
SCEXH	I	2017/01/30	2017/01/30	7012600	5032843	USG9347QAB44	IEISE	N			2017/01/27							
SCEXH	I	2017/01/30	2017/01/30	7012602	5032845	XS1535019803	IEISE	N										
SCEXH	I	2017/01/30	2017/01/30	7012606	5032849	XS1535018318	IEISE	N										
SCEXH	I	2017/01/30	2017/01/30	7012612	5032857	XS1535018821	IEISE	N										
SCEXH	I	2017/01/30	2017/01/30	7012617	5032861	XS1535019126	IEISE	N										
SCEXH	I	2017/01/30	2017/01/30	7012621	5032864	XS1535020058	IEISE	N										
SCEXH	I	2017/01/30	2017/01/30	7012624	5032870	USG9347QAC27	IEISE	N			2017/01/27							
SCEXH	I	2017/01/30	2017/01/30	7012627	5032871	XS1535019043	IEISE	N										
SCEXH	I	2017/01/30	2017/01/30	7012630	5032875	USG9347QAD00	IEISE	N			2017/01/27							
SCEXH	I	2017/01/30	2017/01/30	7012632	5032876	XS1535019712	IEISE	N										
SCEXH	I	2017/01/30	2017/01/30	7012637	5032883	USG9346YAA04	IEISE	N			2017/01/27							
SCEXH	U	2017/01/30	2017/01/30	7012644	5032892	USG7110PAE90	IEISE	N			2017/01/27							
SCEXH	U	2017/01/30	2017/01/31	7012645	5029554	XS1548898334	IEISE				2017/01/30							
SCEXH	U	2017/01/30	2017/01/30	7012650	5032900	USG7110PAF65	IEISE	N			2017/01/27							
SCEXH	I	2017/01/30	2017/01/30	7012658	5032818	XS1521768728	IEISE	N			2017/01/27							
SCEXH	U	2017/01/30	2017/01/31	7012661	5032908	XS1548899225	IEISE				2017/01/30							
SCEXH	U	2017/01/30	2017/01/30	7012662	5032911	USG7110PAG49	IEISE	N			2017/01/27							
SCEXH	U	2017/01/30	2017/01/31	7012669	5032920	XS1548898508	IEISE				2017/01/30							
SCEXH	U	2017/01/30	2017/01/31	7012675	5032927	XS1548898847	IEISE				2017/01/30							
SCEXH	U	2017/01/30	2017/01/31	7012683	5032936	XS1548899068	IEISE				2017/01/30							
SCEXH	U	2017/01/30	2017/01/31	7012688	5032943	XS1548899738	IEISE				2017/01/30							
SCEXH	U	2017/01/30	2017/01/31	7012694	5032951	XS1548898417	IEISE				2017/01/30							
SCEXH	U	2017/01/30	2017/01/31	7012698	5032949	XS1548899571	IEISE				2017/01/30							
SCEXH	U	2017/01/30	2017/01/31	7012706	5032955	XS1548899142	IEISE				2017/01/30							
SCEXH	U	2017/01/30	2017/01/30	7012707	5032957	XS1555801270	IEISE	N			2017/01/27							
SCEXH	I	2017/01/30	2017/01/30	7012709	5029793	XS1556932660	IEISE	N			2017/01/27							
SCEXH	U	2017/01/30	2017/01/30	7012805	5033068	XS1558473010	IEISE	N			2017/01/27							
SCEXH	U	2017/01/30	2017/01/30	7012810	5033071	XS1558421993	IEISE	N			2017/01/27							
SCEXH	U	2017/01/30	2017/01/30	7012813	5033073	XS1559105694	IEISE	N			2017/01/27							
SCEXH	U	2017/01/30	2017/01/30	7012816	5033076	XS1558421134	IEISE	N			2017/01/27							
SCEXH	I	2017/01/30	2017/01/30	7013476	5029498	XS1556818455	IEISE	N			2017/01/27							
SCEXH	I	2017/01/31	2017/01/31	7013700	5033873	XS1439444503	IEISE	N										
SCEXH	I	2017/01/31	2017/01/31	7013873	5021327	XS1502945410	IEISE	N										
SCEXH	I	2017/01/31	2017/01/31	7013938	5029802	XS1558083652	IEISE	N										
SCEXH	U	2017/01/31	2017/01/31	7013951	5004171	XS1502934133	IEISE	N			2017/01/30							
SCEXH	I	2017/01/31	2017/01/31	7013954	5029148	XS1521773215	IEISE	N										
SCEXH	I	2017/01/31	2017/01/31	7013958	5004162	XS1502933911	IEISE	N										
SCEXH	U	2017/01/31	2017/01/31	7013959	5004168	XS1502934059	IEISE	N			2017/01/30							
SCEXH	U	2017/01/31	2017/01/31	7013981	5008445	XS1521722576	IEISE	N			2017/01/30							
SCEXH	I	2017/01/31	2017/01/31	7014044	5026303	XS1555355632	IEISE	N										
SCEXH	I	2017/01/31	2017/01/31	7014048	5021556	XS1552992668	IEISE	N										
SCEXH	I	2017/01/31	2017/01/31	7014070	5018079	XS1551073080	IEISE	N			2017/01/30							
SCEXH	I	2017/01/31	2017/01/31	7014082	5023846	XS1554464559	IEISE	N										
SCEXH	I	2017/01/31	2017/01/31	7014128	5031152	XS1557229918	IEISE	N			2017/01/30							
SCEXH	I	2017/01/31	2017/01/31	7014132	5029733	XS1556818372	IEISE	N			2017/01/27							
SCEXH	I	2017/01/31	2017/01/31	7014165	5024919	XS1555071957	IEISE	N			2017/01/30							
SCEXH	I	2017/01/31	2017/01/31	7014170	5021609	XS1554113925	IEISE	N			2017/01/30							
SCEXH	I	2017/01/31	2017/01/31	7014179	5034270	XS1554465101	IEISE	N			2017/01/30							
SCEXH	I	2017/01/31	2017/01/31	7014266	5034336	GB00BDDWDV55	IEISE	N			2017/01/30							
SCEXH	I	2017/01/31	2017/01/31	7014357	5029780	XS1547421823	IEISE	N			2017/01/30							
SCEXH	I	2017/01/31	2017/01/31	7014439	5004176	XS1502934216	IEISE	N			2017/01/30							
SCEXH	U	2014/01/16	2017/01/31	5959765	4180292	SE0005506011	SESSE	D				2017/01/11						
SCEXH	U	2014/09/30	2017/01/30	6174379	4355898	SE0004297067	SESSE	D				2017/01/10						
SCEXH	U	2016/12/17	2017/01/31	6970754	4994828	SE0009357403	SESSE				2017/01/30		HEMF 103					
SCEXH	I	2017/01/30	2017/01/30	7012793	5033041	SE0009579808	SESSE	N			2017/01/30		LABO 794					
SCEXH	I	2017/01/30	2017/01/30	7012795	5033044	SE0009579824	SESSE	N			2017/01/30		LABO 795					
SCEXH	U	2014/03/07	2017/01/30	6005556	4215514	SE0005504271	SESSE	D			2014/01/07	2017/01/10	MSIL SIF AOS13					
SCEXH	U	2014/01/18	2017/01/31	5962566	4182780	SE0005560307	SESSE	D				2017/01/11	NBF 17ROP A309					
SCEXH	U	2013/09/06	2017/01/31	5869055	4104229	SE0004898757	SESSE	D				2017/01/11	NBF KC55 3804B					
SCEXH	U	2013/09/06	2017/01/31	5869050	4104226	SE0004898740	SESSE	D				2017/01/11	NBF KT55 3804A					
SCEXH	U	2014/01/18	2017/01/31	5962524	4182742	SE0005505641	SESSE	D				2017/01/11	NBF VC67 A299B					
SCEXH	U	2014/01/18	2017/01/31	5962471	4182710	SE0005505633	SESSE	D				2017/01/11	NBF VT67 A299A					
SCEXH	U	2014/01/21	2017/01/31	5964587	4184160	SE0005503257	SESSE	D			2013/12/23	2017/01/11	SHBO 961AY					
SCEXH	U	2014/01/21	2017/01/31	5964677	4184235	SE0005503281	SESSE	D			2013/12/23	2017/01/11	SHBO 961VE					
SCEXH	I	2017/01/30	2017/01/30	7012786	5033030	SE0009548548	SESSE	N			2017/01/25		SHYB2013					
SCEXH	I	2017/01/31	2017/01/31	7014389	5034449	SE0009579832	SESSE	N			2017/01/30		SODE 164					
SCEXH	U	2017/01/18	2017/01/30	7001974	5023339	SE0009548142	SESSE				2017/01/24		VASA 516					
SCEXH	I	2017/01/30	2017/01/30	7012789	5033036	SE0009580186	SESSE	N			2017/01/31		VASA 517					
SCEXH	I	2017/01/30	2017/01/30	7012179	5032484	CH0353688929	CHSSX	N										
SCEXH	I	2017/01/31	2017/01/31	7014099	5030497	CH0352765157	CHSSX	N										
SCEXH	U	2012/01/30	2017/01/30	4967249	1603769	XS0456477578	CHSSX	D				2017/01/10	EU269					
SCEXH	U	2004/10/06	2017/01/31	275162	185275	US040114AR16	CHSSX	D	1000		2001/02/07	2017/01/31	USD972					
SCEXH	I	2017/01/30	2017/01/30	7012412	5032671	CH0352595901	CHSSX	N					ZKB001					
SCEXH	U	2012/07/16	2017/01/31	5538054	143711	XS0140144204	DEFSX	D	100		2011/05/23	2017/01/11						
SCEXH	U	2010/03/29	2017/01/31	2511863	185275	US040114AR16	DEFSX	D	100			2017/01/31						
SCEXH	U	2006/12/19	2017/01/30	601405	456132	XS0072223604	DEFSX	D				2017/01/10						
SCEXH	U	2007/01/26	2017/01/31	641325	490107	XS0142505816	DEFSX	D				2017/01/11						
SCEXH	U	2007/02/05	2017/01/30	658546	504661	XS0208945120	DEFSX	D				2017/01/09						
SCEXH	U	2007/02/06	2017/01/30	660562	506389	XS0207233510	DEFSX	D				2017/01/09						
SCEXH	U	2012/10/16	2017/01/30	5623061	779967	US617446C235	DEFSX	D				2017/01/10						
SCEXH	U	2012/10/16	2017/01/30	5623194	1603769	XS0456477578	DEFSX	D				2017/01/10						
SCEXH	U	2015/07/21	2017/01/31	6455425	4553487	DE000HSH40S5	DEFSX	D			2015/07/10	2017/01/11						
SCEXH	U	2012/11/15	2017/01/30	5649094	2833014	DE000WLB6TW7	DEFSX	D				2016/02/03						
SCEXH	U	2011/12/17	2017/01/31	4805164	3372355	DE000A1K0UC5	DEFSX	D				2017/01/11						
SCEXH	U	2012/02/13	2017/01/31	5077054	3427370	US172967FW62	DEFSX	D				2017/01/11						
SCEXH	U	2012/04/19	2017/01/30	5360259	3427389	US36962G5N05	DEFSX	D				2017/01/10						
SCEXH	U	2012/07/30	2017/01/31	5546123	3476437	DE000HV2AE65	DEFSX	D				2017/01/11						
SCEXH	U	2012/04/23	2017/01/31	5366172	3551911	DE000BRL8529	DEFSX	D				2017/01/11						
SCEXH	U	2012/07/30	2017/01/31	5546120	3562275	DE000HV2AE57	DEFSX	D				2017/01/11						
SCEXH	U	2012/07/14	2017/01/30	5537380	3659201	DE000LBB59U2	DEFSX	D				2017/01/10						
SCEXH	U	2013/02/11	2017/01/31	5707899	3950591	DE000HLB0UL0	DEFSX	D			2013/01/11	2017/01/11						
SCEXH	U	2013/12/16	2017/01/31	5937032	3974408	DE000LBB0KD4	DEFSX	D			2013/01/29	2017/01/11						
SCEXH	U	2014/02/01	2017/01/31	5973887	4133739	DE000LBB4N57	DEFSX	D			2013/10/29	2017/01/11						
SCEXH	U	2014/01/11	2017/01/31	5954903	4174455	US05252BCB36	DEFSX	D	100			2017/01/11						
SCEXH	U	2014/02/17	2017/01/31	5988628	4175785	US865622BF06	DEFSX	D			2014/01/13	2017/01/11						
SCEXH	U	2014/04/14	2017/01/31	6041344	4124644	XS0979448494	DEFSX	D			2014/03/10	2017/01/11						
SCEXH	U	2014/05/15	2017/01/30	6064890	4267034	DE000BLB1J15	DEFSX	D			2013/02/08	2017/01/10						
SCEXH	U	2014/08/25	2017/01/31	6142558	4175866	XS1009853141	DEFSX	D			2014/06/13	2017/01/11						
SCEXH	U	2014/09/16	2017/01/31	6159663	4302588	DE000HSH4RS0	DEFSX	D			2014/07/10	2017/01/11						
SCEXH	U	2015/01/20	2017/01/30	6266022	4419876	US36967FAB76	DEFSX	D				2017/01/10						
SCEXH	U	2015/03/23	2017/01/30	6321298	4399919	DE000HLB1W07	DEFSX	D				2017/01/10						
SCEXH	U	2015/03/23	2017/01/30	6321322	4399918	DE000HLB1WW1	DEFSX	D				2017/01/10						
SCEXH	U	2015/07/11	2017/01/30	6446242	4552714	DE000HLB2FV6	DEFSX	D	1			2017/01/10						
SCEXH	U	2015/10/01	2017/01/31	6529754	3156588	DE000LB0G341	DEFSX	D			2015/09/30	2017/01/11						
SCEXH	U	2015/10/05	2017/01/31	6530970	4152401	XS0997726111	DEFSX	D	1		2015/10/01	2017/01/11						
SCEXH	I	2017/01/30	2017/01/30	7012165	5025775	XS1556043369	DEFSX	N										
SCEXH	I	2017/01/30	2017/01/30	7012163	5029727	XS1556279211	DEFSX	N										
SCEXH	I	2017/01/30	2017/01/30	7012176	5032480	DE000UBS53A2	DEFSX	N										
SCEXH	I	2017/01/30	2017/01/30	7012183	5032489	DE000LB1DR47	DEFSX	N	100									
SCEXH	I	2017/01/30	2017/01/30	7012185	5032490	DE000HLB2HZ3	DEFSX	N	100									
SCEXH	I	2017/01/30	2017/01/30	7012404	5026301	XS1555090403	DEFSX	N										
SCEXH	I	2017/01/30	2017/01/30	7012759	4956594	AT0000A1NWJ6	DEFSX	N										
SCEXH	I	2017/01/31	2017/01/31	7014004	5030426	XS1533923238	DEFSX	N										
SCEXH	I	2017/01/31	2017/01/31	7014245	4857029	DE000DB9TZH6	DEFSX	N			2016/08/05							
SCEXH	I	2017/01/31	2017/01/31	7014267	4871094	DE000DB9TZX3	DEFSX	N										
SCEXH	I	2017/01/31	2017/01/31	7014287	4899023	DE000DE04W27	DEFSX	N										
SCEXH	I	2017/01/31	2017/01/31	7014305	4915805	DE000DE04W35	DEFSX	N										
SCEXH	I	2017/01/31	2017/01/31	7014356	4945617	DE000DE04W50	DEFSX	N										
SCEXH	I	2017/01/31	2017/01/31	7014365	4933222	DE000DE04W68	DEFSX	N										
SCEXH	I	2017/01/31	2017/01/31	7014381	4961380	DE000DE04W76	DEFSX	N										
SCEXH	I	2017/01/31	2017/01/31	7014397	4761756	DE000DE04WL4	DEFSX	N										
SCEXH	U	2014/01/15	2017/01/31	5959498	4176751	US89153VAJ89	DEFSX	D	100			2017/01/11	2TI8					
SCEXH	U	2013/12/30	2017/01/30	5945870	4142073	XS0995097671	DEFSX	D				2017/01/10	A0DA					
SCEXH	U	2010/04/01	2017/01/30	2515894	585391	ES0413900145	DEFSX	D			2011/05/23	2017/01/10	BSDB					
SCEXH	U	2013/12/30	2017/01/30	5945988	4140005	XS0992644038	DEFSX	D				2017/01/09	UV0A					
SCEXH	U	2012/02/22	2017/01/31	5099435	3416296	XS0728789578	DEFSX	D				2017/01/11	ZZWF					
SCEXH	U	2010/04/17	2017/01/31	2568248	1882663	AT0000303722	ATVSE	D				2017/01/11						
SCEXH	U	2014/06/09	2017/01/30	6084710	4257402	AT000B043211	ATVSE	D			2014/06/10	2017/01/10						
SCEXH	U	2014/06/27	2017/01/30	6099455	4296619	AT000B043245	ATVSE	D			2014/06/25	2017/01/10						
SCEXH	U	2014/12/11	2017/01/30	6234698	4400258	XS1148552190	ATVSE	D				2017/01/30						
SCEXH	U	2015/07/02	2017/01/31	6436108	4546683	IT0005120867	ATVSE	D			2015/06/26	2017/01/31						
SCEXH	U	2017/01/14	2017/01/30	6997564	5019342	XS1551932046	ATVSE				2017/01/26							
SCEXH	I	2017/01/30	2017/01/30	7012193	5032497	AT0000A1QQF9	ATVSE	N			2017/01/27							
SCEXH	I	2017/01/30	2017/01/30	7012197	5032505	AT0000A1QQE2	ATVSE	N			2017/01/27							
SCEXH	I	2017/01/30	2017/01/30	7012216	5032522	AT0000A1QQD4	ATVSE	N			2017/01/27							
SCEXH	I	2017/01/30	2017/01/30	7012257	5032557	AT0000A1TBJ7	ATVSE	N			2017/01/26							
SCEXH	I	2017/01/30	2017/01/30	7012312	5032595	XS1557159289	ATVSE	N			2017/01/30							
SCEXH	I	2017/01/30	2017/01/30	7012401	5032666	AT000B023288	ATVSE	N			2017/01/27							
SCEXH	I	2017/01/30	2017/01/30	7012415	5032675	AT000B023270	ATVSE	N			2017/01/30							
SCEXH	I	2017/01/31	2017/01/31	7013765	5029740	XS1556947262	ATVSE	N			2017/01/30							
SCEXH	I	2017/01/31	2017/01/31	7013787	5025804	XS1555576484	ATVSE	N			2017/01/31							
SCEXH	I	2017/01/31	2017/01/31	7013794	5015639	XS1549365994	ATVSE	N			2017/01/31							
SCEXH	I	2017/01/31	2017/01/31	7013672	5033844	CZ0003515413	CZPSE	N										
SCEXH	I	2017/01/30	2017/01/30	7012771	5031781	US92828Q2084	USNASD	N	100	100			VRTSP				L	
SCEXH	U	2014/10/07	2017/01/31	6180100	4173344	US05252ACB52	USOTC	D				2017/01/11						
SCEXH	U	2014/10/14	2017/01/31	6185893	4173340	US05253JAE10	USOTC	D				2017/01/11						
SCEXH	U	2014/10/16	2017/01/31	6187809	4174455	US05252BCB36	USOTC	D				2017/01/11						
SCEXH	U	2014/11/05	2017/01/31	6205345	1947392	US14888TAD63	USOTC	D				2016/12/16						
SCEXH	U	2015/01/09	2017/01/30	6256911	4214715	US368034AA25	USOTC	D				2017/01/10						
SCEXH	U	2015/01/09	2017/01/30	6257568	4133664	US36354TAA07	USOTC	D				2017/01/10						
SCEXH	U	2015/02/27	2017/01/30	6298979	4158300	US89267XAC20	USOTC	D				2017/01/10						
SCEXH	U	2015/02/27	2017/01/30	6298987	4158292	US89267XAE85	USOTC	D				2017/01/10						
SCEXH	U	2015/02/27	2017/01/30	6299460	4166223	US922764AA33	USOTC	D				2017/01/10						
SCEXH	U	2015/02/28	2017/01/30	6300516	3979168	US92848DAA28	USOTC	D				2017/01/10						
SCEXH	U	2015/02/28	2017/01/30	6300517	3984595	US92848DAB01	USOTC	D				2017/01/10						
SCEXH	U	2015/03/06	2017/01/31	6307610	4115148	USC21847AC91	USOTC	D				2016/12/16						
SCEXH	U	2015/04/17	2017/01/30	6345573	2292385	USU83577AA18	USOTC	D				2016/09/13						
SCEXH	U	2015/05/25	2017/01/30	6387792	4064197	US00081TAH14	USOTC	D				2017/01/10						
SCEXH	U	2015/05/28	2017/01/30	6391232	2959950	US021332AC50	USOTC	D				2017/01/09						
SCEXH	U	2015/05/30	2017/01/30	6393834	3662572	US03064PAE16	USOTC	D				2017/01/10						
SCEXH	U	2015/06/02	2017/01/31	6396458	4173467	US084664CA72	USOTC	D				2017/01/11						
SCEXH	U	2015/06/06	2017/01/31	6401217	2118863	US14888TAC80	USOTC	D				2016/12/16						
SCEXH	U	2015/06/09	2017/01/31	6404163	3427370	US172967FW62	USOTC	D				2017/01/11						
SCEXH	U	2015/06/09	2017/01/31	6404580	779573	US17305EED31	USOTC	D				2017/01/11						
SCEXH	U	2015/06/12	2017/01/31	6407598	185275	US040114AR16	USOTC	D				2017/01/31						
SCEXH	U	2015/08/27	2017/01/31	6493704	4176751	US89153VAJ89	USOTC	D				2017/01/11						
SCEXH	U	2015/09/05	2017/01/31	6502911	1807392	USC21847AB19	USOTC	D				2016/12/16						
SCEXH	U	2015/10/06	2017/01/30	6532359	3427389	US36962G5N05	USOTC	D				2017/01/10						
SCEXH	U	2015/10/16	2017/01/30	6545964	779967	US617446C235	USOTC	D				2017/01/10						
SCEXH	U	2015/10/16	2017/01/30	6546087	4180180	US61762W8367	USOTC	D				2017/01/10						
SCEXH	U	2016/11/03	2017/01/31	6923734	4952535	GB00B669WX96	USOTC	D	100	100	2016/10/12	2016/12/09					P	
SCEXH	I	2017/01/31	2017/01/31	7014373	5034434	US02529EAA55	USOTC	N										
SCEXH	I	2017/01/31	2017/01/31	7014390	5034450	US02529EAE77	USOTC	N										
SCEXH	I	2017/01/30	2017/01/30	7012188	5032492	XS1555446605	USOTC	N	100									
SCEXH	I	2017/01/30	2017/01/30	7012299	5026815	USG6935LAB92	USOTC	N										
SCEXH	I	2017/01/31	2017/01/31	7014376	5034437	US02529EAB39	USOTC	N										
SCEXH	I	2017/01/31	2017/01/31	7013720	5033892	US09202JAG04	USOTC	N										
SCEXH	I	2017/01/31	2017/01/31	7014325	5034391	US05970BAA89	USOTC	N										
SCEXH	I	2017/01/31	2017/01/31	7014386	5034445	US02529EAC12	USOTC	N										
SCEXH	I	2017/01/31	2017/01/31	7014392	5034452	US02529EAF43	USOTC	N										
SCEXH	I	2017/01/31	2017/01/31	7014394	5034453	US02529EAG26	USOTC	N										
SCEXH	I	2017/01/31	2017/01/31	7014400	5034456	US02529EAH09	USOTC	N										
SCEXH	U	2003/04/25	2017/01/30	130686	97284	US7763823017	USOTC		100	100			RMLXP					
SCEXH	U	2014/09/26	2017/01/30	6170370	4064197	US00081TAH14	USNYSE	D			2014/09/24	2017/01/10	ACCO20					
SCEXH	I	2017/01/31	2017/01/31	7013575	5030722	US06741VJ455	USNYSE	N					BCS/19A					
SCEXH	U	2012/01/07	2017/01/31	4872169	3427370	US172967FW62	USNYSE	D			2012/01/10	2017/01/11	C17AE					
SCEXH	I	2017/01/31	2017/01/31	7013574	5031858	US14042RFH93	USNYSE	N					COF/20					
SCEXH	U	2008/11/05	2017/01/31	1600130	1227968	US21988G4608	USNYSE		100	100	2002/05/01		CVBCL					
SCEXH	U	2012/01/23	2017/01/30	4948594	3477976	US33616C2098	USNYSE	D	100	100	2012/01/25	2017/01/30	FRCPRACL					
SCEXH	U	2012/01/07	2017/01/30	4872197	3427389	US36962G5N05	USNYSE	D			2012/01/09	2017/01/10	GE/17L					
SCEXH	U	2011/03/14	2017/01/30	3575275	779967	US617446C235	USNYSE	D	100			2017/01/10	MS17					
SCEXH	I	2017/01/31	2017/01/31	7013573	5030555	US78012KZG56	USNYSE	N					RY22A					
SCEXH	U	2015/09/23	2017/01/31	6518940	4175785	US865622BF06	USNYSE	D	100		2015/09/22	2017/01/11	SMFG/17B					
SCEXH	U	2015/09/25	2017/01/31	6520956	4176751	US89153VAJ89	USNYSE	D			2015/09/23	2017/01/11	TOT/17B					
SCEXH	U	2017/01/30	2017/01/31	7012237	5030580	US92343VDT89	USNYSE						VZ47					
SCEXH	U	2014/05/30	2017/01/30	6078280	4278612	FR0011927508	FRPEN	D			2014/05/28	2017/01/27						
SCEXH	U	2016/01/16	2017/01/31	6622154	4686726	FR0123481493	FRPEN	D			2016/01/18	2017/01/11						
SCEXH	U	2016/10/01	2017/01/30	6889231	4921084	FR0124017841	FRPEN	D				2017/01/10						
SCEXH	U	2016/10/25	2017/01/30	6914709	4944312	FR0124013774	FRPEN	D			2016/10/24	2017/01/10						
SCEXH	U	2016/10/25	2017/01/30	6914719	4944324	FR0124013931	FRPEN	D			2016/10/24	2017/01/10						
SCEXH	I	2017/01/30	2017/01/30	7012322	5032605	FR0124229099	FRPEN	N			2017/01/27							
SCEXH	I	2017/01/30	2017/01/30	7012332	5032611	XS1558472129	FRPEN	N										
SCEXH	I	2017/01/31	2017/01/31	7013583	5033755	FR0124229610	FRPEN	N										
SCEXH	I	2017/01/30	2017/01/30	7012353	5032629	FR0013233400	FRPEN	N			2017/01/27		BPCSW					
SCEXH	I	2017/01/30	2017/01/30	7012301	5032588	FR0013233459	FRPEN	N			2017/01/30		BPCSX					
SCEXH	I	2017/01/30	2017/01/30	7012341	5032618	FR0013234200	FRPEN	N			2017/01/27		BPHBF					
SCEXH	I	2017/01/30	2017/01/30	7012313	5032597	FR0013234192	FRPEN	N			2017/01/27		BPHBG					
SCEXH	U	2012/11/02	2017/01/30	5639458	3923836	XS0851064732	FRPEN	D			2012/11/01	2017/01/30	CALAE					
SCEXH	I	2017/01/31	2017/01/31	7013569	5033740	FR0013234689	FRPEN	N			2017/01/31		CALCE					
SCEXH	I	2017/01/30	2017/01/30	7012282	5032580	XS1457381991	LULSE	N			2017/01/30							
SCEXH	U	2004/10/06	2017/01/31	275161	185275	US040114AR16	LULSE	D	1000		1997/01/30	2017/01/31						
SCEXH	U	2005/01/29	2017/01/31	315847	215549	IT0003186100	LULSE	D			2001/12/20	2017/01/11						
SCEXH	U	2005/09/06	2017/01/30	399184	281143	DE000A0E6NY0	LULSE	D			2010/03/12	2017/01/10						
SCEXH	U	2006/02/22	2017/01/30	468261	337924	XS0083137504	LULSE	D				2017/01/09						
SCEXH	U	2007/02/22	2017/01/30	684240	536158	XS0280733725	LULSE	D	100		2007/01/08	2017/01/09						
SCEXH	U	2009/03/25	2017/01/31	1812298	618204	XS0309157559	LULSE	D			2007/08/10	2017/01/11						
SCEXH	U	2008/07/10	2017/01/31	1213550	989659	DE000A0V83V8	LULSE	D	100		2008/07/07	2017/01/11						
SCEXH	U	2008/07/10	2017/01/31	1213549	989676	DE000A0V83W6	LULSE	D			2008/07/07	2017/01/11						
SCEXH	U	2008/08/21	2017/01/30	1405516	1114457	FR0010412684	LULSE	D			2007/01/09	2017/01/10						
SCEXH	U	2008/10/07	2017/01/31	1507139	1180021	FR0010670752	LULSE	D			2008/10/06	2017/01/11						
SCEXH	U	2012/01/24	2017/01/30	4953451	1438443	DE000DB2NJQ9	LULSE	D			2010/07/28	2017/01/10						
SCEXH	U	2011/08/24	2017/01/30	4223635	1603769	XS0456477578	LULSE	D	100		2009/10/08	2017/01/10						
SCEXH	U	2011/06/10	2017/01/31	3941235	2760761	FR0010988279	LULSE	D			2011/05/19	2017/01/11						
SCEXH	U	2011/12/22	2017/01/31	4819791	3385478	FR0010979211	LULSE	D			2011/03/02	2017/01/11						
SCEXH	U	2011/12/31	2017/01/31	4839053	3403365	SE0004329894	LULSE	D	100		2011/12/30	2017/01/11						
SCEXH	U	2012/03/16	2017/01/31	5209199	3427370	US172967FW62	LULSE	D			2012/02/03	2017/01/11						
SCEXH	U	2012/04/17	2017/01/31	5354410	3736678	FR0011130335	LULSE	D			2011/10/14	2017/01/11						
SCEXH	U	2012/06/04	2017/01/30	5509014	3833609	FR0010920934	LULSE	D			2010/07/28	2017/01/10						
SCEXH	U	2013/01/09	2017/01/30	5682654	3945910	XS0862044442	LULSE	D			2013/01/09	2017/01/10						
SCEXH	U	2013/02/21	2017/01/31	5715643	3986118	FR0011142470	LULSE	D			2011/11/18	2017/01/11						
SCEXH	U	2013/05/07	2017/01/31	5769667	4032010	FR0011111467	LULSE	D			2011/12/15	2017/01/11						
SCEXH	U	2013/06/06	2017/01/31	5794953	4051883	FR0011318583	LULSE	D			2012/10/15	2017/01/11						
SCEXH	U	2013/06/20	2017/01/31	5809523	4060912	FR0010951061	LULSE	D			2011/01/05	2017/01/11						
SCEXH	U	2014/01/09	2017/01/31	5952615	4136368	XS0928263259	LULSE	D			2014/01/10	2017/01/11						
SCEXH	U	2013/11/12	2017/01/30	5911653	4140005	XS0992644038	LULSE	D	100			2017/01/09						
SCEXH	U	2013/12/02	2017/01/30	5926271	4140886	XS0992644467	LULSE	D	100			2017/01/09						
SCEXH	U	2014/01/09	2017/01/31	5952464	4156411	XS0928260156	LULSE	D			2014/01/10	2017/01/11						
SCEXH	U	2014/01/09	2017/01/31	5952454	4156413	XS0928260230	LULSE	D			2014/01/10	2017/01/11						
SCEXH	U	2014/01/09	2017/01/31	5952607	4156414	XS0928260404	LULSE	D			2014/01/10	2017/01/11						
SCEXH	U	2014/01/17	2017/01/30	5960880	4181261	XS1013857013	LULSE	D			2014/01/16	2017/01/10						
SCEXH	U	2014/01/17	2017/01/31	5960928	4181302	DE000DB6HDB7	LULSE	D				2017/01/11						
SCEXH	U	2015/01/13	2017/01/31	6259797	4423887	FR0012420404	LULSE	D			2015/01/12	2017/01/11						
SCEXH	U	2015/04/08	2017/01/31	6335858	4477514	XS1190260593	LULSE	D			2015/04/07	2017/01/11						
SCEXH	U	2015/07/08	2017/01/30	6442857	4551791	FR0012656296	LULSE	D			2015/07/07	2017/01/10						
SCEXH	U	2015/07/10	2017/01/30	6445227	4546630	XS1257015237	LULSE	D	1		2015/07/09	2017/01/10						
SCEXH	U	2015/07/11	2017/01/31	6446251	4554298	DE000A1Z3208	LULSE	D			2015/07/10	2017/01/11						
SCEXH	U	2015/08/27	2017/01/30	6493103	4583999	XS1278856726	LULSE	D	1		2015/08/26	2017/01/10						
SCEXH	U	2015/10/10	2017/01/30	6538031	4619568	XS1303769753	LULSE	D			2015/10/09	2017/01/10						
SCEXH	U	2015/10/28	2017/01/31	6556626	4633312	XS1190840089	LULSE	D			2015/10/27	2017/01/31						
SCEXH	U	2015/11/30	2017/01/31	6581285	4655212	FR0013048337	LULSE	D			2015/11/27	2017/01/11						
SCEXH	U	2016/01/08	2017/01/30	6608869	4670587	XS1295010570	LULSE	D			2016/01/07	2017/01/10						
SCEXH	U	2016/01/08	2017/01/30	6608875	4670555	XS1295010653	LULSE	D			2016/01/07	2017/01/10						
SCEXH	U	2016/01/09	2017/01/30	6609371	4679936	XS1342910954	LULSE	D			2016/01/08	2017/01/10						
SCEXH	U	2016/01/21	2017/01/31	6630264	4677540	XS1295011628	LULSE	D			2016/01/20	2017/01/11						
SCEXH	U	2016/02/17	2017/01/30	6650058	4706701		LULSE	D			2016/02/17	2017/01/30						
SCEXH	U	2016/06/10	2017/01/30	6755714	4799363	XS1432561972	LULSE	D			2016/06/09	2017/01/10						
SCEXH	U	2016/06/10	2017/01/30	6755718	4799372	XS1432495734	LULSE	D			2016/06/09	2017/01/10						
SCEXH	U	2016/07/11	2017/01/31	6787931	4816522	XS1385764185	LULSE	D			2016/07/08	2017/01/11						
SCEXH	U	2016/07/11	2017/01/30	6788002	4828565	XS1445684787	LULSE	D			2016/07/08	2017/01/10						
SCEXH	I	2017/01/30	2017/01/30	7012316	5032599	XS1559357154	LULSE	N										
SCEXH	U	2016/07/28	2017/01/30	6808045	4846231	FR0013188117	LULSE	D			2016/07/27	2017/01/10						
SCEXH	U	2016/08/10	2017/01/30	6824350	4861202	XS1472735767	LULSE	D			2016/08/09	2017/01/10						
SCEXH	U	2016/08/10	2017/01/30	6824269	4861141	XS1471732021	LULSE	D			2016/08/08	2017/01/10						
SCEXH	U	2016/08/10	2017/01/30	6824353	4861204	XS1472546107	LULSE	D			2016/08/09	2017/01/10						
SCEXH	U	2016/08/12	2017/01/30	6827450	4864071	FR0013197183	LULSE	D			2016/08/11	2017/01/10						
SCEXH	U	2016/12/10	2017/01/31	6962949	4987829	FR0013221835	LULSE	D			2016/12/09	2017/01/11						
SCEXH	U	2017/01/19	2017/01/31	7002594	5023617	XS1554373164	LULSE				2017/01/30							
SCEXH	U	2017/01/20	2017/01/30	7003566	5024769	US222213AP53	LULSE		100		2017/01/27							
SCEXH	I	2017/01/30	2017/01/30	7012384	5025060	XS1555123261	LULSE	N			2017/01/27							
SCEXH	I	2017/01/30	2017/01/30	7012386	5025010	XS1555119319	LULSE	N			2017/01/27							
SCEXH	I	2017/01/30	2017/01/30	7012388	5024989	XS1555117297	LULSE	N			2017/01/27							
SCEXH	U	2017/01/21	2017/01/30	7004661	5025749	XS1555666632	LULSE				2017/01/27							
SCEXH	U	2017/01/21	2017/01/30	7004713	5025791	XS1555664264	LULSE				2017/01/27							
SCEXH	U	2017/01/21	2017/01/30	7004716	5025794	US29878TCV44	LULSE				2017/01/27							
SCEXH	U	2017/01/24	2017/01/31	7008113	5028896	XS1557095616	LULSE				2017/01/30							
SCEXH	U	2017/01/25	2017/01/31	7008561	5028955	XS1557095459	LULSE				2017/01/30							
SCEXH	U	2017/01/25	2017/01/31	7008573	5028941	XS1557096267	LULSE				2017/01/30							
SCEXH	U	2017/01/26	2017/01/31	7009885	5030453	XS1558029366	LULSE				2017/01/30							
SCEXH	I	2017/01/30	2017/01/30	7012195	5032500	XS1559881690	LULSE	N										
SCEXH	I	2017/01/30	2017/01/30	7012199	5032507	XS1559797557	LULSE	N										
SCEXH	I	2017/01/30	2017/01/30	7012209	5032516	XS1559529620	LULSE	N	100									
SCEXH	I	2017/01/30	2017/01/30	7012269	5008373	XS0461335100	LULSE	N			2017/01/31							
SCEXH	I	2017/01/30	2017/01/30	7012274	5009551	XS1100838405	LULSE	N										
SCEXH	I	2017/01/30	2017/01/30	7012277	5032573	XS1480245452	LULSE	N	1									
SCEXH	I	2017/01/30	2017/01/30	7012287	5029930	XS1505036043	LULSE	N			2017/01/30							
SCEXH	I	2017/01/30	2017/01/30	7012291	5032565	US00107VAA17	LULSE	N										
SCEXH	I	2017/01/30	2017/01/30	7012290	5031688	XS1505035664	LULSE	N			2017/01/27							
SCEXH	I	2017/01/30	2017/01/30	7012296	5027137	XS1526123036	LULSE	N			2017/01/27							
SCEXH	I	2017/01/30	2017/01/30	7012297	5032574	USP1000CAA29	LULSE	N										
SCEXH	I	2017/01/30	2017/01/30	7012302	5032590	FR0013231461	LULSE	N			2017/01/27							
SCEXH	I	2017/01/30	2017/01/30	7012306	5021720	XS1554105822	LULSE	N			2017/01/27							
SCEXH	I	2017/01/30	2017/01/30	7012309	5029726	XS1556278916	LULSE	N			2017/01/27							
SCEXH	I	2017/01/30	2017/01/30	7012314	5031703	XS1505039575	LULSE	N			2017/01/27							
SCEXH	I	2017/01/30	2017/01/30	7012321	5024672	XS1505027562	LULSE	N			2017/01/27							
SCEXH	I	2017/01/30	2017/01/30	7012327	5026577	XS1555317038	LULSE	N			2017/01/27							
SCEXH	I	2017/01/30	2017/01/30	7012331	5024890	XS1555052650	LULSE	N			2017/01/27							
SCEXH	I	2017/01/30	2017/01/30	7012342	5032620	XS1559352437	LULSE	N										
SCEXH	I	2017/01/30	2017/01/30	7012343	5032622	XS1555707923	LULSE	N			2017/01/27							
SCEXH	I	2017/01/30	2017/01/30	7012347	5025006	XS1555119152	LULSE	N			2017/01/27							
SCEXH	I	2017/01/30	2017/01/30	7012350	5024982	XS1555116562	LULSE	N			2017/01/27							
SCEXH	I	2017/01/30	2017/01/30	7012357	5024995	XS1555117883	LULSE	N			2017/01/27							
SCEXH	I	2017/01/30	2017/01/30	7012368	5025012	XS1555121562	LULSE	N			2017/01/27							
SCEXH	I	2017/01/30	2017/01/30	7012374	5025009	XS1555117537	LULSE	N			2017/01/27							
SCEXH	I	2017/01/30	2017/01/30	7012380	5025003	XS1555118931	LULSE	N			2017/01/27							
SCEXH	I	2017/01/30	2017/01/30	7012392	5024999	XS1555118691	LULSE	N			2017/01/27							
SCEXH	I	2017/01/30	2017/01/30	7012394	5025076	XS1555161196	LULSE	N			2017/01/27							
SCEXH	I	2017/01/30	2017/01/30	7012396	5032662	XS1557228357	LULSE	N										
SCEXH	I	2017/01/30	2017/01/30	7012399	5020962	XS1444500430	LULSE	N			2017/01/27							
SCEXH	I	2017/01/30	2017/01/30	7012406	5032670	XS1557228944	LULSE	N										
SCEXH	I	2017/01/30	2017/01/30	7012409	5025150	XS1555155388	LULSE	N			2017/01/27							
SCEXH	I	2017/01/30	2017/01/30	7012509	5032756	EU000A1Z99A1	LULSE	N										
SCEXH	I	2017/01/30	2017/01/30	7012523	5032676	XS1489595360	LULSE	N										
SCEXH	I	2017/01/31	2017/01/31	7013545	5029144	XS1557225684	LULSE	N			2017/01/30							
SCEXH	I	2017/01/31	2017/01/31	7013547	5032192	XS1558023088	LULSE	N			2017/01/30							
SCEXH	I	2017/01/31	2017/01/31	7013550	5031192	XS1557096770	LULSE	N			2017/01/30							
SCEXH	I	2017/01/31	2017/01/31	7013551	5029744	XS1556949128	LULSE	N			2017/01/30							
SCEXH	I	2017/01/31	2017/01/31	7013552	5033725	XS1559906356	LULSE	N										
SCEXH	I	2017/01/31	2017/01/31	7013620	5033789	XS1560661172	LULSE	N										
SCEXH	I	2017/01/31	2017/01/31	7013791	5033947	FR0013220779	LULSE	N			2017/02/01							
SCEXH	I	2017/01/31	2017/01/31	7013806	5031223	XS1557264824	LULSE	N			2017/01/30							
SCEXH	I	2017/01/31	2017/01/31	7013811	5021424	XS1526252512	LULSE	N			2017/01/30							
SCEXH	I	2017/01/31	2017/01/31	7013816	5026151	XS1526138141	LULSE	N			2017/01/30							
SCEXH	I	2017/01/31	2017/01/31	7013824	5033974	FR0013231750	LULSE	N			2017/01/30							
SCEXH	I	2017/01/31	2017/01/31	7013832	5033981	FR0013231909	LULSE	N			2017/01/30							
SCEXH	I	2017/01/31	2017/01/31	7013838	5033988	FR0013231875	LULSE	N			2017/01/30							
SCEXH	I	2017/01/31	2017/01/31	7013843	5033992	FR0013231727	LULSE	N			2017/01/30							
SCEXH	I	2017/01/31	2017/01/31	7013852	5031680	XS1505035581	LULSE	N			2017/01/30							
SCEXH	I	2017/01/31	2017/01/31	7013857	5029923	XS1505035748	LULSE	N			2017/01/30							
SCEXH	I	2017/01/31	2017/01/31	7013862	5031646	XS1505032992	LULSE	N			2017/01/30							
SCEXH	I	2017/01/31	2017/01/31	7013869	5034010	XS1480246930	LULSE	N										
SCEXH	I	2017/01/31	2017/01/31	7013871	5034012	XS1559515595	LULSE	N			2017/01/30							
SCEXH	I	2017/01/31	2017/01/31	7013881	5034022	XS1559515678	LULSE	N			2017/01/30							
SCEXH	I	2017/01/31	2017/01/31	7013891	5034030	XS1558504426	LULSE	N			2017/01/30							
SCEXH	I	2017/01/31	2017/01/31	7013898	5025102	XS1555173100	LULSE	N			2017/01/30							
SCEXH	I	2017/01/31	2017/01/31	7013902	5014113	XS1548791455	LULSE	N			2017/01/30							
SCEXH	I	2017/01/31	2017/01/31	7013907	5016867	XS1550262270	LULSE	N			2017/01/30							
SCEXH	I	2017/01/31	2017/01/31	7013910	5026768	XS1476031932	LULSE	N			2017/01/30							
SCEXH	I	2017/01/31	2017/01/31	7013917	5034052	XS1554286515	LULSE	N			2017/01/30							
SCEXH	I	2017/01/31	2017/01/31	7013920	5008367	XS1457957451	LULSE	N			2017/01/30							
SCEXH	I	2017/01/31	2017/01/31	7013924	5024623	XS1489575099	LULSE	N			2017/01/30							
SCEXH	I	2017/01/31	2017/01/31	7013925	5031638	XS1489593589	LULSE	N			2017/01/30							
SCEXH	I	2017/01/31	2017/01/31	7013927	5031618	XS1489593407	LULSE	N			2017/01/30							
SCEXH	I	2017/01/31	2017/01/31	7013931	5020512	XS1288747717	LULSE	N			2017/01/30							
SCEXH	I	2017/01/31	2017/01/31	7013935	5020950	XS1444500190	LULSE	N			2017/01/30							
SCEXH	I	2017/01/31	2017/01/31	7013936	5011867	XS1444522244	LULSE	N			2017/01/30							
SCEXH	I	2017/01/31	2017/01/31	7013941	5031555	XS1489590569	LULSE	N			2017/01/30							
SCEXH	I	2017/01/31	2017/01/31	7013942	5029802	XS1558083652	LULSE	N										
SCEXH	I	2017/01/31	2017/01/31	7013957	5034078	XS1288736272	LULSE	N			2017/01/30							
SCEXH	I	2017/01/31	2017/01/31	7013963	5023838	XS1554461373	LULSE	N			2017/01/30							
SCEXH	I	2017/01/30	2017/01/30	7012438	4974284	XS1457442025	ITMSE	N			2017/01/27							
SCEXH	I	2017/01/31	2017/01/31	7013660	5033831	IT0005240830	ITMSE	N										
SCEXH	I	2017/01/31	2017/01/31	7013698	5030565	IT0005239022	ITMSE	N										
SCEXH	I	2017/01/31	2017/01/31	7013746	5023511	XS1555402145	ITMSE	N			2017/01/30							
SCEXH	I	2017/01/31	2017/01/31	7013752	4894361	DE000CZ40LR5	ITMSE	N			2017/01/30							
SCEXH	I	2017/01/31	2017/01/31	7013753	5021262	DE000DL19TA6	ITMSE	N			2017/01/30							
SCEXH	I	2017/01/31	2017/01/31	7013756	5010327	XS1547407830	ITMSE	N			2017/01/30							
SCEXH	I	2017/01/31	2017/01/31	7013757	4990754	XS1538284230	ITMSE	N			2017/01/30							
SCEXH	I	2017/01/31	2017/01/31	7013758	5015513	XS1550135831	ITMSE	N			2017/01/30							
SCEXH	U	2009/08/22	2017/01/31	2086820	751111	ES0201001155	ESMSE	D				2017/01/11						
SCEXH	I	2017/01/31	2017/01/31	7014248	4936300	ES0001351453	ESMSE	N										
SCEXH	I	2017/01/31	2017/01/31	7014262	4936958	ES0001351461	ESMSE	N										
SCEXH	U	2015/03/04	2017/01/31	6303494	751111	ES0201001155	ESBSE	D				2017/01/11						
SCEXH	U	2011/12/19	2017/01/31	4806997	751111	ES0201001155	ESVSE	D				2017/01/11						
SCEXH	U	2015/03/03	2017/01/31	6302145	751111	ES0201001155	ESBBSE	D				2017/01/11						
SCEXH	U	2012/11/01	2017/01/31	5638856	3416296	XS0728789578	DEBSE	D	100			2017/01/11						
SCEXH	U	2012/03/22	2017/01/30	5228817	3659201	DE000LBB59U2	DEBSE	D				2017/01/10						
SCEXH	U	2013/12/16	2017/01/31	5937030	3974408	DE000LBB0KD4	DEBSE	D			2013/01/29	2017/01/11						
SCEXH	U	2013/10/29	2017/01/31	5904670	4133739	DE000LBB4N57	DEBSE	D			2013/10/29	2017/01/11						
SCEXH	U	2013/11/16	2017/01/30	5915964	4140005	XS0992644038	DEBSE	D	100			2017/01/09						
SCEXH	U	2014/04/24	2017/01/31	6049231	3551911	DE000BRL8529	DEBSE	D			2012/01/16	2017/01/11						
SCEXH	U	2015/01/09	2017/01/30	6256680	4419876	US36967FAB76	DEBSE	D	100			2017/01/10						
SCEXH	U	2015/04/08	2017/01/30	6335739	3174465	US345143AC52	DEBSE	S	100									
SCEXH	U	2015/09/17	2017/01/30	6514459	4552714	DE000HLB2FV6	DEBSE	D				2017/01/10						
SCEXH	U	2015/10/05	2017/01/30	6530981	4296619	AT000B043245	DEBSE	D	1			2017/01/10						
SCEXH	U	2016/01/13	2017/01/31	6614028	4174455	US05252BCB36	DEBSE	D				2017/01/11						
SCEXH	U	2016/01/13	2017/01/31	6614101	3950591	DE000HLB0UL0	DEBSE	D				2017/01/11						
SCEXH	U	2016/01/13	2017/01/31	6614222	4302588	DE000HSH4RS0	DEBSE	D				2017/01/11						
SCEXH	U	2016/01/14	2017/01/31	6617241	3427370	US172967FW62	DEBSE	D	100			2017/01/11						
SCEXH	U	2016/01/15	2017/01/31	6619654	185275	US040114AR16	DEBSE	D				2017/01/31						
SCEXH	U	2016/01/15	2017/01/30	6620826	3427389	US36962G5N05	DEBSE	D				2017/01/10						
SCEXH	U	2016/01/16	2017/01/30	6624053	1603769	XS0456477578	DEBSE	D				2017/01/10						
SCEXH	U	2016/01/19	2017/01/31	6625837	143711	XS0140144204	DEBSE	D				2017/01/11						
SCEXH	U	2016/01/19	2017/01/31	6626707	4175866	XS1009853141	DEBSE	D				2017/01/11						
SCEXH	U	2016/01/19	2017/01/30	6627309	585391	ES0413900145	DEBSE	D				2017/01/10						
SCEXH	U	2016/10/10	2017/01/31	6898500	4929572	XS1498935391	DEBSE	N										
SCEXH	I	2017/01/30	2017/01/30	7012162	5029041	DE000A2DASD4	DEBSE	N										
SCEXH	I	2017/01/30	2017/01/30	7012213	5029574	US878237AG14	DEBSE	N										
SCEXH	I	2017/01/30	2017/01/30	7012484	5029802	XS1558083652	DEBSE	N										
SCEXH	I	2017/01/30	2017/01/30	7012686	5029604	ES00000128P8	DEBSE	N										
SCEXH	I	2017/01/30	2017/01/30	7012797	4743326	DE000HLB2FJ1	DEBSE	N										
SCEXH	I	2017/01/30	2017/01/30	7012799	4782199	DE000HLB3B59	DEBSE	N										
SCEXH	I	2017/01/31	2017/01/31	7013584	5032487	NZLRBDT012C5	DEBSE	N	100									
SCEXH	I	2017/01/31	2017/01/31	7013769	5029537	FR0013234333	DEBSE	N										
SCEXH	I	2017/01/31	2017/01/31	7013825	4654373	HK0000274099	DEBSE	N										
SCEXH	I	2017/01/31	2017/01/31	7013968	5030555	US78012KZG56	DEBSE	N										
SCEXH	I	2017/01/31	2017/01/31	7014152	4971795	FR0013219573	DEBSE	N										
SCEXH	U	2012/10/31	2017/01/30	5636913	585391	ES0413900145	DEDSE	D	100			2017/01/10						
SCEXH	U	2012/02/21	2017/01/31	5098598	3572342	DE000WLB45K8	DEDSE	D				2017/01/11						
SCEXH	U	2014/09/03	2017/01/31	6148234	4338380	DE000A12T2F9	DEDSE				2017/01/30							
SCEXH	U	2014/11/08	2017/01/31	6208384	3960774	DE000WGZ7C37	DEDSE	D				2017/01/11						
SCEXH	U	2015/05/14	2017/01/31	6373742	3427370	US172967FW62	DEDSE	D				2017/01/11						
SCEXH	U	2015/05/14	2017/01/30	6373906	3427389	US36962G5N05	DEDSE	D				2017/01/10						
SCEXH	U	2015/05/14	2017/01/30	6373922	4419876	US36967FAB76	DEDSE	D				2017/01/10						
SCEXH	U	2015/05/14	2017/01/30	6374979	1603769	XS0456477578	DEDSE	D				2017/01/10						
SCEXH	U	2015/05/14	2017/01/31	6375508	3416296	XS0728789578	DEDSE	D				2017/01/11						
SCEXH	I	2017/01/30	2017/01/30	7012202	4951715	DE000A2AAW12	DEDSE	N										
SCEXH	U	2012/02/03	2017/01/30	4996471	3517004	DE000A1H3EJ3	DEHSE	D				2017/01/30						
SCEXH	I	2017/01/30	2017/01/30	7012901	5029802	XS1558083652	DEHSE	N			2017/01/27							
SCEXH	I	2017/01/31	2017/01/31	7014409	5034468	DE000A2DAE78	DEHSE	N			2017/01/31							
SCEXH	I	2017/01/31	2017/01/31	7014410	5029537	FR0013234333	DEHSE	N			2017/01/27							
SCEXH	I	2017/01/31	2017/01/31	7014412	5031622	DE000A2DADR6	DEHSE	N			2017/01/30							
SCEXH	I	2017/01/31	2017/01/31	7014413	4707583	XS1370951490	DEHSE	N			2017/01/30							
SCEXH	I	2017/01/31	2017/01/31	7014414	4996602	XS0809895476	DEHSE	N			2017/01/30							
SCEXH	U	2014/05/15	2017/01/30	6064892	4267034	DE000BLB1J15	DEMSE	D			2013/02/08	2017/01/10						
SCEXH	U	2012/11/15	2017/01/30	5649095	2833014	DE000WLB6TW7	DESSE	D				2016/02/03						
SCEXH	U	2013/12/16	2017/01/31	5937031	3974408	DE000LBB0KD4	DESSE	D			2013/01/27	2017/01/11						
SCEXH	U	2014/02/01	2017/01/31	5973888	4133739	DE000LBB4N57	DESSE	D			2013/10/29	2017/01/11						
SCEXH	U	2014/05/15	2017/01/30	6064891	4267034	DE000BLB1J15	DESSE	D			2013/02/08	2017/01/10						
SCEXH	U	2014/06/07	2017/01/31	6084588	3156588	DE000LB0G341	DESSE	D	1			2017/01/11						
SCEXH	I	2017/01/31	2017/01/31	7014355	4945617	DE000DE04W50	DESSE	N										
SCEXH	I	2017/01/31	2017/01/31	7014217	4953300	DE000DB9T2H7	DESSE	N										
SCEXH	I	2017/01/31	2017/01/31	7014229	4954623	DE000DB9T2J3	DESSE	N										
SCEXH	I	2017/01/31	2017/01/31	7014246	4857029	DE000DB9TZH6	DESSE	N			2016/08/05							
SCEXH	I	2017/01/31	2017/01/31	7014268	4871094	DE000DB9TZX3	DESSE	N										
SCEXH	I	2017/01/31	2017/01/31	7014290	4899023	DE000DE04W27	DESSE	N										
SCEXH	I	2017/01/31	2017/01/31	7014306	4915805	DE000DE04W35	DESSE	N										
SCEXH	I	2017/01/31	2017/01/31	7014364	4933222	DE000DE04W68	DESSE	N										
SCEXH	I	2017/01/31	2017/01/31	7014380	4961380	DE000DE04W76	DESSE	N										
SCEXH	I	2017/01/31	2017/01/31	7014396	4761756	DE000DE04WL4	DESSE	N										
SCEXH	I	2017/01/31	2017/01/31	7014449	4853896	DE000DE04WY7	DESSE	N										
SCEXH	I	2017/01/31	2017/01/31	7013724	4947669	SK4120011917	SKBSE	N			2017/01/31		2NGF001E					
SCEXH	I	2017/01/31	2017/01/31	7013719	4947651	SK4120011933	SKBSE	N			2017/01/31		2NGF002E					
SCEXH	I	2017/01/31	2017/01/31	7013684	4947662	SK4120011925	SKBSE	N			2017/01/31		2NGF003E					
SCEXH	U	2014/02/07	2017/01/31	5980326	4193563	DE000DHY4242	DEHNSE	D			2014/02/06	2017/01/31						
SCEXH	I	2017/01/30	2017/01/30	7012849	5025790	DE000NLB88G5	DEHNSE	N			2017/01/27							
SCEXH	I	2017/01/30	2017/01/30	7012850	5025743	DE000NLB87T0	DEHNSE	N			2017/01/27							
SCEXH	U	2017/01/30	2017/01/31	7012851	5031385	DE000NLB87N3	DEHNSE				2017/01/27							
SCEXH	I	2017/01/30	2017/01/30	7012853	5033106	DE000NLB87C6	DEHNSE	N										
SCEXH	I	2017/01/30	2017/01/30	7012857	5033107	DE000NLB8671	DEHNSE	N										
SCEXH	I	2017/01/30	2017/01/30	7012863	5033115	DE000NLB87E2	DEHNSE	N										
SCEXH	I	2017/01/30	2017/01/30	7012866	5033116	DE000NLB87L7	DEHNSE	N										
SCEXH	I	2017/01/30	2017/01/30	7012873	5033123	DE000DHY4770	DEHNSE	N										
SCEXH	I	2017/01/30	2017/01/30	7012845	5029041	DE000A2DASD4	DEHNSE	N			2017/01/25							
SCEXH	I	2017/01/30	2017/01/30	7012846	5028896	XS1557095616	DEHNSE	N										
SCEXH	I	2017/01/30	2017/01/30	7012847	5028955	XS1557095459	DEHNSE	N										
SCEXH	I	2017/01/30	2017/01/30	7012848	5028941	XS1557096267	DEHNSE	N										
SCEXH	I	2017/01/30	2017/01/30	7012897	5029802	XS1558083652	DEHNSE	N			2017/01/27							
SCEXH	I	2017/01/31	2017/01/31	7014424	5029537	FR0013234333	DEHNSE	N			2017/01/27							
SCEXH	I	2017/01/31	2017/01/31	7014425	4707583	XS1370951490	DEHNSE	N			2017/01/30							
SCEXH	I	2017/01/31	2017/01/31	7014427	4996602	XS0809895476	DEHNSE	N			2017/01/30							
SCEXH	I	2017/01/31	2017/01/31	7014433	5034503	DE000A1TM9L5	DEHNSE	N										
SCEXH	U	2014/04/05	2017/01/30	6033516	4240100	RU000A0JU5V9	RUMICX				2013/10/03							
SCEXH	I	2017/01/30	2017/01/30	7012768	5033012	RU000A0JX9X4	RUMICX	N			2017/01/30							
SCEXH	I	2017/01/30	2017/01/30	7012909	5033163		GBBND											
SCEXH	I	2017/01/30	2017/01/30	7012914	5033178		GBBND											
SCEXH	I	2017/01/30	2017/01/30	7012915	5033183		GBBND											
SCEXH	I	2017/01/30	2017/01/30	7012916	5033185		GBBND											
SCEXH	I	2017/01/30	2017/01/30	7012919	5033187		GBBND											
SCEXH	I	2017/01/31	2017/01/31	7013856	4419091	GB00BNFX5655	GBBND											
SCEXH	I	2017/01/31	2017/01/31	7013861	4475673	GB00BNFX5N25	GBBND											
SCEXH	D	2017/01/26	2017/01/31	7009928	5030497	CH0352765157	CHBND											
SCEXH	I	2017/01/30	2017/01/30	7012395	5032661	CH0355139855	CHBND											
SCEXH	I	2017/01/30	2017/01/30	7012577	5032820	CH0199123206	CHBND											
SCEXH	I	2017/01/31	2017/01/31	7013983	5034100	CH0351353682	CHBND											
SCEXH	I	2017/01/31	2017/01/31	7013987	5034105	CH0354480920	CHBND											
SCEXH	I	2017/01/31	2017/01/31	7013992	5034108	CH0354480938	CHBND											
SCEXH	I	2017/01/30	2017/01/30	7012625	5032867	SE0009357536	SENGM	N					OBDU PREF B				L	
SCEXH	D	2017/01/25	2017/01/31	7008835	5029537	FR0013234333	FRBND											
SCEXH	I	2017/01/30	2017/01/30	7012885	5033134	FR0013113792	FRBND											
SCEXH	I	2017/01/31	2017/01/31	7013819	5033969	FR0124095367	FRBND											
SCEXH	I	2017/01/31	2017/01/31	7013847	5033996	FR0124225642	FRBND											
SCEXH	U	2015/09/08	2017/01/31	6504960	4602047	PTG22JJM0014	PTBND											
SCEXH	U	2015/09/08	2017/01/31	6504972	4602057	PTG22IJM0015	PTBND											
SCEXH	U	2015/12/07	2017/01/31	6587034	4660239	PTS07PJM0011	PTBND											
SCEXH	I	2017/01/31	2017/01/31	7014452	5034537	PTG22IJM0023	PTBND						G22IJM					
SCEXH	I	2017/01/31	2017/01/31	7014435	5034509	PTG22JJM0022	PTBND						G22JJM					
SCEXH	I	2017/01/31	2017/01/31	7014406	5034464	PTH14FJM0009	PTBND						H14FJM					
SCEXH	I	2017/01/31	2017/01/31	7014429	5034500	PTS029JM0015	PTBND						S029JM					
SCEXH	I	2017/01/31	2017/01/31	7014444	5034524	PTS07PJM0029	PTBND						S07PJM					
SCEXH	I	2017/01/31	2017/01/31	7014454	5034540	PTS24UJM0005	PTBND						S24UJM					
SCEXH	I	2017/01/31	2017/01/31	7014408	5034466	PTV02KJM0008	PTBND						V02KJM					
SCEXH	U	2013/02/21	2017/01/30	5715613	3986086	GB00B9NWG743	GGCISX	D	100			2017/01/09						
SCEXH	U	2013/02/21	2017/01/30	5715634	3986107	GB00B9NWGB88	GGCISX	D	100			2017/01/09						
SCEXH	U	2015/06/27	2017/01/30	6432215	4543731	GB00B94HXK01	GGCISX	D	100			2017/01/09						
SCEXH	U	2015/06/27	2017/01/30	6432220	4543735	GB00B93LGW60	GGCISX	D	100			2017/01/09						
SCEXH	I	2017/01/31	2017/01/31	7014225	5034288	GB00BYMV4732	GGCISX	N										
SCEXH	U	2014/01/16	2017/01/30	5960437	4180863	UA4000178743	UAPFTS	D				2017/01/10						
SCEXH	U	2014/01/16	2017/01/30	5960441	4180866	UA4000178693	UAPFTS	D				2017/01/10						
SCEXH	U	2014/01/16	2017/01/30	5960447	4180872	UA4000178701	UAPFTS	D				2017/01/10						
SCEXH	U	2014/02/12	2017/01/30	5984626	4198888		UAPFTS	D				2017/01/10						
SCEXH	U	2014/02/12	2017/01/30	5984635	4198932		UAPFTS	D				2017/01/10						
SCEXH	U	2014/02/12	2017/01/30	5984644	4198940		UAPFTS	D				2017/01/10						
SCEXH	U	2014/02/12	2017/01/30	5984867	4199133		UAPFTS	D				2017/01/10						
SCEXH	U	2014/01/16	2017/01/30	5960456	4180882	UA4000178719	UAPFTS	D			2014/02/03	2017/01/10	ODONZO					
SCEXH	U	2014/09/23	2017/01/30	6167326	4206939	UA4000178727	UAPFTS	D			2014/02/03	2017/01/10	ODONZP					
SCEXH	U	2014/04/22	2017/01/30	6048268	4206960	UA4000178735	UAPFTS	D				2017/01/10	ODONZQ					
SCEXH	U	2014/04/16	2017/01/30	6044245	4248770	UA4000178511	UAPFTS	D				2017/01/10	OLVIZF					
SCEXH	U	2014/04/17	2017/01/30	6044895	4249310	UA4000178529	UAPFTS	D				2017/01/10	OLVIZG					
SCEXH	U	2014/03/03	2017/01/30	6001446	4211982	UA4000178610	UAPFTS	D			2014/02/03	2017/01/10	OODEZJ					
SCEXH	U	2014/03/03	2017/01/30	6001447	4211992	UA4000178628	UAPFTS	D			2014/02/03	2017/01/10	OODEZK					
SCEXH	U	2015/03/24	2017/01/30	6321849	4471716	UA4000178552	UAPFTS	D				2017/01/10	OPIVZF					
SCEXH	U	2015/03/24	2017/01/30	6321886	4471737	UA4000178560	UAPFTS	D				2017/01/10	OPIVZG					
SCEXH	U	2014/04/16	2017/01/30	6044212	4248749	UA4000178792	UAPFTS	D				2017/01/10	OPRDZI					
SCEXH	U	2014/04/16	2017/01/30	6044215	4248752	UA4000178800	UAPFTS	D				2017/01/10	OPRDZJ					
SCEXH	U	2014/04/16	2017/01/30	6044219	4248754	UA4000178818	UAPFTS	D				2017/01/10	OPRDZK					
SCEXH	U	2014/04/16	2017/01/30	6044222	4248757	UA4000178826	UAPFTS	D				2017/01/10	OPRDZL					
SCEXH	U	2014/04/22	2017/01/30	6048270	4206968	UA4000178958	UAPFTS	D				2017/01/10	OPZAZK					
SCEXH	U	2014/04/22	2017/01/30	6048005	4207016	UA4000178966	UAPFTS	D			2014/02/23	2017/01/10	OPZAZL					
SCEXH	U	2014/04/22	2017/01/30	6048266	4207032	UA4000178974	UAPFTS	D			2014/02/02	2017/01/10	OPZAZM					
SCEXH	U	2016/09/24	2017/01/30	6881094	4913635	UA4000193601	UAPFTS	D				2017/01/10	OUZLVF					
SCEXH	U	2016/09/24	2017/01/30	6881090	4913633	UA4000193619	UAPFTS	D				2017/01/10	OUZLVG					
SCEXH	U	2016/09/24	2017/01/30	6881104	4913645	UA4000193551	UAPFTS	D				2017/01/10	OUZODSJ					
SCEXH	U	2016/09/24	2017/01/30	6881101	4913643	UA4000193569	UAPFTS	D				2017/01/10	OUZODSK					
SCEXH	U	2016/09/24	2017/01/30	6881174	4913714	UA4000193486	UAPFTS	D				2017/01/10	OUZPIVF					
SCEXH	U	2016/09/24	2017/01/30	6881172	4913711	UA4000193494	UAPFTS	D				2017/01/10	OUZPIVG					
SCEXH	U	2016/09/24	2017/01/30	6881191	4913730	UA4000193395	UAPFTS	D				2017/01/10	OUZPRDI					
SCEXH	U	2016/09/24	2017/01/30	6881187	4913727	UA4000193403	UAPFTS	D				2017/01/10	OUZPRDJ					
SCEXH	U	2016/09/24	2017/01/30	6881185	4913724	UA4000193411	UAPFTS	D				2017/01/10	OUZPRDK					
SCEXH	U	2016/09/24	2017/01/30	6881183	4913723	UA4000193429	UAPFTS	D				2017/01/10	OUZPRDL					
SCEXH	U	2016/09/24	2017/01/30	6881211	4913749	UA4000193312	UAPFTS	D				2017/01/10	OUZPVZK					
SCEXH	U	2016/09/24	2017/01/30	6881208	4913747	UA4000193320	UAPFTS	D				2017/01/10	OUZPVZL					
SCEXH	U	2016/09/24	2017/01/30	6881205	4913743	UA4000193338	UAPFTS	D				2017/01/10	OUZPVZM					
SCEXH	U	2007/05/16	2017/01/30	717140	585391	ES0413900145	ESAIAF	D	100			2017/01/10						
SCEXH	U	2008/01/10	2017/01/31	844541	751111	ES0201001155	ESAIAF	D	100			2017/01/11						
SCEXH	I	2017/01/31	2017/01/31	7014370	5034431	US09710LAQ86	USBND											
SCEXH	I	2017/01/31	2017/01/31	7014375	5034436	US09710LAU98	USBND											
SCEXH	D	2016/12/30	2017/01/30	6983303	5006314	US26854XAB55	USBND											
SCEXH	I	2017/01/30	2017/01/30	7012169	5032472	US05568P6K83	USBND											
SCEXH	I	2017/01/31	2017/01/31	7014194	5034207	US59156RBC16	USBND											
SCEXH	I	2017/01/31	2017/01/31	7014206	5034294	US14042E3T52	USBND											
SCEXH	I	2017/01/31	2017/01/31	7014211	5034299	US17284C2X15	USBND											
SCEXH	I	2017/01/31	2017/01/31	7014182	5034273	US17284C3D42	USBND											
SCEXH	I	2017/01/31	2017/01/31	7014183	5034274	US80284QAH48	USBND											
SCEXH	D	2017/01/27	2017/01/30	7011158	5031541	US46625HRY89	USBND											
SCEXH	I	2017/01/30	2017/01/30	7012502	5032749	US3132X0NY34	USBND											
SCEXH	D	2017/01/30	2017/01/31	7012555	5032482	US3134GA2E33	USBND											
SCEXH	I	2017/01/30	2017/01/30	7012586	5032832	US023305EZ41	USBND											
SCEXH	I	2017/01/30	2017/01/30	7012595	5032839	US023305FA80	USBND											
SCEXH	I	2017/01/30	2017/01/30	7012620	5032865	US06610QBD25	USBND											
SCEXH	I	2017/01/30	2017/01/30	7012629	5032877	US06610QBF72	USBND											
SCEXH	I	2017/01/30	2017/01/30	7012640	5032886	US03463MAG06	USBND											
SCEXH	I	2017/01/30	2017/01/30	7012641	5032888	US05568P6L66	USBND											
SCEXH	I	2017/01/30	2017/01/30	7012649	5032901	US05568P6N23	USBND											
SCEXH	I	2017/01/30	2017/01/30	7012657	5032906	US05568PV955	USBND											
SCEXH	I	2017/01/30	2017/01/30	7012659	5032907	US05568P6U65	USBND											
SCEXH	I	2017/01/30	2017/01/30	7012660	5032910	US38376RSD97	USBND											
SCEXH	I	2017/01/30	2017/01/30	7012667	5032917	US05568PW375	USBND											
SCEXH	I	2017/01/30	2017/01/30	7012674	5032928	US05568P7A92	USBND											
SCEXH	I	2017/01/30	2017/01/30	7012682	5032937	US05568PCU93	USBND											
SCEXH	I	2017/01/30	2017/01/30	7012685	5032940	US05572NK625	USBND											
SCEXH	I	2017/01/30	2017/01/30	7012710	5032958	US05568PCV76	USBND											
SCEXH	I	2017/01/30	2017/01/30	7012711	5032959	US05572YAB83	USBND											
SCEXH	I	2017/01/30	2017/01/30	7012712	5032960	US05568PCW59	USBND											
SCEXH	I	2017/01/30	2017/01/30	7012713	5032962	US05568PCX33	USBND											
SCEXH	I	2017/01/30	2017/01/30	7012888	5033137	US13062RN952	USBND											
SCEXH	I	2017/01/30	2017/01/30	7012906	5033156		USBND											
SCEXH	I	2017/01/30	2017/01/30	7012913	5033170		USBND											
SCEXH	I	2017/01/30	2017/01/30	7013493	5033704	US13606APP74	USBND											
SCEXH	I	2017/01/30	2017/01/30	7013496	5033103	US11373QBV95	USBND											
SCEXH	I	2017/01/30	2017/01/30	7013497	5033104	US11373QBW78	USBND											
SCEXH	I	2017/01/30	2017/01/30	7013498	5033105	US127184AH26	USBND											
SCEXH	I	2017/01/30	2017/01/30	7013499	5033108	US127253MA74	USBND											
SCEXH	I	2017/01/30	2017/01/30	7013500	5033109	US127253MV12	USBND											
SCEXH	I	2017/01/30	2017/01/30	7013501	5033114	US12738RCV42	USBND											
SCEXH	I	2017/01/30	2017/01/30	7013503	5033121	US13062RDY18	USBND											
SCEXH	I	2017/01/30	2017/01/30	7013504	5033131	US13062RMF28	USBND											
SCEXH	I	2017/01/30	2017/01/30	7013505	5033136	US13062RN796	USBND											
SCEXH	I	2017/01/30	2017/01/30	7013506	5033139	US13062RNJ31	USBND											
SCEXH	I	2017/01/30	2017/01/30	7013507	5033140	US13062RNR56	USBND											
SCEXH	I	2017/01/30	2017/01/30	7013508	5033141	US13062RSG47	USBND											
SCEXH	I	2017/01/30	2017/01/30	7013509	5033154	US13062RWU84	USBND											
SCEXH	I	2017/01/30	2017/01/30	7013510	5033160	US13062RXA12	USBND											
SCEXH	I	2017/01/30	2017/01/30	7013511	5033165	US13062RXN33	USBND											
SCEXH	I	2017/01/30	2017/01/30	7013512	5033173	US13062RY280	USBND											
SCEXH	I	2017/01/30	2017/01/30	7013513	5033176	US13062T4L56	USBND											
SCEXH	I	2017/01/30	2017/01/30	7013514	5033181	US13062T4M30	USBND											
SCEXH	I	2017/01/30	2017/01/30	7013515	5033184	US13062T4S00	USBND											
SCEXH	I	2017/01/30	2017/01/30	7013516	5033186	US13062T6X76	USBND											
SCEXH	I	2017/01/30	2017/01/30	7013517	5033188	US13062T7K47	USBND											
SCEXH	I	2017/01/30	2017/01/30	7013518	5033189	US13062TCA07	USBND											
SCEXH	I	2017/01/30	2017/01/30	7013519	5033203	US13062TGN81	USBND											
SCEXH	I	2017/01/30	2017/01/30	7013520	5033405	US13062TKQ66	USBND											
SCEXH	I	2017/01/30	2017/01/30	7013521	5033680	US13062TKR40	USBND											
SCEXH	I	2017/01/30	2017/01/30	7013522	5033681	US13062TLR31	USBND											
SCEXH	I	2017/01/30	2017/01/30	7013523	5033682	US13062TTB07	USBND											
SCEXH	I	2017/01/30	2017/01/30	7013524	5033683	US13062TV761	USBND											
SCEXH	I	2017/01/30	2017/01/30	7013525	5033685	US13062TW348	USBND											
SCEXH	I	2017/01/30	2017/01/30	7013526	5033686	US13062TW421	USBND											
SCEXH	I	2017/01/30	2017/01/30	7013527	5033687	US13062TX668	USBND											
SCEXH	I	2017/01/30	2017/01/30	7013528	5033689	US13062TX825	USBND											
SCEXH	I	2017/01/30	2017/01/30	7013529	5033690	US13062TX908	USBND											
SCEXH	I	2017/01/30	2017/01/30	7013531	5033691	US13062TXV15	USBND											
SCEXH	I	2017/01/31	2017/01/31	7013559	5033732	US05568PCY16	USBND											
SCEXH	I	2017/01/31	2017/01/31	7013565	5033736	US05568PDC86	USBND											
SCEXH	I	2017/01/31	2017/01/31	7013631	5033799	US07370WXK79	USBND											
SCEXH	I	2017/01/31	2017/01/31	7013639	5033809	US05965GSU12	USBND											
SCEXH	I	2017/01/31	2017/01/31	7013662	5033834	US05965GUP98	USBND											
SCEXH	I	2017/01/31	2017/01/31	7013679	5033851	US07370WXL52	USBND											
SCEXH	I	2017/01/31	2017/01/31	7013694	5033867	US05525MAG15	USBND											
SCEXH	I	2017/01/31	2017/01/31	7013713	5033886	US17284C6M14	USBND											
SCEXH	I	2017/01/31	2017/01/31	7013745	5033916	US17284C6H29	USBND											
SCEXH	I	2017/01/31	2017/01/31	7013751	5033921	US17284C6A75	USBND											
SCEXH	I	2017/01/31	2017/01/31	7013759	5033923	US17284C5Z36	USBND											
SCEXH	I	2017/01/31	2017/01/31	7013761	5033924	US17284C5Y60	USBND											
SCEXH	I	2017/01/31	2017/01/31	7013766	5033926	US17284C5X87	USBND											
SCEXH	I	2017/01/31	2017/01/31	7013770	5033928	US07815AAM99	USBND											
SCEXH	I	2017/01/31	2017/01/31	7013775	5033933	US07815AAP21	USBND											
SCEXH	I	2017/01/31	2017/01/31	7013783	5033939	US07815AAR86	USBND											
SCEXH	I	2017/01/31	2017/01/31	7013803	5033957	US02006LEA70	USBND											
SCEXH	I	2017/01/31	2017/01/31	7013812	5033963	US17284C5K66	USBND											
SCEXH	I	2017/01/31	2017/01/31	7013813	5033965	US02006LHH96	USBND											
SCEXH	I	2017/01/31	2017/01/31	7013821	5033970	US17284C5J93	USBND											
SCEXH	I	2017/01/31	2017/01/31	7013822	5033971	US140420UC24	USBND											
SCEXH	I	2017/01/31	2017/01/31	7013823	5033973	US02006LHU08	USBND											
SCEXH	I	2017/01/31	2017/01/31	7013836	5033985	US140420UD07	USBND											
SCEXH	I	2017/01/31	2017/01/31	7013839	5033989	US02006LMW09	USBND											
SCEXH	I	2017/01/31	2017/01/31	7013846	5033994	US140420UE89	USBND											
SCEXH	I	2017/01/31	2017/01/31	7013850	5033999	US02006LRV70	USBND											
SCEXH	I	2017/01/31	2017/01/31	7013863	5034005	US140420UF54	USBND											
SCEXH	I	2017/01/31	2017/01/31	7013864	5034006	US17284C5A84	USBND											
SCEXH	I	2017/01/31	2017/01/31	7013868	5034011	US140420UH11	USBND											
SCEXH	I	2017/01/31	2017/01/31	7013870	5034013	US17284C4X96	USBND											
SCEXH	I	2017/01/31	2017/01/31	7013876	5034016	US140420UJ76	USBND											
SCEXH	I	2017/01/31	2017/01/31	7013877	5034018	US17284C4V31	USBND											
SCEXH	I	2017/01/31	2017/01/31	7013885	5034026	US140420UL23	USBND											
SCEXH	I	2017/01/31	2017/01/31	7013905	5034041	US140420UM06	USBND											
SCEXH	I	2017/01/31	2017/01/31	7013911	5034044	US17284C4L58	USBND											
SCEXH	I	2017/01/31	2017/01/31	7013914	5034047	US02006LRW53	USBND											
SCEXH	I	2017/01/31	2017/01/31	7013918	5034051	US140420UP37	USBND											
SCEXH	I	2017/01/31	2017/01/31	7013919	5034054	US02006LRX37	USBND											
SCEXH	I	2017/01/31	2017/01/31	7013922	5034055	US17284C4F80	USBND											
SCEXH	I	2017/01/31	2017/01/31	7013929	5034061	US02006LRY10	USBND											
SCEXH	I	2017/01/31	2017/01/31	7013932	5034060	US140420UQ10	USBND											
SCEXH	I	2017/01/31	2017/01/31	7013939	5034065	US02006LSA25	USBND											
SCEXH	I	2017/01/31	2017/01/31	7013944	5034068	US140420UR92	USBND											
SCEXH	I	2017/01/31	2017/01/31	7013949	5034073	US02006LSB08	USBND											
SCEXH	I	2017/01/31	2017/01/31	7013967	5034086		USBND											
SCEXH	I	2017/01/31	2017/01/31	7014036	5034143	US17284C3T93	USBND											
SCEXH	I	2017/01/31	2017/01/31	7014001	5034117	US17284C4D33	USBND											
SCEXH	I	2017/01/31	2017/01/31	7014005	5034121	US17284C4C59	USBND											
SCEXH	I	2017/01/31	2017/01/31	7014011	5034127	US17284C3Y88	USBND											
SCEXH	I	2017/01/31	2017/01/31	7014026	5034134	US17284C3X06	USBND											
SCEXH	I	2017/01/31	2017/01/31	7014040	5034152	US17284C3P71	USBND											
SCEXH	I	2017/01/31	2017/01/31	7014095	5034236	US17284CDU53	USBND											
SCEXH	I	2017/01/31	2017/01/31	7014096	5034234	US17284CDS08	USBND											
SCEXH	I	2017/01/31	2017/01/31	7014098	5034231	US17284CDP68	USBND											
SCEXH	I	2017/01/31	2017/01/31	7014100	5034229	US17284CDL54	USBND											
SCEXH	I	2017/01/31	2017/01/31	7014102	5034224	US17284CDK71	USBND											
SCEXH	I	2017/01/31	2017/01/31	7014103	5034222	US17284CDH43	USBND											
SCEXH	I	2017/01/31	2017/01/31	7014104	5034220	US17284CDD39	USBND											
SCEXH	I	2017/01/31	2017/01/31	7014105	5034218	US17284CDA99	USBND											
SCEXH	I	2017/01/31	2017/01/31	7014107	5034216	US17284CD761	USBND											
SCEXH	I	2017/01/31	2017/01/31	7014108	5034211	US17284CD274	USBND											
SCEXH	I	2017/01/31	2017/01/31	7014109	5034209	US17284CCY84	USBND											
SCEXH	I	2017/01/31	2017/01/31	7014110	5034206	US17284CCV46	USBND											
SCEXH	I	2017/01/31	2017/01/31	7014111	5034202	US17284CCK80	USBND											
SCEXH	I	2017/01/31	2017/01/31	7014112	5034200	US17284CCH51	USBND											
SCEXH	I	2017/01/31	2017/01/31	7014113	5034198	US17284CCG78	USBND											
SCEXH	I	2017/01/31	2017/01/31	7014114	5034196	US17284CC854	USBND											
SCEXH	I	2017/01/31	2017/01/31	7014117	5034194	US17284CC771	USBND											
SCEXH	I	2017/01/31	2017/01/31	7014118	5034193	US17284CC698	USBND											
SCEXH	I	2017/01/31	2017/01/31	7014119	5034192	US17284CC516	USBND											
SCEXH	I	2017/01/31	2017/01/31	7014120	5034191	US17284CC367	USBND											
SCEXH	I	2017/01/31	2017/01/31	7014121	5034189	US17284CBY93	USBND											
SCEXH	I	2017/01/31	2017/01/31	7014122	5034187	US17284CBW38	USBND											
SCEXH	I	2017/01/31	2017/01/31	7014123	5034185	US17284CBT09	USBND											
SCEXH	I	2017/01/31	2017/01/31	7014124	5034183	US17284CBL72	USBND											
SCEXH	I	2017/01/31	2017/01/31	7014125	5034243	US140420US75	USBND											
SCEXH	I	2017/01/31	2017/01/31	7014135	5034250	US140420UT58	USBND											
SCEXH	I	2017/01/31	2017/01/31	7014137	5034181	US17284CBJ27	USBND											
SCEXH	I	2017/01/31	2017/01/31	7014138	5034180	US17284CBF05	USBND											
SCEXH	I	2017/01/31	2017/01/31	7014139	5034178	US17284CBE30	USBND											
SCEXH	I	2017/01/31	2017/01/31	7014141	5034175	US17284CBA18	USBND											
SCEXH	I	2017/01/31	2017/01/31	7014142	5034174	US17284CB864	USBND											
SCEXH	I	2017/01/31	2017/01/31	7014143	5034173	US17284CB781	USBND											
SCEXH	I	2017/01/31	2017/01/31	7014144	5034172	US17284CB609	USBND											
SCEXH	I	2017/01/31	2017/01/31	7014145	5034171	US17284CB526	USBND											
SCEXH	I	2017/01/31	2017/01/31	7014146	5034167	US17284CB377	USBND											
SCEXH	I	2017/01/31	2017/01/31	7014147	5034170	US17284CAZ77	USBND											
SCEXH	I	2017/01/31	2017/01/31	7014148	5034163	US17284CAW47	USBND											
SCEXH	I	2017/01/31	2017/01/31	7014149	5034162	US17284CAV63	USBND											
SCEXH	I	2017/01/31	2017/01/31	7014151	5034160	US17284CAT18	USBND											
SCEXH	I	2017/01/31	2017/01/31	7014153	5034158	US17284CAR51	USBND											
SCEXH	I	2017/01/31	2017/01/31	7014155	5034156	US17284CAE49	USBND											
SCEXH	I	2017/01/31	2017/01/31	7014156	5034154	US17284CAC82	USBND											
SCEXH	I	2017/01/31	2017/01/31	7014157	5034153	US17284CA791	USBND											
SCEXH	I	2017/01/31	2017/01/31	7014158	5034151	US17284CA387	USBND											
SCEXH	I	2017/01/31	2017/01/31	7014159	5034148	US17284C6U30	USBND											
SCEXH	I	2017/01/31	2017/01/31	7014160	5034145	US17284C6S83	USBND											
SCEXH	I	2017/01/31	2017/01/31	7014161	5034144	US17284C6R01	USBND											
SCEXH	I	2017/01/31	2017/01/31	7014163	5034255	US05351LAG23	USBND											
SCEXH	I	2017/01/31	2017/01/31	7014169	5034260	US140420VL14	USBND											
SCEXH	I	2017/01/31	2017/01/31	7014173	5034264	US14042E2F67	USBND											
SCEXH	I	2017/01/31	2017/01/31	7014176	5034267	US17284C3M41	USBND											
SCEXH	I	2017/01/31	2017/01/31	7014180	5034271	US17284C3E25	USBND											
SCEXH	I	2017/01/31	2017/01/31	7014191	5034279	US17284C3C68	USBND											
SCEXH	I	2017/01/31	2017/01/31	7014199	5034287	US07325NAH52	USBND											
SCEXH	I	2017/01/31	2017/01/31	7014204	5034292	US17284C2Y97	USBND											
SCEXH	I	2017/01/31	2017/01/31	7014212	5034300	US14042E3U26	USBND											
SCEXH	I	2017/01/31	2017/01/31	7014226	5034311	US14042E4P22	USBND											
SCEXH	I	2017/01/31	2017/01/31	7014227	5034312	US17284C2R47	USBND											
SCEXH	I	2017/01/31	2017/01/31	7014230	5034314	US14042E4Q05	USBND											
SCEXH	I	2017/01/31	2017/01/31	7014231	5034315	US14042E4R87	USBND											
SCEXH	I	2017/01/31	2017/01/31	7014232	5034316	US17284C2Q63	USBND											
SCEXH	I	2017/01/31	2017/01/31	7014233	5034317	US14042E4S60	USBND											
SCEXH	I	2017/01/31	2017/01/31	7014234	5034318	US17284C2P80	USBND											
SCEXH	I	2017/01/31	2017/01/31	7014235	5034319	US14042E4U17	USBND											
SCEXH	I	2017/01/31	2017/01/31	7014236	5034320	US14042E4V99	USBND											
SCEXH	I	2017/01/31	2017/01/31	7014250	5034325	US05572YAG70	USBND											
SCEXH	I	2017/01/31	2017/01/31	7014256	5034331	US05572YAN22	USBND											
SCEXH	I	2017/01/31	2017/01/31	7014261	5034333	US05572YAR36	USBND											
SCEXH	I	2017/01/31	2017/01/31	7014264	5034335	US05572YAU64	USBND											
SCEXH	I	2017/01/31	2017/01/31	7014273	5034343	US05572YAV48	USBND											
SCEXH	I	2017/01/31	2017/01/31	7014277	5034347	US05572YBC57	USBND											
SCEXH	I	2017/01/31	2017/01/31	7014279	5034349	US05572YBP60	USBND											
SCEXH	I	2017/01/31	2017/01/31	7014281	5034351	US05572YBY77	USBND											
SCEXH	I	2017/01/31	2017/01/31	7014283	5034353	US05572YCR18	USBND											
SCEXH	I	2017/01/31	2017/01/31	7014286	5034357	US05572YCU47	USBND											
SCEXH	I	2017/01/31	2017/01/31	7014292	5034360	US05572YDW93	USBND											
SCEXH	I	2017/01/31	2017/01/31	7014296	5034364	US05572YDX76	USBND											
SCEXH	I	2017/01/31	2017/01/31	7014299	5034368	US05572YDY59	USBND											
SCEXH	I	2017/01/31	2017/01/31	7014302	5034370	US05573J2E39	USBND											
SCEXH	I	2017/01/31	2017/01/31	7014308	5034374	US09710LAC90	USBND											
SCEXH	I	2017/01/31	2017/01/31	7014313	5034379	US09710LAD73	USBND											
SCEXH	I	2017/01/31	2017/01/31	7014334	5034401	US060243DN92	USBND											
SCEXH	I	2017/01/31	2017/01/31	7014343	5034409	US09710LAF22	USBND											
SCEXH	I	2017/01/31	2017/01/31	7014358	5034421	US09710LAG05	USBND											
SCEXH	I	2017/01/31	2017/01/31	7014363	5034426	US09710LAM72	USBND											
SCEXH	I	2017/01/31	2017/01/31	7014378	5034440	US09710LAY11	USBND											
SCEXH	I	2017/01/31	2017/01/31	7014384	5034443	US09710LBA26	USBND											
SCEXH	I	2017/01/31	2017/01/31	7014387	5034446	US145087AC62	USBND											
SCEXH	I	2017/01/31	2017/01/31	7014388	5034448	US145087AD46	USBND											
SCEXH	I	2017/01/31	2017/01/31	7014391	5034451	US145150BG28	USBND											
SCEXH	I	2017/01/31	2017/01/31	7014393	5034454		USBND											
SCEXH	I	2017/01/31	2017/01/31	7014398	5034457	US145150BJ66	USBND											
SCEXH	I	2017/01/31	2017/01/31	7014403	5034461	US145150BR82	USBND											
SCEXH	I	2017/01/31	2017/01/31	7014404	5034462	US145150BS65	USBND											
SCEXH	I	2017/01/31	2017/01/31	7014405	5034463		USBND											
SCEXH	I	2017/01/31	2017/01/31	7014411	5034470		USBND											
SCEXH	I	2017/01/31	2017/01/31	7014421	5034487	US02006LSG94	USBND											
SCEXH	I	2017/01/31	2017/01/31	7014431	5034505	US74348YUY57	USBND											
SCEXH	I	2017/01/31	2017/01/31	7014438	5034514	US13056QAB41	USBND											
SCEXH	I	2017/01/31	2017/01/31	7014440	5034518	US02006LSH77	USBND											
SCEXH	I	2017/01/31	2017/01/31	7014051	5034164	BE6291210811	BEBND											
SCEXH	I	2017/01/31	2017/01/31	7014052	5034166	BE6291211827	BEBND											
SCEXH	I	2017/01/31	2017/01/31	7014075	5034210	BE6292683024	BEBND											
SCEXH	I	2017/01/31	2017/01/31	7014076	5034213	BE6292687066	BEBND											
SCEXH	I	2017/01/31	2017/01/31	7014078	5034215	BE6292689088	BEBND											
SCEXH	I	2017/01/31	2017/01/31	7014080	5034217	BE6292705249	BEBND											
SCEXH	I	2017/01/31	2017/01/31	7014081	5034219	BE6292711304	BEBND											
SCEXH	I	2017/01/31	2017/01/31	7014083	5034221	BE6292713326	BEBND											
SCEXH	I	2017/01/31	2017/01/31	7014086	5034226	BE6292717368	BEBND											
SCEXH	I	2017/01/31	2017/01/31	7014090	5034232	BE6292734538	BEBND											
SCEXH	I	2017/01/31	2017/01/31	7014094	5034237	BE6292737564	BEBND											
SCEXH	I	2017/01/31	2017/01/31	7014106	5034240	BE6292739586	BEBND											
SCEXH	I	2017/01/31	2017/01/31	7014116	5034242	BE6292740592	BEBND											
SCEXH	I	2017/01/31	2017/01/31	7014127	5034246	BE6292741608	BEBND											
SCEXH	I	2017/01/31	2017/01/31	7014140	5034253	BE6292742614	BEBND											
SCEXH	I	2017/01/31	2017/01/31	7014154	5034254	BE6292743620	BEBND											
SCEXH	I	2017/01/31	2017/01/31	7014162	5034256	BE6292744636	BEBND											
SCEXH	I	2017/01/31	2017/01/31	7014164	5034257	BE6292745641	BEBND											
SCEXH	I	2017/01/31	2017/01/31	7014166	5034258	BE6292746656	BEBND											
SCEXH	I	2017/01/31	2017/01/31	7014167	5034261	BE6292747662	BEBND											
SCEXH	I	2017/01/31	2017/01/31	7014172	5034263	BE6292748678	BEBND											
SCEXH	I	2017/01/31	2017/01/31	7014178	5034269	BE6292749684	BEBND											
SCEXH	I	2017/01/31	2017/01/31	7014097	5034123	XS1535059692	AMASE	N										
SCEXH	D	2016/04/04	2017/01/30	6691952	4743326	DE000HLB2FJ1	DEBND											
SCEXH	D	2016/04/28	2017/01/31	6713045	4761756	DE000DE04WL4	DEBND											
SCEXH	D	2016/08/03	2017/01/31	6816262	4853896	DE000DE04WY7	DEBND											
SCEXH	D	2016/08/06	2017/01/31	6819688	4857029	DE000DB9TZH6	DEBND											
SCEXH	D	2016/08/20	2017/01/31	6835133	4871094	DE000DB9TZX3	DEBND											
SCEXH	D	2016/09/14	2017/01/31	6865165	4899023	DE000DE04W27	DEBND											
SCEXH	D	2016/09/27	2017/01/31	6883443	4915805	DE000DE04W35	DEBND											
SCEXH	D	2016/10/13	2017/01/31	6902379	4933222	DE000DE04W68	DEBND											
SCEXH	D	2016/10/26	2017/01/31	6916148	4945617	DE000DE04W50	DEBND											
SCEXH	D	2016/11/04	2017/01/31	6924563	4953300	DE000DB9T2H7	DEBND											
SCEXH	D	2016/11/05	2017/01/31	6926035	4954623	DE000DB9T2J3	DEBND											
SCEXH	D	2016/11/14	2017/01/31	6933683	4961380	DE000DE04W76	DEBND											
SCEXH	D	2017/01/21	2017/01/30	7004664	5025743	DE000NLB87T0	DEBND											
SCEXH	D	2017/01/21	2017/01/30	7004725	5025790	DE000NLB88G5	DEBND											
SCEXH	I	2017/01/31	2017/01/31	7014193	5034282	DE000DK0JAW7	DEBND											
SCEXH	I	2017/01/31	2017/01/31	7014198	5034286	DE000DK0JAZ0	DEBND											
SCEXH	I	2017/01/31	2017/01/31	7014207	5034295	DE000DK0JWR1	DEBND											
SCEXH	I	2017/01/31	2017/01/31	7014187	5034278	DE000DK0H959	DEBND											
SCEXH	D	2017/01/27	2017/01/30	7010987	5031385	DE000NLB87N3	DEBND											
SCEXH	I	2017/01/30	2017/01/30	7012159	5032051	DE000DK0JBZ8	DEBND											
SCEXH	I	2017/01/30	2017/01/30	7012206	5032513	DE000DB6HBB1	DEBND											
SCEXH	I	2017/01/30	2017/01/30	7012703	5032953	DE000A1TM9M3	DEBND											
SCEXH	I	2017/01/31	2017/01/31	7013974	5034090	DE000A19AWV5	DEBND											
SCEXH	I	2017/01/31	2017/01/31	7014202	5034290	DE000DK0JWQ3	DEBND											
SCEXH	I	2017/01/31	2017/01/31	7014219	5034307	DE000FLA1693	DEBND											
SCEXH	D	2016/10/06	2017/01/30	6895207	4926638	NO0010776206	NOBND											
SCEXH	D	2017/01/24	2017/01/30	7008157	5028952	NO0010782980	NOBND											
SCEXH	D	2017/01/24	2017/01/30	7008161	5028961	NO0010783095	NOBND											
SCEXH	D	2017/01/26	2017/01/30	7010817	5031220	NO0010783368	NOBND											
SCEXH	I	2017/01/30	2017/01/30	7012715	5032961	NO0010785785	NOBND											
SCEXH	I	2017/01/30	2017/01/30	7012716	5032963	NO0010785801	NOBND											
SCEXH	I	2017/01/30	2017/01/30	7012717	5032964	NO0010785777	NOBND											
SCEXH	I	2017/01/30	2017/01/30	7012718	5032965	NO0010785793	NOBND											
SCEXH	I	2017/01/30	2017/01/30	7012719	5032967	NO0010785751	NOBND											
SCEXH	I	2017/01/30	2017/01/30	7012720	5032968	NO0010785744	NOBND											
SCEXH	I	2017/01/30	2017/01/30	7012721	5032969	NO0010783434	NOBND											
SCEXH	I	2017/01/31	2017/01/31	7014252	5034321	NO0010785850	NOBND											
SCEXH	I	2017/01/31	2017/01/31	7014254	5034322	NO0010785868	NOBND											
SCEXH	I	2017/01/31	2017/01/31	7014257	5034323	NO0010785843	NOBND											
SCEXH	I	2017/01/31	2017/01/31	7014258	5034327	NO0010785876	NOBND											
SCEXH	I	2017/01/31	2017/01/31	7014259	5034328	NO0010785835	NOBND											
SCEXH	I	2017/01/31	2017/01/31	7013544	5010753	AT0000A18VQ9	ATBND											
SCEXH	I	2017/01/30	2017/01/30	7012184	388837	AT0000440029	ATBND											
SCEXH	I	2017/01/30	2017/01/30	7012187	388711	AT0000438577	ATBND											
SCEXH	I	2017/01/30	2017/01/30	7012272	4400258	XS1148552190	ATBND											
SCEXH	I	2017/01/30	2017/01/30	7012693	5032948	AT0000A1QJT5	ATBND											
SCEXH	I	2017/01/31	2017/01/31	7014013	5010657	AT0000A1JEA1	ATBND											
SCEXH	I	2017/01/31	2017/01/31	7014019	5010731	AT0000A1JER5	ATBND											
SCEXH	D	2016/10/17	2017/01/31	6906015	4936300	ES0001351453	ESBND											
SCEXH	D	2016/10/18	2017/01/31	6906738	4936958	ES0001351461	ESBND											
SCEXH	D	2017/01/25	2017/01/30	7008906	5029604	ES00000128P8	ESBND		100									
SCEXH	I	2017/01/30	2017/01/30	7012842	5033100	ES0513862HY8	ESBND											
SCEXH	I	2017/01/30	2017/01/30	7012843	5033101	ES0000101792	ESBND											
SCEXH	I	2017/01/30	2017/01/30	7012844	5033102	ES0513495SG1	ESBND											
SCEXH	I	2017/01/31	2017/01/31	7014220	5034306	ES0305194005	ESBND											
SCEXH	I	2017/01/31	2017/01/31	7014354	5034420	ES05000907N9	ESBND											
SCEXH	I	2017/01/31	2017/01/31	7014359	5034423	ES0513807307	ESBND											
SCEXH	I	2017/01/31	2017/01/31	7013627	5033795	HU0000509799	HUBND											
SCEXH	I	2017/01/31	2017/01/31	7013633	5033803	HU0000509732	HUBND											
SCEXH	I	2017/01/31	2017/01/31	7014209	5034296	IT0005239485	ITBND											
SCEXH	D	2017/01/26	2017/01/31	7010036	5030565	IT0005239022	ITBND											
SCEXH	I	2017/01/30	2017/01/30	7012634	5032880	IT0005239782	ITBND											
SCEXH	I	2017/01/30	2017/01/30	7012680	5032935	IT0005161333	ITBND											
SCEXH	I	2017/01/30	2017/01/30	7012705	5032954	IT0005161341	ITBND											
SCEXH	I	2017/01/31	2017/01/31	7013714	5033887	IT0005239048	ITBND											
SCEXH	I	2017/01/31	2017/01/31	7013755	5033922	IT0005239758	ITBND											
SCEXH	I	2017/01/31	2017/01/31	7014218	5034304	IT0005239519	ITBND											
SCEXH	I	2017/01/31	2017/01/31	7014416	5034481	IT0004930860	ITBND											
SCEXH	I	2017/01/31	2017/01/31	7014445	5034527	IT0005239352	ITBND											
SCEXH	D	2016/10/28	2017/01/31	6918354	4947651	SK4120011933	SKBND											
SCEXH	D	2016/10/28	2017/01/31	6918363	4947662	SK4120011925	SKBND											
SCEXH	D	2016/10/28	2017/01/31	6918368	4947669	SK4120011917	SKBND											
SCEXH	I	2017/01/30	2017/01/30	7012505	5030362	US3130AAR597	USTRCE	N										
SCEXH	I	2017/01/31	2017/01/31	7013945	5034067	US912796LM96	USTRCE	N										
SCEXH	I	2017/01/31	2017/01/31	7014025	5034056	US3132X0NZ09	USTRCE	N										
SCEXH	I	2017/01/31	2017/01/31	7013966	5034084	US3134GA2T02	USTRCE	N					3134GA2T0					
SCEXH	U	2013/06/26	2017/01/30	5819034	4064197	US00081TAH14	USTRCE	D				2017/01/10	ACOC4020559					
SCEXH	I	2017/01/31	2017/01/31	7013928	5034058	US00786PAC86	USTRCE	N					AEAA4451213					
SCEXH	I	2017/01/31	2017/01/31	7014092	5034064	USP0092MAE32	USTRCE	N					AEAA4451214					
SCEXH	U	2014/01/10	2017/01/31	5953532	4174526	US31315PY789	USTRCE	D				2017/01/11	AGM4087128					
SCEXH	I	2017/01/30	2017/01/30	7012180	5032486	US3132X0PC95	USTRCE	N					AGM4450892					
SCEXH	U	2014/01/08	2017/01/31	5952282	4173340	US05253JAE10	USTRCE	D				2017/01/11	ANZ4087164					
SCEXH	U	2016/01/14	2017/01/31	6618195	4173344	US05252ACB52	USTRCE	D				2017/01/11	ANZ4087167					
SCEXH	U	2014/01/10	2017/01/31	5953451	4174455	US05252BCB36	USTRCE	D				2017/01/11	ANZ4087168					
SCEXH	I	2017/01/30	2017/01/30	7012265	5032565	US00107VAA17	USTRCE	N					ARGG4450369					
SCEXH	I	2017/01/30	2017/01/30	7012323	5032574	USP1000CAA29	USTRCE	N					ARGG4450370					
SCEXH	U	2011/08/17	2017/01/30	4196691	2959950	US021332AC50	USTRCE	D	100			2017/01/09	AXMH.AD					
SCEXH	U	2014/09/16	2017/01/30	6160216	4347414	US06741UJZ84	USTRCE	D				2017/01/10	BCS4164388					
SCEXH	U	2014/09/16	2017/01/30	6160218	4347416	US06741UKA15	USTRCE	D				2017/01/10	BCS4164391					
SCEXH	U	2015/04/03	2017/01/30	6331638	4479856	US06741UTK06	USTRCE	D				2017/01/10	BCS4230080					
SCEXH	I	2017/01/31	2017/01/31	7014010	5034126	US06744M3152	USTRCE	N					BCS4448045					
SCEXH	I	2017/01/31	2017/01/31	7013946	5034069	US06741VJP85	USTRCE	N					BCS4451167					
SCEXH	I	2017/01/31	2017/01/31	7013950	5034074	US06741VJB99	USTRCE	N					BCS4451178					
SCEXH	I	2017/01/31	2017/01/31	7013953	5031719	US62944BBM54	USTRCE	N					BNGN4451140					
SCEXH	U	2015/07/03	2017/01/30	6437514	4547676	US05579TFT88	USTRCE	D				2017/01/10	BNPQF4265746					
SCEXH	U	2015/12/04	2017/01/30	6584711	4658072	US05579TJW71	USTRCE	D				2017/01/10	BNPQF4317876					
SCEXH	U	2017/01/26	2017/01/30	7010104	5030623	US05579TTX45	USTRCE						BNPQF4448858					
SCEXH	I	2017/01/30	2017/01/30	7012367	5032642	US05579TU204	USTRCE	N					BNPQF4450977					
SCEXH	U	2014/01/10	2017/01/31	5953538	4173467	US084664CA72	USTRCE	D				2017/01/11	BRK4087151					
SCEXH	U	2012/01/07	2017/01/31	4872171	3427370	US172967FW62	USTRCE	D				2017/01/11	C3715831					
SCEXH	U	2016/01/04	2017/01/31	6605355	4676555	US17298C5P95	USTRCE	D				2017/01/11	C4324975					
SCEXH	I	2017/01/30	2017/01/30	7012275	5032575	US17324XAT72	USTRCE	N					C4450847					
SCEXH	I	2017/01/30	2017/01/30	7012385	5032655	US17324CEG78	USTRCE	N					C4450853					
SCEXH	I	2017/01/30	2017/01/30	7012279	5032578	US17324CEH51	USTRCE	N					C4450855					
SCEXH	I	2017/01/30	2017/01/30	7012408	5032665	US17325E1507	USTRCE	N					C4450857					
SCEXH	I	2017/01/30	2017/01/30	7012417	5032678	US17298CFE30	USTRCE	N					C4450943					
SCEXH	I	2017/01/31	2017/01/31	7013960	4283813	XS1075180379	USTRCE	N					CAOV4451139					
SCEXH	I	2017/01/31	2017/01/31	7013971	5034088	US22822VAE11	USTRCE	N					CCI4451189					
SCEXH	U	2015/01/05	2017/01/30	6252148	4418223	US22547WFQ15	USTRCE	D				2017/01/10	CS4199540					
SCEXH	U	2015/05/08	2017/01/30	6364784	4505793	US22546VDA17	USTRCE	D				2017/01/10	CS4243501					
SCEXH	U	2015/12/24	2017/01/31	6600680	4672381	US22546VTD81	USTRCE	D				2017/01/11	CS4323966					
SCEXH	U	2017/01/20	2017/01/30	7003635	5024836	US22549JDV98	USTRCE						CS4446510					
SCEXH	I	2017/01/30	2017/01/30	7012191	5032495	US22549A2731	USTRCE	N					CS4450836					
SCEXH	I	2017/01/30	2017/01/30	7012205	5032512	US22548QTB13	USTRCE	N					CS4450838					
SCEXH	I	2017/01/30	2017/01/30	7012208	5032515	US22549A3564	USTRCE	N					CS4450843					
SCEXH	I	2017/01/30	2017/01/30	7012211	5032518	US22549A3499	USTRCE	N					CS4450858					
SCEXH	I	2017/01/30	2017/01/30	7012215	5032521	US22548QTF27	USTRCE	N					CS4450859					
SCEXH	I	2017/01/30	2017/01/30	7012220	5032525	US22549JEE64	USTRCE	N					CS4450889					
SCEXH	I	2017/01/31	2017/01/31	7013979	5034095	US22548QRM95	USTRCE	N					CS4451182					
SCEXH	I	2017/01/31	2017/01/31	7013982	5034099	US22548QRK30	USTRCE	N					CS4451183					
SCEXH	I	2017/01/31	2017/01/31	7013986	5034102	US22548QR648	USTRCE	N					CS4451184					
SCEXH	I	2017/01/31	2017/01/31	7013994	5034110	US22548QR721	USTRCE	N					CS4451185					
SCEXH	I	2017/01/31	2017/01/31	7013999	5034114	US22548QQZ18	USTRCE	N					CS4451192					
SCEXH	I	2017/01/31	2017/01/31	7014000	5034116	US22548QRJ66	USTRCE	N					CS4451193					
SCEXH	I	2017/01/31	2017/01/31	7014002	5034119	US22548QRF45	USTRCE	N					CS4451195					
SCEXH	I	2017/01/31	2017/01/31	7014007	5034124	US22548QRG28	USTRCE	N					CS4451204					
SCEXH	I	2017/01/31	2017/01/31	7014016	5034130	US22548QTK12	USTRCE	N					CS4451207					
SCEXH	I	2017/01/31	2017/01/31	7014023	5034133	US22548QRH01	USTRCE	N					CS4451208					
SCEXH	I	2017/01/31	2017/01/31	7014029	5034137	US22548QRL13	USTRCE	N					CS4451209					
SCEXH	I	2017/01/31	2017/01/31	7014030	5034138	US22549JEG13	USTRCE	N					CS4451210					
SCEXH	U	2013/06/20	2017/01/31	5808738	2118863	US14888TAC80	USTRCE	D				2016/12/16	CTLU.GB					
SCEXH	U	2010/12/09	2017/01/31	3199020	1807392	USC21847AB19	USTRCE	D				2016/12/16	CTLU.GC					
SCEXH	U	2013/06/20	2017/01/31	5808739	1947392	US14888TAD63	USTRCE	D				2016/12/16	CTLU.GD					
SCEXH	U	2015/12/04	2017/01/31	6584512	4658006	US25152L2B11	USTRCE	D				2017/01/11	DB4317926					
SCEXH	I	2017/01/30	2017/01/30	7012304	5006314	US26854XAB55	USTRCE	N					EIGI4450851					
SCEXH	U	2014/01/09	2017/01/31	5953012	4174046	US3133EDD829	USTRCE	D				2017/01/11	FFCD4086837					
SCEXH	I	2017/01/30	2017/01/30	7012550	5032476	US3133EG5Y71	USTRCE	N					FFCD4450490					
SCEXH	I	2017/01/30	2017/01/30	7012553	5032478	US3133EG5Z47	USTRCE	N					FFCD4450500					
SCEXH	I	2017/01/30	2017/01/30	7012554	5032479	US3133EG6A86	USTRCE	N					FFCD4450502					
SCEXH	I	2017/01/30	2017/01/30	7012222	5032470	US3133EG6C43	USTRCE	N					FFCD4450891					
SCEXH	I	2017/01/30	2017/01/30	7012224	5032471	US3133EG6E09	USTRCE	N					FFCD4450952					
SCEXH	I	2017/01/31	2017/01/31	7013934	5033862	US3133EG6D26	USTRCE	N					FFCD4451168					
SCEXH	U	2013/12/26	2017/01/30	5944349	4166530	US3130A0HX19	USTRCE	D				2017/01/10	FHLN4083091					
SCEXH	U	2014/12/09	2017/01/31	6233011	4402475	US3130A3RB28	USTRCE	D				2017/01/11	FHLN4192804					
SCEXH	U	2015/07/08	2017/01/30	6442531	4551411	US3130A5VZ97	USTRCE	D				2017/01/10	FHLN4266439					
SCEXH	I	2017/01/30	2017/01/30	7012226	5030420	US3130AARJ94	USTRCE	N					FHLN4450834					
SCEXH	I	2017/01/30	2017/01/30	7012228	5032504	US3130AART76	USTRCE	N					FHLN4450862					
SCEXH	I	2017/01/30	2017/01/30	7012230	5032501	US3130AARR11	USTRCE	N					FHLN4450888					
SCEXH	I	2017/01/30	2017/01/30	7012232	5032502	US3130AARS93	USTRCE	N					FHLN4450890					
SCEXH	I	2017/01/31	2017/01/31	7013973	5034077	US3130AARU40	USTRCE	N					FHLN4451188					
SCEXH	I	2017/01/31	2017/01/31	7013975	5034087	US3130AARW06	USTRCE	N					FHLN4451206					
SCEXH	I	2017/01/31	2017/01/31	7014020	5033804	US3134GAY576	USTRCE	N					FMCC4448465					
SCEXH	I	2017/01/31	2017/01/31	7014021	5033854	US3134GAZ490	USTRCE	N					FMCC4448846					
SCEXH	I	2017/01/30	2017/01/30	7012508	5032552	US3134GA2F08	USTRCE	N					FMCC4450321					
SCEXH	I	2017/01/30	2017/01/30	7012235	5032532	US3134GA2J20	USTRCE	N					FMCC4450844					
SCEXH	I	2017/01/30	2017/01/30	7012365	5032638	US3134GA2K92	USTRCE	N					FMCC4450852					
SCEXH	I	2017/01/30	2017/01/30	7012236	5032533	US3134GA2H63	USTRCE	N					FMCC4450856					
SCEXH	I	2017/01/31	2017/01/31	7014018	5033731	US3134GA2L75	USTRCE	N					FMCC4450887					
SCEXH	I	2017/01/31	2017/01/31	7014015	5033720	US3134GA2M58	USTRCE	N					FMCC4450895					
SCEXH	I	2017/01/31	2017/01/31	7014017	5033724	US3134GA2N32	USTRCE	N					FMCC4450946					
SCEXH	I	2017/01/30	2017/01/30	7012240	5032536	US3134GAZ987	USTRCE	N					FMCC4450968					
SCEXH	I	2017/01/31	2017/01/31	7013937	5032482	US3134GA2E33	USTRCE	N					FMCC4451166					
SCEXH	I	2017/01/31	2017/01/31	7014028	5034136	US3134GA2P89	USTRCE	N					FMCC4451169					
SCEXH	I	2017/01/31	2017/01/31	7013962	5034081	US3134GA2R46	USTRCE	N					FMCC4451176					
SCEXH	I	2017/01/30	2017/01/30	7012482	5032735	US3136G4KX06	USTRCE	N					FNMA4448890					
SCEXH	I	2017/01/30	2017/01/30	7012546	5032793	US3136G4LD33	USTRCE	N					FNMA4450298					
SCEXH	I	2017/01/30	2017/01/30	7012245	5032541	US3136G4LE16	USTRCE	N					FNMA4450931					
SCEXH	I	2017/01/30	2017/01/30	7012248	5032545	US469815AH78	USTRCE	N					GAMZ4450911					
SCEXH	U	2013/11/20	2017/01/30	5918571	4133664	US36354TAA07	USTRCE	D				2017/01/10	GARL4063197					
SCEXH	U	2012/01/07	2017/01/30	4872198	3427389	US36962G5N05	USTRCE	D				2017/01/10	GE.AUA					
SCEXH	U	2015/01/07	2017/01/30	6254622	4419876	US36967FAB76	USTRCE	D				2017/01/10	GE4200147					
SCEXH	U	2014/09/19	2017/01/30	6163993	4349972	US38147QH410	USTRCE	D				2017/01/10	GS4165645					
SCEXH	U	2015/01/06	2017/01/31	6253673	4419184	US38148L1301	USTRCE	D				2017/01/11	GS4199807					
SCEXH	I	2017/01/31	2017/01/31	7014008	5034125	US40054KTP11	USTRCE	N					GS4449988					
SCEXH	I	2017/01/31	2017/01/31	7014009	5034118	US40054KU873	USTRCE	N					GS4450314					
SCEXH	I	2017/01/31	2017/01/31	7014024	5034131	US40054KUM60	USTRCE	N					GS4450315					
SCEXH	I	2017/01/30	2017/01/30	7012423	5032683	US40054KUQ74	USTRCE	N					GS4450861					
SCEXH	I	2017/01/30	2017/01/30	7012333	5032613	US40054KTG12	USTRCE	N					GS4450864					
SCEXH	I	2017/01/30	2017/01/30	7012339	5032617	US40054KTF39	USTRCE	N					GS4450865					
SCEXH	I	2017/01/30	2017/01/30	7012344	5032623	US40054KTJ50	USTRCE	N					GS4450866					
SCEXH	I	2017/01/30	2017/01/30	7012348	5032626	US40054KTE63	USTRCE	N					GS4450867					
SCEXH	I	2017/01/30	2017/01/30	7012352	5032628	US40054KTN62	USTRCE	N					GS4450868					
SCEXH	I	2017/01/30	2017/01/30	7012355	5032631	US40054KTM89	USTRCE	N					GS4450869					
SCEXH	I	2017/01/30	2017/01/30	7012358	5032633	US40054KTL07	USTRCE	N					GS4450870					
SCEXH	I	2017/01/30	2017/01/30	7012360	5032635	US40054KTK24	USTRCE	N					GS4450871					
SCEXH	I	2017/01/30	2017/01/30	7012362	5032637	US40054KTY28	USTRCE	N					GS4450872					
SCEXH	I	2017/01/30	2017/01/30	7012366	5032641	US40054KU386	USTRCE	N					GS4450873					
SCEXH	I	2017/01/30	2017/01/30	7012369	5032644	US40054KU535	USTRCE	N					GS4450874					
SCEXH	I	2017/01/30	2017/01/30	7012252	5032551	US36251U7239	USTRCE	N					GS4450935					
SCEXH	I	2017/01/30	2017/01/30	7012429	5032688	US36251U6249	USTRCE	N					GS4450936					
SCEXH	I	2017/01/30	2017/01/30	7012436	5032694	US36251U6082	USTRCE	N					GS4450937					
SCEXH	I	2017/01/30	2017/01/30	7012373	5032647	US36251U7726	USTRCE	N					GS4450938					
SCEXH	I	2017/01/30	2017/01/30	7012378	5032651	US36251U7643	USTRCE	N					GS4450939					
SCEXH	I	2017/01/30	2017/01/30	7012444	5032700	US40054KUP91	USTRCE	N					GS4450941					
SCEXH	I	2017/01/30	2017/01/30	7012449	5032704	US40054KUN44	USTRCE	N					GS4450942					
SCEXH	I	2017/01/31	2017/01/31	7013972	5034091	US40054KTX45	USTRCE	N					GS4451170					
SCEXH	I	2017/01/31	2017/01/31	7013977	5034093	US40054KUV69	USTRCE	N					GS4451172					
SCEXH	I	2017/01/31	2017/01/31	7013985	5034098	US40054KUW43	USTRCE	N					GS4451173					
SCEXH	I	2017/01/31	2017/01/31	7013988	5034101	US40054KUX26	USTRCE	N					GS4451174					
SCEXH	U	2014/03/14	2017/01/30	6012008	4214715	US368034AA25	USTRCE	D				2017/01/10	GTRR4104318					
SCEXH	I	2017/01/30	2017/01/30	7012453	5032708	US40433UM784	USTRCE	N					HBC4450933					
SCEXH	I	2017/01/31	2017/01/31	7013989	5034103	US40435C4502	USTRCE	N					HBC4451186					
SCEXH	I	2017/01/31	2017/01/31	7013991	5034107	US40435C4684	USTRCE	N					HBC4451187					
SCEXH	I	2017/01/30	2017/01/30	7012462	5032583	US44052WAA27	USTRCE	N					HZNWI4450837					
SCEXH	I	2017/01/30	2017/01/30	7012466	5031541	US46625HRY89	USTRCE	N					JPM4449061					
SCEXH	I	2017/01/30	2017/01/30	7012487	5032739	US46646QWJ02	USTRCE	N					JPM4450835					
SCEXH	I	2017/01/30	2017/01/30	7012500	5032751	US46646QWK74	USTRCE	N					JPM4450839					
SCEXH	I	2017/01/30	2017/01/30	7012464	5032718	US46646QVX05	USTRCE	N					JPM4450893					
SCEXH	I	2017/01/30	2017/01/30	7012516	5032763	US46646QWF89	USTRCE	N					JPM4450894					
SCEXH	I	2017/01/30	2017/01/30	7012524	5032769	US46646QTB13	USTRCE	N					JPM4450974					
SCEXH	U	2008/07/02	2017/01/30	1178044	779967	US617446C235	USTRCE	D				2017/01/10	MS.XJ					
SCEXH	U	2014/01/16	2017/01/30	5959725	4180180	US61762W8367	USTRCE	D				2017/01/10	MS4086853					
SCEXH	I	2017/01/30	2017/01/30	7012475	5032727	US61766A6165	USTRCE	N					MS4450972					
SCEXH	I	2017/01/30	2017/01/30	7012389	5032657	US61766A6249	USTRCE	N					MS4450978					
SCEXH	I	2017/01/31	2017/01/31	7013990	5034106	US61768CEV54	USTRCE	N					MS4451028					
SCEXH	I	2017/01/31	2017/01/31	7014033	5034141	US594918CB81	USTRCE	N					MSFT4451226					
SCEXH	I	2017/01/31	2017/01/31	7014038	5034149	US594918CA09	USTRCE	N					MSFT4451227					
SCEXH	I	2017/01/31	2017/01/31	7014056	5034176	US594918BZ68	USTRCE	N					MSFT4451228					
SCEXH	I	2017/01/31	2017/01/31	7014060	5034179	US594918BY93	USTRCE	N					MSFT4451229					
SCEXH	I	2017/01/31	2017/01/31	7014061	5034182	US594918BX11	USTRCE	N					MSFT4451230					
SCEXH	I	2017/01/31	2017/01/31	7014063	5034186	US594918BW38	USTRCE	N					MSFT4451231					
SCEXH	I	2017/01/31	2017/01/31	7014064	5034190	US594918BV54	USTRCE	N					MSFT4451232					
SCEXH	I	2017/01/31	2017/01/31	7013997	5034112	US690353S817	USTRCE	N					OPIZ4451205					
SCEXH	I	2017/01/30	2017/01/30	7012307	4805346	XS1423722823	USTRCE	N					QBGP4450973					
SCEXH	U	2014/01/11	2017/01/31	5955147	4175851	US865622BH61	USTRCE	D				2017/01/11	SMFG4087731					
SCEXH	U	2014/01/11	2017/01/31	5955139	4175785	US865622BF06	USTRCE	D				2017/01/11	SMFG4087734					
SCEXH	I	2017/01/30	2017/01/30	7012398	5032663	US896356AE21	USTRCE	N					TDGC4450975					
SCEXH	I	2017/01/30	2017/01/30	7012610	5032854	USC9196PAB25	USTRCE	N					TDGC4450976					
SCEXH	U	2014/01/13	2017/01/31	5956001	4176751	US89153VAJ89	USTRCE	D				2017/01/11	TOT4088034					
SCEXH	U	2014/12/12	2017/01/30	6235831	4158300	US89267XAC20	USTRCE	D				2017/01/10	TRAW4078136					
SCEXH	U	2014/12/12	2017/01/30	6235837	4158292	US89267XAE85	USTRCE	D				2017/01/10	TRAW4078137					
SCEXH	I	2017/01/30	2017/01/30	7012402	5032610	US87265KAC62	USTRCE	N					TSLX4450832					
SCEXH	I	2017/01/31	2017/01/31	7013998	5034113	US90327QCZ00	USTRCE	N					USAA4451194					
SCEXH	U	2016/01/19	2017/01/30	6625311	4166223	US922764AA33	USTRCE	D				2017/01/10	VNTP4084086					
SCEXH	U	2013/06/24	2017/01/30	5816652	3984595	US92848DAB01	USTRCE	D				2017/01/10	VTLE3956543					
SCEXH	U	2013/06/24	2017/01/30	5816653	3979168	US92848DAA28	USTRCE	D				2017/01/10	VTLE3956544					
SCEXH	I	2017/01/30	2017/01/30	7012478	5032731	US94986R4A63	USTRCE	N					WFC4450896					
SCEXH	I	2017/01/30	2017/01/30	7012413	5032673	US96812TAA07	USTRCE	N					WRD4450944					
SCEXH	I	2017/01/30	2017/01/30	7012615	5032860	USU9830QAA41	USTRCE	N					WRD4450945					
SCEXH	I	2017/01/30	2017/01/30	7012319	5032601		BYBND											
SCEXH	I	2017/01/30	2017/01/30	7012284	5032581	BY1000402631	BYBND											
SCEXH	I	2017/01/30	2017/01/30	7012328	5032609		BYBND											
SCEXH	I	2017/01/30	2017/01/30	7012726	5029968	MKMINF20GK46	MKBND											
SCEXH	I	2017/01/31	2017/01/31	7014415	5034477		TJBND											
SCEXH	U	2016/03/28	2017/01/30	6686798	4180872	UA4000178701	UAUX	D				2017/01/10	DONZN1					
SCEXH	I	2017/01/30	2017/01/30	7013502	5033707	AZ2001019705	AZBSE	N										
SCEXH	I	2017/01/30	2017/01/30	7013532	5033709	AZ2001009169	AZBSE	N										
SCEXH	U	2016/05/28	2017/01/30	6743565	4207016	UA4000178966	UAPSX	D			2014/01/30	2017/01/10	SWRRL					
SCEXH	U	2016/05/30	2017/01/30	6744153	4207032	UA4000178974	UAPSX	D			2014/01/30	2017/01/10	SWRRM					
EDI_ENDOFFILE
