EDI_MTCHG_20160311
TableName	Actflag	Created	Changed	MtChgID	SecID	ISIN	NotificationDate	OldMaturityDate	NewMaturityDate	Reason	EventType	OldMaturityBenchmark	NewMaturityBenchmark	Notes
MTCHG	I	2016/03/11	2016/03/11	47173	4724336	US3133EFP273	2016/03/11	2019/06/14	2019/06/17		CLEAN			
MTCHG	I	2016/03/11	2016/03/11	47174	4724311	US3134G8RV36	2016/03/11	2017/01/11	2017/10/11		CLEAN			
MTCHG	I	2016/03/11	2016/03/11	47175	4724285	US3136G3FU49	2016/03/11	2021/11/29	2021/12/29		CLEAN			
MTCHG	I	2016/03/11	2016/03/11	47179	4683994		2016/03/09	2016/03/10	2016/04/10		MTCHG			
EDI_ENDOFFILE
