EDI_BBE_20160311
tablename	ActFlag	Created	Changed	BbeId	SecId	Exchgcd	Curencd	BbgexhId	Bbgexhtk
BBE	U	2012/10/04	2016/03/11	143109	146699			BBG00000J8T9	LLOYDS F P11/28/49 +2
BBE	U	2012/10/16	2016/03/11	310786	1813295			BBG0000TX0C5	VOSTOK 10.5 03/11/19 REGS
BBE	U	2012/10/25	2016/03/11	367307	2278072			BBG00009XXW5	CNHI 7.875 12/01/17 REGS
BBE	U	2012/10/25	2016/03/11	370655	1835455			BBG0000LZG80	VOSTOK 10.5 03/11/19 144A
BBE	U	2012/10/25	2016/03/11	396583	3252865			BBG0027JFFS6	CNHI 6.25 11/01/16 REGS
BBE	U	2012/10/26	2016/03/11	422528	1411441			BBG0008W79B1	MONBIO 0 12/31/26 AI
BBE	U	2013/05/06	2016/03/11	490079	4022667			BBG0008W79Q5	MONBIO 0 12/31/26
BBE	U	2013/10/14	2016/03/11	527012	4120556			BBG005CX1448	CNHI 3.25 02/01/17 REGS
BBE	U	2015/02/23	2016/03/11	657335	4445743			BBG0083CMN52	FHLMC 1.25 09/11/17
BBE	U	2016/02/19	2016/03/11	750320	4704365			BBG00C3RKLP4	CS 0 02/15/18 1256
BBE	U	2016/02/19	2016/03/11	750322	4704352			BBG00C6854Z7	CS 0 02/15/19 1552
BBE	U	2016/02/19	2016/03/11	750325	4704377			BBG00C6H7591	CS 7.5 02/22/17 1256
BBE	U	2016/02/19	2016/03/11	750635	4704278			BBG00C59XZW9	XIT 2.5 02/15/46
BBE	U	2016/02/26	2016/03/11	752011	4705214			BBG00C7QRK59	GS 0 03/01/17 2251
BBE	I	2016/03/11	2016/03/11	754931	4718286			BBG00CCS22G4	SEK 1.75 03/10/21 GMTN
BBE	I	2016/03/11	2016/03/11	754932	4715883			BBG00CCKPXG8	ALLY 3.9 03/15/19 NOTZ
BBE	I	2016/03/11	2016/03/11	754933	4715890			BBG00CCKQ3S0	ALLY 4.15 03/15/21 NOTz
BBE	I	2016/03/11	2016/03/11	754934	4716955			BBG00C7RQ1H7	AUTGIL 7.5 05/23/21 144A
BBE	I	2016/03/11	2016/03/11	754936	4715227			BBG00CC0GCW0	BNP 0 03/15/17 0005
BBE	I	2016/03/11	2016/03/11	754937	4718329			BBG00CF23687	BNP 0 09/08/17 0008
BBE	I	2016/03/11	2016/03/11	754938	4715297			BBG00CCJVGB6	BAC 0 03/01/18 0025
BBE	I	2016/03/11	2016/03/11	754939	4715940			BBG00CCJVBB7	BAC 4.45 03/03/26 GMTN
BBE	I	2016/03/11	2016/03/11	754940	4717772			BBG00C6LTC39	BMO 12 02/28/17
BBE	I	2016/03/11	2016/03/11	754941	4717901			BBG00C6LTVB8	BMO 10.8 02/28/17
BBE	I	2016/03/11	2016/03/11	754942	4717890			BBG00C6LZ5Y3	BMO 7.2 02/28/17
BBE	I	2016/03/11	2016/03/11	754943	4717487			BBG00C85YJW9	BMO 0 02/28/18 000F
BBE	I	2016/03/11	2016/03/11	754944	4717488			BBG00C85Z8Q9	BMO 0 02/28/18 000G
BBE	I	2016/03/11	2016/03/11	754945	4717490			BBG00C85ZL35	BMO 0 02/28/18 000H
BBE	I	2016/03/11	2016/03/11	754946	4717491			BBG00C860VV8	BMO 0 05/31/17 0008
BBE	I	2016/03/11	2016/03/11	754947	4717493			BBG00C8617B2	BMO 0 05/31/17 0009
BBE	I	2016/03/11	2016/03/11	754948	4715326			BBG00CBZFKF6	BACR V0 04/03/17
BBE	I	2016/03/11	2016/03/11	754949	4716711			BBG00CCK86X7	BACR 0 06/09/17
BBE	I	2016/03/11	2016/03/11	754950	4716703			BBG00CCKSCB6	BACR 0 06/09/17 000A
BBE	I	2016/03/11	2016/03/11	754951	4716723			BBG00CCK8NJ6	BACR 0 09/15/17 EMTP
BBE	I	2016/03/11	2016/03/11	754952	4716716			BBG00CCKSMZ8	BACR 0 09/13/17 1256
BBE	I	2016/03/11	2016/03/11	754953	4718316			BBG00CDHN167	BACR V0 03/10/21 0027
BBE	I	2016/03/11	2016/03/11	754954	4718305			BBG00CDHN0X9	BACR V0 03/10/21 0026
BBE	I	2016/03/11	2016/03/11	754955	4716689			BBG00C7VT096	BACR V0 03/01/19
BBE	I	2016/03/11	2016/03/11	754956	4718292			BBG00CDHN1Y6	BACR V0 03/10/21 MTN2
BBE	I	2016/03/11	2016/03/11	754957	4715558			BBG0005187B5	BACR 10.5 12/15/17
BBE	I	2016/03/11	2016/03/11	754958	4718294			BBG00CCP91Y5	CALVRT 0.5 03/15/17 NOTZ
BBE	I	2016/03/11	2016/03/11	754959	4718300			BBG00CCP9497	CALVRT 1 03/15/19 NOTZ
BBE	I	2016/03/11	2016/03/11	754960	4718302			BBG00CCP95R4	CALVRT 1.5 03/15/21 NOTZ
BBE	I	2016/03/11	2016/03/11	754961	4718306			BBG00CCP97C6	CALVRT 2.25 03/15/23 NOTZ
BBE	I	2016/03/11	2016/03/11	754962	4718310			BBG00CCP99S5	CALVRT 3 03/16/26 NOTZ
BBE	I	2016/03/11	2016/03/11	754963	4716732			BBG00CCN8WL7	C 4.6 03/09/26
BBE	I	2016/03/11	2016/03/11	754964	4715242			BBG00CBTHRX3	C 0 08/29/19 0003
BBE	I	2016/03/11	2016/03/11	754965	4715246			BBG00C9R7630	C 0 01/08/18 0007
BBE	I	2016/03/11	2016/03/11	754966	4715232			BBG00C7TS3Y8	C 0 05/01/18 3435
BBE	I	2016/03/11	2016/03/11	754967	4717705			BBG003Q04TB4	C 11 07/27/20 Emt8
BBE	I	2016/03/11	2016/03/11	754968	4717698			BBG004Z0TWD6	C 7 05/05/22 EMTN
BBE	I	2016/03/11	2016/03/11	754969	4715904			BBG00C5BZ9P8	C 0 09/01/23
BBE	I	2016/03/11	2016/03/11	754970	4715799			BBG00B9TG5F7	C 0 12/05/18 0000
BBE	I	2016/03/11	2016/03/11	754971	4715910			BBG00C5BZ7P2	C 0 03/03/22
BBE	I	2016/03/11	2016/03/11	754972	4715914			BBG00CDMPQB3	C 0 06/02/17 0025
BBE	I	2016/03/11	2016/03/11	754973	4718364			BBG00CDG19P5	COP 4.95 03/15/26
BBE	I	2016/03/11	2016/03/11	754974	4718650			BBG00CDG1M21	COP 5.95 03/15/46
BBE	I	2016/03/11	2016/03/11	754975	4718647			BBG00CDG0S29	COP 4.2 03/15/21
BBE	I	2016/03/11	2016/03/11	754976	4715334			BBG00C0B8YT4	CS 37.5 03/04/20
BBE	I	2016/03/11	2016/03/11	754977	4715259			BBG00C0B5Z50	CS 0 03/03/21
BBE	I	2016/03/11	2016/03/11	754978	4715254			BBG00C0B63H7	CS 0 03/04/20 0025
BBE	I	2016/03/11	2016/03/11	754979	4715261			BBG00C0B8ZR3	CS 0 08/31/18 4545
BBE	I	2016/03/11	2016/03/11	754980	4715318			BBG00C0B72M2	CS V0 09/05/17 0025
BBE	I	2016/03/11	2016/03/11	754981	4715304			BBG00C0B7MR3	CS 8.5 03/03/17 0025
BBE	I	2016/03/11	2016/03/11	754982	4715265			BBG00C0D4Y14	CS 0 06/03/20
BBE	I	2016/03/11	2016/03/11	754983	4718327			BBG00C80TNL9	CS 0 03/08/18 0028
BBE	I	2016/03/11	2016/03/11	754984	4715310			BBG00C9Y3J40	CS V0 03/03/21 0026
BBE	I	2016/03/11	2016/03/11	754985	4716737			BBG00C9Y8D84	CS 0 03/07/19
BBE	I	2016/03/11	2016/03/11	754986	4716743			BBG00CB8HFW6	CS 15 03/26/18
BBE	I	2016/03/11	2016/03/11	754987	4716746			BBG00CB8HKN5	CS 12 09/26/17
BBE	I	2016/03/11	2016/03/11	754988	4716759			BBG00CB909P4	CS 9.25 03/28/19
BBE	I	2016/03/11	2016/03/11	754989	4718345			BBG00CB9B366	CS 0 09/08/17 1256
BBE	I	2016/03/11	2016/03/11	754990	4715930			BBG00CB9BMF4	CS 10.25 09/05/17
BBE	I	2016/03/11	2016/03/11	754991	4716751			BBG00CBTJ2K0	CS 0 03/25/21
BBE	I	2016/03/11	2016/03/11	754992	4716777			BBG00CBTJ3K8	CS 0 03/25/20
BBE	I	2016/03/11	2016/03/11	754993	4717575			BBG00CBVLK40	CS 0 06/08/17 4546
BBE	I	2016/03/11	2016/03/11	754994	4718265			BBG00CC03FR3	CS 0 04/06/17 5657
BBE	I	2016/03/11	2016/03/11	754995	4718263			BBG00CCSGFK5	CS 7.65 03/08/19
BBE	I	2016/03/11	2016/03/11	754996	4718356			BBG00CDHD0M2	CS 10.5 03/09/17 0001
BBE	I	2016/03/11	2016/03/11	754997	4718352			BBG00CDHKB13	CS V0 09/11/17 3454
BBE	I	2016/03/11	2016/03/11	754998	4718350			BBG00CC0FYH0	CS 7 03/09/18
BBE	I	2016/03/11	2016/03/11	754999	4718353			BBG00CC0FYK6	CS 10 03/09/18
BBE	I	2016/03/11	2016/03/11	755000	4719295			BBG00CDHQ9D9	CS V0 03/08/19 4364
BBE	I	2016/03/11	2016/03/11	755001	4716692			BBG00CCNPQG7	DE 2.8 03/06/23 MTN
BBE	I	2016/03/11	2016/03/11	755002	4718348			BBG00CDHV1L1	DB 0 03/08/18 4565
BBE	I	2016/03/11	2016/03/11	755003	4718357			BBG00CCKR265	DFS 4 03/15/25 NOTZ
BBE	I	2016/03/11	2016/03/11	755004	4717484			BBG00CCRK5L3	EBAY 3.8 03/09/22
BBE	I	2016/03/11	2016/03/11	755005	4717476			BBG00CCRJY32	EBAY 2.5 03/09/18
BBE	I	2016/03/11	2016/03/11	755006	4717496			BBG00CCRJBR6	EIX 2.95 03/15/23
BBE	I	2016/03/11	2016/03/11	755009	4715944			BBG00CCK2D59	XOM 1.708 03/01/19
BBE	I	2016/03/11	2016/03/11	755010	4715951			BBG00CCK6767	XOM F 03/01/19
BBE	I	2016/03/11	2016/03/11	755011	4715953			BBG00CCK2TW4	XOM 2.726 03/01/23
BBE	I	2016/03/11	2016/03/11	755012	4715935			BBG00CCKH7H3	XOM F 02/28/18
BBE	I	2016/03/11	2016/03/11	755013	4715938			BBG00CCK3DM9	XOM 3.043 03/01/26
BBE	I	2016/03/11	2016/03/11	755014	4715941			BBG00CCK91Q5	XOM 1.439 03/01/18
BBE	I	2016/03/11	2016/03/11	755015	4715948			BBG00CCK2QX9	XOM 2.222 03/01/21
BBE	I	2016/03/11	2016/03/11	755016	4716195			BBG00CCK4GV1	XOM 4.114 03/01/46
BBE	I	2016/03/11	2016/03/11	755017	4715743			BBG00CCKKX82	FHLB F 12/09/16
BBE	I	2016/03/11	2016/03/11	755018	4715744			BBG00CCKGFP7	FHLB 0.5 09/01/16 0000
BBE	I	2016/03/11	2016/03/11	755019	4715745			BBG00CCKJV42	FHLB 0.5 09/08/16
BBE	I	2016/03/11	2016/03/11	755020	4715748			BBG00CCKKRT2	FHLB 0.625 03/02/17
BBE	I	2016/03/11	2016/03/11	755021	4715750			BBG00CCKLC96	FHLB 1.26 03/15/19
BBE	I	2016/03/11	2016/03/11	755022	4715751			BBG00CCKMKB4	FHLB 2.6 03/07/25
BBE	I	2016/03/11	2016/03/11	755023	4715753			BBG00CCKTGL5	FHLB 2 03/21/31
BBE	I	2016/03/11	2016/03/11	755024	4716611			BBG00CCNNQM2	FHLB F 09/05/17
BBE	I	2016/03/11	2016/03/11	755025	4716614			BBG00CCNVGG2	FHLB F 03/03/17 *
BBE	I	2016/03/11	2016/03/11	755026	4716616			BBG00CCNWTK8	FHLB F 03/07/17 __
BBE	I	2016/03/11	2016/03/11	755027	4716618			BBG00CCNXQ41	FHLB F 12/02/16 *
BBE	I	2016/03/11	2016/03/11	755028	4716619			BBG00CCNZ5V5	FHLB F 03/08/18
BBE	I	2016/03/11	2016/03/11	755029	4716622			BBG00CCNZ6P0	FHLB 1.25 09/30/19 0003
BBE	I	2016/03/11	2016/03/11	755030	4716624			BBG00CCP10K0	FHLB F 03/09/17
BBE	I	2016/03/11	2016/03/11	755031	4716626			BBG00CCP0824	FHLB 1.05 09/28/18
BBE	I	2016/03/11	2016/03/11	755032	4716630			BBG00CCP15Y4	FHLB 1.8 03/30/21
BBE	I	2016/03/11	2016/03/11	755033	4716632			BBG00CCP1ZT4	FHLB 1.6 03/23/21
BBE	I	2016/03/11	2016/03/11	755034	4716635			BBG00CCP4X07	FHLB F 12/07/16
BBE	I	2016/03/11	2016/03/11	755035	4716637			BBG00CCP8620	FHLB 1.08 02/15/19
BBE	I	2016/03/11	2016/03/11	755036	4716640			BBG00CCPB0R2	FHLB 1.875 03/15/21
BBE	I	2016/03/11	2016/03/11	755037	4716642			BBG00CCPBGC3	FHLB 1 12/29/17 0009
BBE	I	2016/03/11	2016/03/11	755038	4716643			BBG00CCPCKF0	FHLB 1.036 11/01/18
BBE	I	2016/03/11	2016/03/11	755039	4716644			BBG00CCPCKC3	FHLB 1.06 05/01/19
BBE	I	2016/03/11	2016/03/11	755040	4717399			BBG00CCRG5Z3	FHLB 1.5 12/30/19 000A
BBE	I	2016/03/11	2016/03/11	755041	4717405			BBG00CCRWF92	FHLB 0.52 09/09/16
BBE	I	2016/03/11	2016/03/11	755042	4717406			BBG00CCRZ699	FHLB F 09/11/17 **
BBE	I	2016/03/11	2016/03/11	755043	4717419			BBG00CCS13Z2	FHLB 1.125 09/28/18
BBE	I	2016/03/11	2016/03/11	755044	4717421			BBG00CCS22H3	FHLB 1.125 09/28/18 0000
BBE	I	2016/03/11	2016/03/11	755045	4717424			BBG00CCS44D1	FHLB F 03/03/17 -
BBE	I	2016/03/11	2016/03/11	755046	4717427			BBG00CCS63G8	FHLB 2 03/30/26
BBE	I	2016/03/11	2016/03/11	755047	4717429			BBG00CCS6B98	FHLB 2.27 03/21/31
BBE	I	2016/03/11	2016/03/11	755048	4717431			BBG00CCS69J2	FHLB 3.2 03/14/31
BBE	I	2016/03/11	2016/03/11	755049	4717434			BBG00CCS8RL7	FHLB 0.52 09/09/16 0000
BBE	I	2016/03/11	2016/03/11	755050	4717437			BBG00CCS9KY7	FHLB 1.6 03/30/20 0000
BBE	I	2016/03/11	2016/03/11	755051	4717438			BBG00CCSB6T1	FHLB 0.52 09/09/16 0001
BBE	I	2016/03/11	2016/03/11	755052	4717439			BBG00CCSBPN5	FHLB 1.25 03/30/21
BBE	I	2016/03/11	2016/03/11	755053	4717444			BBG00CCSFY43	FHLB 1 03/30/21 0000
BBE	I	2016/03/11	2016/03/11	755054	4717445			BBG00CCSJS79	FHLB 1.55 03/28/31
BBE	I	2016/03/11	2016/03/11	755055	4718159			BBG00CDFZ015	FHLB 1.25 12/28/18 0007
BBE	I	2016/03/11	2016/03/11	755056	4718161			BBG00CDG0PT6	FHLB 1.1 09/28/18 0000
BBE	I	2016/03/11	2016/03/11	755057	4718163			BBG00CDG04C1	FHLB 1.2 03/29/19
BBE	I	2016/03/11	2016/03/11	755058	4718166			BBG00CDG03T5	FHLB 1 03/29/18 0001
BBE	I	2016/03/11	2016/03/11	755059	4718171			BBG00CDG43Q4	FHLB 0.5 09/07/16
BBE	I	2016/03/11	2016/03/11	755060	4718173			BBG00CDGMWC5	FHLB F 09/11/17 *
BBE	I	2016/03/11	2016/03/11	755061	4718182			BBG00CDGLS44	FHLB 1.17 12/28/18
BBE	I	2016/03/11	2016/03/11	755062	4718185			BBG00CDH6TX5	FHLB 1 03/21/18
BBE	I	2016/03/11	2016/03/11	755063	4718188			BBG00CDHGH51	FHLB 1.35 10/01/20
BBE	I	2016/03/11	2016/03/11	755064	4718192			BBG00CDHK4V6	FHLB F 12/07/16 **
BBE	I	2016/03/11	2016/03/11	755065	4718193			BBG00CDHLRN3	FHLB 1.077 02/15/19
BBE	I	2016/03/11	2016/03/11	755066	4718078			BBG00CBZXSC2	FAMCA 0.675 03/01/17
BBE	I	2016/03/11	2016/03/11	755067	4715225			BBG00CBZXN60	FAMCA 0.71 04/03/17
BBE	I	2016/03/11	2016/03/11	755068	4716690			BBG00CCP05X6	FAMCA 0.76 06/07/17
BBE	I	2016/03/11	2016/03/11	755069	4717525			BBG00CCS2HL5	FAMCA 1.14 03/11/19 MTN
BBE	I	2016/03/11	2016/03/11	755070	4717528			BBG00CCS07D8	FAMCA 1.58 03/11/21
BBE	I	2016/03/11	2016/03/11	755071	4717518			BBG00CCS4C70	FAMCA 3.05 03/11/31
BBE	I	2016/03/11	2016/03/11	755072	4717521			BBG00CCRZ4V9	FAMCA 1.27 03/11/19
BBE	I	2016/03/11	2016/03/11	755073	4717516			BBG00CCRZM76	FAMCA 1.84 03/11/21
BBE	I	2016/03/11	2016/03/11	755074	4717530			BBG00CCS6920	FAMCA F 03/09/23
BBE	I	2016/03/11	2016/03/11	755075	4715421			BBG00CC00RS9	FFCB 1.65 09/08/20
BBE	I	2016/03/11	2016/03/11	755076	4715343			BBG00CC01XT4	FFCB 0.77 07/07/17
BBE	I	2016/03/11	2016/03/11	755077	4715417			BBG00CC00Q47	FFCB 1.39 09/09/19
BBE	I	2016/03/11	2016/03/11	755078	4715341			BBG00CC00TN0	FFCB 1.94 12/07/21
BBE	I	2016/03/11	2016/03/11	755079	4715353			BBG00CC02Q72	FFCB 1.25 03/04/20
BBE	I	2016/03/11	2016/03/11	755080	4716691			BBG00CCP3NG3	FFCB 2.79 03/09/26
BBE	I	2016/03/11	2016/03/11	755081	4716694			BBG00CCP3RS1	FFCB 3.19 03/11/36
BBE	I	2016/03/11	2016/03/11	755082	4716704			BBG00CCPCK42	FFCB 1.11 02/01/19
BBE	I	2016/03/11	2016/03/11	755083	4716699			BBG00CCPCG14	FFCB 1.04 11/01/18
BBE	I	2016/03/11	2016/03/11	755084	4716696			BBG00CCP86T1	FFCB F 03/08/18
BBE	I	2016/03/11	2016/03/11	755085	4717380			BBG00CCP8229	FFCB F 03/08/17
BBE	I	2016/03/11	2016/03/11	755086	4717555			BBG00CCS8615	FFCB 1.53 03/09/20
BBE	I	2016/03/11	2016/03/11	755087	4718160			BBG00CDHGMP8	FFCB 0.98 12/14/17
BBE	I	2016/03/11	2016/03/11	755088	4718170			BBG00CDHGLD3	FFCB 1.97 03/10/22
BBE	I	2016/03/11	2016/03/11	755089	4718164			BBG00CDHGLG0	FFCB F 09/14/17 *
BBE	I	2016/03/11	2016/03/11	755090	4716661			BBG00C82ZP79	FHLMC 0.78 06/22/18
BBE	I	2016/03/11	2016/03/11	755091	4716663			BBG00C82ZSD6	FHLMC 0.835 12/21/18
BBE	I	2016/03/11	2016/03/11	755092	4715220			BBG00CBZLNL6	FHLMC 1.25 03/23/21
BBE	I	2016/03/11	2016/03/11	755093	4715438			BBG00CBZLPH6	FHLMC 1.25 03/23/21 0000
BBE	I	2016/03/11	2016/03/11	755094	4715435			BBG00CBZVTW0	FHLMC 1 03/29/19 0003
BBE	I	2016/03/11	2016/03/11	755095	4715810			BBG00CC03F57	FHLMC 1.4 03/29/19
BBE	I	2016/03/11	2016/03/11	755096	4715336			BBG00CC03H99	FHLMC 1.125 03/16/18
BBE	I	2016/03/11	2016/03/11	755097	4716782			BBG00CC03TJ2	FHLMC 1 03/23/21 0000
BBE	I	2016/03/11	2016/03/11	755098	4715813			BBG00CC048V3	FHLMC 1.25 03/30/21
BBE	I	2016/03/11	2016/03/11	755099	4715817			BBG00CC05T91	FHLMC 1 12/30/19 0002
BBE	I	2016/03/11	2016/03/11	755100	4715249			BBG00CC0FB71	FHLMC 0.87 09/15/17
BBE	I	2016/03/11	2016/03/11	755101	4715896			BBG00CCK67N8	FHLMC 1 03/23/18
BBE	I	2016/03/11	2016/03/11	755102	4716646			BBG00CCKKSX5	FHLMC 0.75 03/03/21
BBE	I	2016/03/11	2016/03/11	755103	4715903			BBG00CCKM1Q0	FHLMC 1 12/08/17
BBE	I	2016/03/11	2016/03/11	755104	4715909			BBG00CCKNHS2	FHLMC 2.375 03/03/21
BBE	I	2016/03/11	2016/03/11	755105	4715913			BBG00CCKQJK3	FHLMC 0.75 03/15/21 0000
BBE	I	2016/03/11	2016/03/11	755106	4716707			BBG00CCP52M0	FHLMC 1.45 06/10/19
BBE	I	2016/03/11	2016/03/11	755107	4717459			BBG00CCP8D16	FHLMC 1.05 03/29/18
BBE	I	2016/03/11	2016/03/11	755108	4716710			BBG00CCP8YX5	FHLMC 0.75 03/29/19
BBE	I	2016/03/11	2016/03/11	755109	4717461			BBG00CCP8VP0	FHLMC 1.5 09/29/23
BBE	I	2016/03/11	2016/03/11	755110	4717567			BBG00CCP8ZJ8	FHLMC 1.3 03/30/21
BBE	I	2016/03/11	2016/03/11	755111	4717465			BBG00CCP9ZX1	FHLMC 1.125 03/30/21
BBE	I	2016/03/11	2016/03/11	755112	4717565			BBG00CCRJ0H1	FHLMC 1.875 03/30/21
BBE	I	2016/03/11	2016/03/11	755113	4717561			BBG00CCRJGY7	FHLMC 1.5 03/30/21
BBE	I	2016/03/11	2016/03/11	755114	4717562			BBG00CCS9SB5	FHLMC 1.35 09/30/19
BBE	I	2016/03/11	2016/03/11	755115	4717558			BBG00CCSBGB8	FHLMC 1.8 03/30/21
BBE	I	2016/03/11	2016/03/11	755116	4717571			BBG00CCSCYN5	FHLMC F 03/08/18
BBE	I	2016/03/11	2016/03/11	755117	4717560			BBG00CCSF8J4	FHLMC 1.25 03/30/21 0000
BBE	I	2016/03/11	2016/03/11	755118	4717573			BBG00CCSJDF3	FHLMC 1.5 03/24/21
BBE	I	2016/03/11	2016/03/11	755119	4718312			BBG00CDFWZC9	FHLMC 1.25 03/28/19
BBE	I	2016/03/11	2016/03/11	755120	4717552			BBG00CCNZFT6	FNMA 0.875 03/28/18
BBE	I	2016/03/11	2016/03/11	755121	4715414			BBG00CBVJRW7	FNMA 1.66 12/23/20
BBE	I	2016/03/11	2016/03/11	755122	4717092			BBG00CBVQYG2	FNMA 1.125 03/23/21
BBE	I	2016/03/11	2016/03/11	755123	4715821			BBG00CBZL8G5	FNMA 0.85 03/23/21
BBE	I	2016/03/11	2016/03/11	755124	4715400			BBG00CBZMX51	FNMA 1 03/23/21
BBE	I	2016/03/11	2016/03/11	755125	4715397			BBG00CBZRKZ1	FNMA 1.52 06/15/20
BBE	I	2016/03/11	2016/03/11	755126	4715406			BBG00CBZRT37	FNMA 1.42 09/24/20
BBE	I	2016/03/11	2016/03/11	755127	4715407			BBG00CBZSCR7	FNMA 1.5 03/24/21
BBE	I	2016/03/11	2016/03/11	755128	4715826			BBG00CBZTKY0	FNMA 1 03/23/21 0000
BBE	I	2016/03/11	2016/03/11	755129	4715404			BBG00CBZXVJ8	FNMA 1.245 03/08/19
BBE	I	2016/03/11	2016/03/11	755130	4715402			BBG00CBZY3X3	FNMA 3.5 03/24/31
BBE	I	2016/03/11	2016/03/11	755131	4715405			BBG00CBZZX48	FNMA 1 03/23/21 0001
BBE	I	2016/03/11	2016/03/11	755132	4715251			BBG00CC02GH3	FNMA 1 03/21/19
BBE	I	2016/03/11	2016/03/11	755133	4715276			BBG00CC02GB9	FNMA 1.4 03/15/21
BBE	I	2016/03/11	2016/03/11	755134	4715255			BBG00CC02X59	FNMA 1.55 06/15/20
BBE	I	2016/03/11	2016/03/11	755135	4715278			BBG00CC03R60	FNMA 1.76 03/16/21
BBE	I	2016/03/11	2016/03/11	755136	4715345			BBG00CC08YM2	FNMA 0.875 09/23/21
BBE	I	2016/03/11	2016/03/11	755137	4717534			BBG00CC09N63	FNMA 2.375 03/10/31
BBE	I	2016/03/11	2016/03/11	755138	4715918			BBG00CCK2BD4	FNMA 1.35 03/24/20
BBE	I	2016/03/11	2016/03/11	755139	4715922			BBG00CCK3GY9	FNMA 1.5 12/24/20 0002
BBE	I	2016/03/11	2016/03/11	755140	4716648			BBG00CCK4Y15	FNMA 1 03/29/19
BBE	I	2016/03/11	2016/03/11	755141	4716650			BBG00CCK7H19	FNMA 0.75 03/22/19 0000
BBE	I	2016/03/11	2016/03/11	755142	4716651			BBG00CCKLBB5	FNMA 1 03/30/21
BBE	I	2016/03/11	2016/03/11	755143	4716655			BBG00CCKLV76	FNMA 0.75 03/16/21
BBE	I	2016/03/11	2016/03/11	755144	4716757			BBG00CCNZ6S7	FNMA 1.55 06/15/20 0000
BBE	I	2016/03/11	2016/03/11	755145	4717468			BBG00CCNZD84	FNMA 1 03/30/20
BBE	I	2016/03/11	2016/03/11	755146	4716721			BBG00CCNZJP2	FNMA 1.3 09/30/19
BBE	I	2016/03/11	2016/03/11	755147	4717470			BBG00CCNZFP0	FNMA 2.125 03/21/19
BBE	I	2016/03/11	2016/03/11	755148	4716728			BBG00CCP2R48	FNMA 1.5 03/30/21
BBE	I	2016/03/11	2016/03/11	755149	4718333			BBG00CCP2YL4	FNMA 3.03 03/24/31
BBE	I	2016/03/11	2016/03/11	755150	4716731			BBG00CCP3L13	FNMA 1.625 09/30/21
BBE	I	2016/03/11	2016/03/11	755151	4716747			BBG00CCP3PR6	FNMA 1.55 03/30/20
BBE	I	2016/03/11	2016/03/11	755152	4716752			BBG00CCP3ZS3	FNMA 1.375 12/30/19
BBE	I	2016/03/11	2016/03/11	755153	4716749			BBG00CCP4134	FNMA 1.25 03/29/19
BBE	I	2016/03/11	2016/03/11	755154	4716733			BBG00CCP4YJ5	FNMA 1.3 03/15/19
BBE	I	2016/03/11	2016/03/11	755155	4717473			BBG00CCP5BT3	FNMA 1.75 03/30/26
BBE	I	2016/03/11	2016/03/11	755156	4716758			BBG00CCP5286	FNMA 1.31 03/15/19
BBE	I	2016/03/11	2016/03/11	755157	4716738			BBG00CCP5WC5	FNMA 1.8 03/30/21
BBE	I	2016/03/11	2016/03/11	755158	4717477			BBG00CCP63P4	FNMA 1.8 03/23/21
BBE	I	2016/03/11	2016/03/11	755159	4716764			BBG00CCP6BR4	FNMA 1.375 03/30/21
BBE	I	2016/03/11	2016/03/11	755160	4717480			BBG00CCP6Y12	FNMA 1.8 03/15/21
BBE	I	2016/03/11	2016/03/11	755161	4718339			BBG00CCP76L0	FNMA 1.285 03/15/19
BBE	I	2016/03/11	2016/03/11	755162	4717481			BBG00CCP86N7	FNMA 2 03/30/22
BBE	I	2016/03/11	2016/03/11	755163	4717483			BBG00CCP87S0	FNMA 2 03/30/26
BBE	I	2016/03/11	2016/03/11	755164	4716766			BBG00CCP8CK7	FNMA 1.25 03/29/19 0000
BBE	I	2016/03/11	2016/03/11	755165	4717485			BBG00CCP8GT9	FNMA 1.2 03/29/19
BBE	I	2016/03/11	2016/03/11	755166	4717550			BBG00CCRX5C9	FNMA 1.5 09/30/20 0000
BBE	I	2016/03/11	2016/03/11	755167	4717537			BBG00CCRW5C0	FNMA 1 03/30/21 0000
BBE	I	2016/03/11	2016/03/11	755168	4717539			BBG00CCS1C00	FNMA 1 03/29/19 0000
BBE	I	2016/03/11	2016/03/11	755169	4717542			BBG00CCS7NN5	FNMA 1 09/16/19
BBE	I	2016/03/11	2016/03/11	755170	4717543			BBG00CCSB7D6	FNMA 2.25 03/28/31
BBE	I	2016/03/11	2016/03/11	755171	4717547			BBG00CCS9XR7	FNMA 1.25 03/30/20
BBE	I	2016/03/11	2016/03/11	755172	4718251			BBG00CCSC8K5	FNMA 1.5 03/30/21 0000
BBE	I	2016/03/11	2016/03/11	755173	4717553			BBG00CCSGFG0	FNMA 1.21 03/15/19
BBE	I	2016/03/11	2016/03/11	755174	4718321			BBG00CDFZ186	FNMA 1 09/23/21
BBE	I	2016/03/11	2016/03/11	755175	4718319			BBG00CDFZ6S3	FNMA 1.51 12/30/19
BBE	I	2016/03/11	2016/03/11	755176	4719371			BBG00CDG3T15	FNMA 0.75 03/29/19
BBE	I	2016/03/11	2016/03/11	755177	4718326			BBG00CDGXDY1	FNMA 1.8 03/22/21
BBE	I	2016/03/11	2016/03/11	755178	4718330			BBG00CDHFWQ6	FNMA 1.5 03/16/21 0000
BBE	I	2016/03/11	2016/03/11	755179	4718340			BBG00CDHGSD8	FNMA 1.35 03/21/19
BBE	I	2016/03/11	2016/03/11	755180	4719487			BBG00CDHKQT0	FNMA 1 03/30/21 0001
BBE	I	2016/03/11	2016/03/11	755181	4719507			BBG00CDHQR49	FNMA 1.35 03/30/21
BBE	I	2016/03/11	2016/03/11	755182	4715899			BBG00CCKR336	F 2.9 03/20/19 NOTZ
BBE	I	2016/03/11	2016/03/11	755183	4715917			BBG00CCKRSY7	F 3.5 03/20/21 NOTz
BBE	I	2016/03/11	2016/03/11	755184	4715931			BBG00CCKS0V0	F 4.25 03/20/26 NOTZ
BBE	I	2016/03/11	2016/03/11	755185	4715926			BBG00CCKQ5J5	GS 0 03/05/19
BBE	I	2016/03/11	2016/03/11	755186	4717500			BBG00CCRFNC0	SO 3.25 04/01/26
BBE	I	2016/03/11	2016/03/11	755187	4717506			BBG00CCRCZR0	SO 2.4 04/01/21
BBE	I	2016/03/11	2016/03/11	755188	4718315			BBG00CCKRRS6	GS 3 03/15/25 NOTZ
BBE	I	2016/03/11	2016/03/11	755189	4718320			BBG00CCKRTF6	GS 4 03/15/36 NOTZ
BBE	I	2016/03/11	2016/03/11	755190	4717531			BBG00CC03QS8	GS 0 03/05/20 0025
BBE	I	2016/03/11	2016/03/11	755191	4715287			BBG00CCKMKX0	GS V0 03/15/17 0004
BBE	I	2016/03/11	2016/03/11	755192	4717540			BBG00CCP5NQ0	GS V0 03/09/21 0025
BBE	I	2016/03/11	2016/03/11	755193	4716754			BBG00CDNB684	GS 0 03/25/22 0003
BBE	I	2016/03/11	2016/03/11	755194	4716760			BBG00CDNB639	GS 0 03/25/19
BBE	I	2016/03/11	2016/03/11	755195	4716765			BBG00CDNB611	GS 0 03/25/22
BBE	I	2016/03/11	2016/03/11	755196	4715284			BBG00CDFF776	GS 0 08/31/17 0025
BBE	I	2016/03/11	2016/03/11	755197	4715920			BBG00CDM9PD1	GS 0 03/05/18 0025
BBE	I	2016/03/11	2016/03/11	755198	4715923			BBG00CDMBBB1	GS 0 03/15/18 0026
BBE	I	2016/03/11	2016/03/11	755199	4716773			BBG00CDXJPK8	GS 0 03/22/18 0012
BBE	I	2016/03/11	2016/03/11	755200	4716768			BBG00CDXK3C4	GS 0 11/24/17 0025
BBE	I	2016/03/11	2016/03/11	755201	4718298			BBG00CDN8FF0	GS 0.429 04/10/17 5465
BBE	I	2016/03/11	2016/03/11	755202	4716745			BBG00CCNVYQ2	HCA 5.25 06/15/26
BBE	I	2016/03/11	2016/03/11	755203	4716712			BBG00CCMWMC4	HSBC 3.4 03/08/21
BBE	I	2016/03/11	2016/03/11	755204	4716708			BBG00CCMWR24	HSBC 4.3 03/08/26
BBE	I	2016/03/11	2016/03/11	755205	4716700			BBG00CCPCFS7	HSBC F 03/08/21 .
BBE	I	2016/03/11	2016/03/11	755206	4717508			BBG00C6FG3S9	HSBC 8 08/29/17 EMU1
BBE	I	2016/03/11	2016/03/11	755207	4715924			BBG00CCKQP65	HSBC 0 03/30/20
BBE	I	2016/03/11	2016/03/11	755208	4715872			BBG00CCRK6Y7	HSBC 0 10/02/17
BBE	I	2016/03/11	2016/03/11	755209	4715897			BBG00CCRKJV2	HSBC 0 10/02/17 000K
BBE	I	2016/03/11	2016/03/11	755210	4716741			BBG00CCRZ118	HSBC 0 04/01/19 000E
BBE	I	2016/03/11	2016/03/11	755211	4716706			BBG00CCKQM44	HSBC 0 03/15/17
BBE	I	2016/03/11	2016/03/11	755212	4716683			BBG00C86DWB4	HSBC 0 03/02/21
BBE	I	2016/03/11	2016/03/11	755213	4715921			BBG00CCKQR52	HSBC 0 03/28/22
BBE	I	2016/03/11	2016/03/11	755214	4716724			BBG00CCKMJ36	HSBC 0 09/30/19
BBE	I	2016/03/11	2016/03/11	755215	4716715			BBG00CCS5878	HSBC 0 07/06/17 F111
BBE	I	2016/03/11	2016/03/11	755216	4716714			BBG00CCS86G9	HSBC 0 03/31/21 CD0B
BBE	I	2016/03/11	2016/03/11	755217	4716718			BBG00CCS8116	HSBC 0 03/31/26
BBE	I	2016/03/11	2016/03/11	755218	4716729			BBG00CCS9LM8	HSBC 0 03/29/19 000C
BBE	I	2016/03/11	2016/03/11	755219	4716734			BBG00CCS9NX2	HSBC 0 03/31/21 CD0C
BBE	I	2016/03/11	2016/03/11	755220	4716740			BBG00CCS9Q38	HSBC 0 03/31/21 CD0D
BBE	I	2016/03/11	2016/03/11	755221	4716702			BBG00C838F60	HSBC V0 03/03/17 000H
BBE	I	2016/03/11	2016/03/11	755222	4716722			BBG00C8389B8	HSBC 0 03/01/19
BBE	I	2016/03/11	2016/03/11	755223	4717545			BBG00C7RH2V9	HSBC V0 03/04/26 4556
BBE	I	2016/03/11	2016/03/11	755224	4715929			BBG00CCK93D5	H 4.85 03/15/26
BBE	I	2016/03/11	2016/03/11	755225	4715937			BBG00CCJWB71	AEP 4.55 03/15/46 K
BBE	I	2016/03/11	2016/03/11	755226	4716338			BBG009YZVD93	AES 4.7 09/01/45 144A
BBE	I	2016/03/11	2016/03/11	755228	4716010			BBG000091T77	GLBIR 0 10/15/08 144A
BBE	I	2016/03/11	2016/03/11	755229	4717564			BBG00CCJK0Q7	JPM 0 03/03/21
BBE	I	2016/03/11	2016/03/11	755230	4715945			BBG00C84DXY2	JPM 0 03/05/21
BBE	I	2016/03/11	2016/03/11	755231	4717546			BBG00CCM3NM3	JPM 0 03/23/20
BBE	I	2016/03/11	2016/03/11	755232	4716784			BBG00CCM3Q28	JPM 0 03/21/19
BBE	I	2016/03/11	2016/03/11	755233	4716772			BBG00CCJK0P8	JPM 9.5 09/08/17 0025
BBE	I	2016/03/11	2016/03/11	755234	4718362			BBG00CCM3MT8	JPM 0 11/08/17 0025
BBE	I	2016/03/11	2016/03/11	755235	4718360			BBG00CCP3TW2	JPM 8.5 03/10/17 0125
BBE	I	2016/03/11	2016/03/11	755236	4718361			BBG00CCVLX69	JPM 0 03/08/18 0004
BBE	I	2016/03/11	2016/03/11	755237	4718307			BBG00CDG4231	KEY 2.35 03/08/19 BKNT
BBE	I	2016/03/11	2016/03/11	755238	4717762			BBG00CB2XP68	LEHPOL
BBE	I	2016/03/11	2016/03/11	755239	4716736			BBG00CCNDTD7	MFCCN 4.15 03/04/26
BBE	I	2016/03/11	2016/03/11	755240	4716755			BBG00CCNLVB5	MFCCN 5.375 03/04/46
BBE	I	2016/03/11	2016/03/11	755241	4716193			BBG00CCKR2X5	MS 3.8 03/10/31 GMTN
BBE	I	2016/03/11	2016/03/11	755242	4715301			BBG00CCJXYQ9	MS 0 04/04/17
BBE	I	2016/03/11	2016/03/11	755243	4718311			BBG00CDM39D3	MS 5.15 03/09/17 1257
BBE	I	2016/03/11	2016/03/11	755244	4715927			BBG00CCNMBN5	MS 0 03/09/18
BBE	I	2016/03/11	2016/03/11	755245	4715298			BBG00CCJXZ13	MS 0 05/10/18
BBE	I	2016/03/11	2016/03/11	755246	4716697			BBG00CB48SR3	MS 0 03/03/17
BBE	I	2016/03/11	2016/03/11	755247	4715933			BBG00CCP86S2	NRUC 3.5 09/15/29 NOTz
BBE	I	2016/03/11	2016/03/11	755248	4717536			BBG00CCRJXW2	NSANY 2 03/08/19 144A
BBE	I	2016/03/11	2016/03/11	755249	4717566			BBG00CCRL1S4	NSANY F 03/08/19 144A
BBE	I	2016/03/11	2016/03/11	755250	4717541			BBG00CCRK702	NSANY 2.55 03/08/21 144A
BBE	I	2016/03/11	2016/03/11	755251	4716681			BBG00CCNSGY6	ORLY 3.55 03/15/26
BBE	I	2016/03/11	2016/03/11	755252	4716748			BBG00CCNVN40	PNC 1.95 03/04/19 BKNT
BBE	I	2016/03/11	2016/03/11	755253	4716411			BBG00CCKRRH8	PSEC 5.375 03/15/21 NOTZ
BBE	I	2016/03/11	2016/03/11	755254	4715942			BBG00CCJXYY0	PEG 1.9 03/15/21 MTN
BBE	I	2016/03/11	2016/03/11	755255	4715949			BBG00CCJYT61	PEG 3.8 03/01/46 MTN
BBE	I	2016/03/11	2016/03/11	755256	4715968			BBG00C1CRGH2	RY 0 03/08/17 0002
BBE	I	2016/03/11	2016/03/11	755257	4716727			BBG00CCPBV67	RY 0 04/06/18 0025
BBE	I	2016/03/11	2016/03/11	755258	4717532			BBG00CCSK247	RY 0 03/08/18 0007
BBE	I	2016/03/11	2016/03/11	755259	4716705			BBG00CCP97R0	RY 0 05/31/17
BBE	I	2016/03/11	2016/03/11	755260	4716709			BBG00CCP9DM2	RY 0 09/28/18
BBE	I	2016/03/11	2016/03/11	755261	4716719			BBG00CCPCDD8	RY 0 03/31/22
BBE	I	2016/03/11	2016/03/11	755262	4718363			BBG00CDHK614	RY 0 04/07/17
BBE	I	2016/03/11	2016/03/11	755263	4716713			BBG00CCP9GK7	RY 0 03/31/21
BBE	I	2016/03/11	2016/03/11	755264	4717529			BBG00CCSK0Z7	RY 0 05/07/18 6456
BBE	I	2016/03/11	2016/03/11	755265	4716774			BBG00CCPB2C4	RY V0 03/29/19
BBE	I	2016/03/11	2016/03/11	755266	4718296			BBG00CDHLRH0	RY 0 04/05/21
BBE	I	2016/03/11	2016/03/11	755267	4716649			BBG00C6H1DG2	RY V0 02/19/19 F0TQ
BBE	I	2016/03/11	2016/03/11	755268	4716701			BBG00CCP75D1	RY 0 07/06/17
BBE	I	2016/03/11	2016/03/11	755269	4717524			BBG00CCSB5R5	RY 0 04/03/19
BBE	I	2016/03/11	2016/03/11	755270	4719266			BBG00BKNC231	RY 7.25 06/05/17 0000
BBE	I	2016/03/11	2016/03/11	755271	4715901			BBG00CBTL1R2	SOCGEN 3 03/31/23 MTN
BBE	I	2016/03/11	2016/03/11	755272	4715846			BBG00CBVQ7S8	SOCGEN 0 04/02/20
BBE	I	2016/03/11	2016/03/11	755273	4715309			BBG00CBW3499	SOCGEN 0 03/16/17
BBE	I	2016/03/11	2016/03/11	755274	4715316			BBG00CBZXBK0	SOCGEN 0 03/15/17 EMTS
BBE	I	2016/03/11	2016/03/11	755275	4716657			BBG00CC02T85	SOCGEN 5.84 03/06/17
BBE	I	2016/03/11	2016/03/11	755276	4716658			BBG00CCK5K87	SOCGEN 3.25 03/21/31 MTN
BBE	I	2016/03/11	2016/03/11	755277	4716717			BBG00CCKQKM8	SOCGEN 0 03/22/17
BBE	I	2016/03/11	2016/03/11	755278	4716725			BBG00CCKQL73	SOCGEN 0 03/22/17 0003
BBE	I	2016/03/11	2016/03/11	755279	4717471			BBG00CCM95K8	SOCGEN V4.25 03/23/26 MTN
BBE	I	2016/03/11	2016/03/11	755280	4716742			BBG00C6F5X69	SLH 10.5 03/01/24 144A
BBE	I	2016/03/11	2016/03/11	755281	4718322			BBG00CDGJP61	SYK 4.625 03/15/46
BBE	I	2016/03/11	2016/03/11	755282	4718332			BBG00CDG4CX6	SYK 2 03/08/19
BBE	I	2016/03/11	2016/03/11	755283	4718325			BBG00CDG78C5	SYK 2.625 03/15/21
BBE	I	2016/03/11	2016/03/11	755284	4718642			BBG00CDGGL54	SYK 3.5 03/15/26
BBE	I	2016/03/11	2016/03/11	755285	4717554			BBG00CCKZ104	SUMIBK 2.934 03/09/21
BBE	I	2016/03/11	2016/03/11	755286	4717551			BBG00CCKZ131	SUMIBK 3.784 03/09/26
BBE	I	2016/03/11	2016/03/11	755287	4717570			BBG00CCKZ122	SUMIBK F 03/09/21
BBE	I	2016/03/11	2016/03/11	755288	4715932			BBG00CCK7SL3	STI 2.9 03/03/21
BBE	I	2016/03/11	2016/03/11	755289	4718317			BBG00CDFZ4G1	SWEDA 2.65 03/10/21 144A
BBE	I	2016/03/11	2016/03/11	755290	4715677			BBG00CF2GPK7	TPX 5.625 10/15/23 WI
BBE	I	2016/03/11	2016/03/11	755291	4719306			BBG00CDMMPT9	TXT 4 03/15/26
BBE	I	2016/03/11	2016/03/11	755292	4716761			BBG00CB9HCT5	PRNCTN 1.845 07/01/21
BBE	I	2016/03/11	2016/03/11	755293	4716753			BBG00CB9HZM1	PRNCTN 2.612 07/01/26
BBE	I	2016/03/11	2016/03/11	755294	4716756			BBG00CB9HZY8	PRNCTN 3.627 07/01/46
BBE	I	2016/03/11	2016/03/11	755296	4716653			BBG00C9T3952	UBS V0 02/15/19 0012
BBE	I	2016/03/11	2016/03/11	755297	4715812			BBG00C9T62H1	UBS V0 02/15/19 0029
BBE	I	2016/03/11	2016/03/11	755298	4715319			BBG00CC0FFG2	UBS 0 03/05/18 EN14
BBE	I	2016/03/11	2016/03/11	755299	4719345			BBG00CBVNNC3	B 0 03/02/17
BBE	I	2016/03/11	2016/03/11	755300	4715746			BBG00CBVNPX5	B 0 09/01/16
BBE	I	2016/03/11	2016/03/11	755301	4716769			BBG00C82P468	SIIP 0 02/15/46
BBE	I	2016/03/11	2016/03/11	755302	4717710			BBG00BTFTZF5	UNYPWR 20 06/15/17 144a
BBE	I	2016/03/11	2016/03/11	755303	4716775			BBG00CCSGMX6	WFC 7.5 03/13/17
BBE	I	2016/03/11	2016/03/11	755304	4717533			BBG00CCSK9Q8	WFC 0 04/06/18 0028
BBE	I	2016/03/11	2016/03/11	755305	4718337			BBG00CCSGDL9	WFC V2 03/08/19 0025
BBE	I	2016/03/11	2016/03/11	755306	4715238			BBG00C6LHYR8	WFC 2.625 02/29/36 CD
BBE	I	2016/03/11	2016/03/11	755307	4715286			BBG00C82MRF0	WFC 2 02/28/30 CD
BBE	I	2016/03/11	2016/03/11	755308	4718280			BBG00CDFZBB0	XEL 2.4 03/15/21
BBE	I	2016/03/11	2016/03/11	755309	4716787			BBG00CCP75M1	YKBNK 8.5 03/09/26 144A
BBE	I	2016/03/11	2016/03/11	755318	4719150			BBG00CBZSSJ1	CLF 8 09/30/20 REGS
BBE	I	2016/03/11	2016/03/11	755319	4716331			BBG009Z146P4	AES 4.7 09/01/45 REGS
BBE	I	2016/03/11	2016/03/11	755320	4717538			BBG00CCSGKR7	NSANY 2 03/08/19 REGS
BBE	I	2016/03/11	2016/03/11	755321	4717568			BBG00CCSGJM5	NSANY F 03/08/19 REGS
BBE	I	2016/03/11	2016/03/11	755322	4717544			BBG00CCSH2D1	NSANY 2.55 03/08/21 ReGs
BBE	I	2016/03/11	2016/03/11	755323	4716306			BBG006XSPFZ9	VRS 16 08/01/20 RegS
BBE	I	2016/03/11	2016/03/11	755324	4716170			BBG005HMZ789	NNA 8.125 11/15/21 REGS
EDI_ENDOFFILE
