EDI_SCAGY_20160311
TableName	Actflag	Created	Changed	ScagyID	SecID	ISIN	Relationship	AgncyID	GuaranteeType	SpStartDate	SpEndDate	Notes
SCAGY	I	2016/03/11	2016/03/11	1797926	4723234	US3133EFN377	UNW	3594				
SCAGY	I	2016/03/11	2016/03/11	1797927	4723234	US3133EFN377	BC	9164				
SCAGY	I	2016/03/11	2016/03/11	1797928	4723234	US3133EFN377	PA	3492				
SCAGY	I	2016/03/11	2016/03/11	1797932	4723959	US3133EFN450	UNW	3501				
SCAGY	I	2016/03/11	2016/03/11	1797933	4723959	US3133EFN450	BC	9164				
SCAGY	I	2016/03/11	2016/03/11	1797934	4723959	US3133EFN450	PA	3492				
SCAGY	I	2016/03/11	2016/03/11	1797936	4723236	US3133EFN526	UNW	3501				
SCAGY	I	2016/03/11	2016/03/11	1797937	4723236	US3133EFN526	BC	9164				
SCAGY	I	2016/03/11	2016/03/11	1797938	4723236	US3133EFN526	PA	3492				
SCAGY	I	2016/03/11	2016/03/11	1797941	4716736	US56501RAC07	BC	9482				
SCAGY	I	2016/03/11	2016/03/11	1797941	4716736	US56501RAC07	BC	9482				
SCAGY	I	2016/03/11	2016/03/11	1797943	4716755	US56501RAD89	BC	9482				
SCAGY	I	2016/03/11	2016/03/11	1797943	4716755	US56501RAD89	BC	9482				
SCAGY	I	2016/03/11	2016/03/11	1797959	4708157	US3130A7DJ14	UNW	7588				
SCAGY	I	2016/03/11	2016/03/11	1797966	4719925	US3130A7HJ77	UNW	7588				
SCAGY	I	2016/03/11	2016/03/11	1797971	4724046	US3130A7JR75	REG	3492				
SCAGY	I	2016/03/11	2016/03/11	1797972	4724046	US3130A7JR75	PA	3492				
SCAGY	I	2016/03/11	2016/03/11	1797976	4724048	US3130A7JS58	REG	3492				
SCAGY	I	2016/03/11	2016/03/11	1797977	4724048	US3130A7JS58	PA	3492				
SCAGY	I	2016/03/11	2016/03/11	1797979	4724051	US3130A7JT32	REG	3492				
SCAGY	I	2016/03/11	2016/03/11	1797980	4724051	US3130A7JT32	PA	3492				
SCAGY	I	2016/03/11	2016/03/11	1797981	4719944	US3130A7HN89	UNW	7588				
SCAGY	I	2016/03/11	2016/03/11	1797984	4724053	US3130A7JU05	REG	3492				
SCAGY	I	2016/03/11	2016/03/11	1797985	4724053	US3130A7JU05	PA	3492				
SCAGY	I	2016/03/11	2016/03/11	1797988	4724056	US3130A7JV87	REG	3492				
SCAGY	I	2016/03/11	2016/03/11	1797989	4724056	US3130A7JV87	PA	3492				
SCAGY	I	2016/03/11	2016/03/11	1797990	4722280	US3134G8QP76	UNW	7709				
SCAGY	I	2016/03/11	2016/03/11	1797991	4722280	US3134G8QP76	BC	9165				
SCAGY	I	2016/03/11	2016/03/11	1797992	4724058	US3130A7JW60	REG	3492				
SCAGY	I	2016/03/11	2016/03/11	1797993	4724058	US3130A7JW60	PA	3492				
SCAGY	I	2016/03/11	2016/03/11	1797994	4722280	US3134G8QP76	MGR	7709				
SCAGY	I	2016/03/11	2016/03/11	1797995	4724060	US3130A7JX44	REG	3492				
SCAGY	I	2016/03/11	2016/03/11	1797996	4724060	US3130A7JX44	PA	3492				
SCAGY	I	2016/03/11	2016/03/11	1797997	4724062	US3130A7JY27	REG	3492				
SCAGY	I	2016/03/11	2016/03/11	1797998	4724062	US3130A7JY27	PA	3492				
SCAGY	I	2016/03/11	2016/03/11	1798001	4724065	US3130A7JZ91	REG	3492				
SCAGY	I	2016/03/11	2016/03/11	1798002	4724065	US3130A7JZ91	PA	3492				
SCAGY	I	2016/03/11	2016/03/11	1798003	4724067	US3130A7K208	REG	3492				
SCAGY	I	2016/03/11	2016/03/11	1798004	4724067	US3130A7K208	PA	3492				
SCAGY	I	2016/03/11	2016/03/11	1798013	4722162	US3136G3FJ93	UNW	7586				
SCAGY	I	2016/03/11	2016/03/11	1798014	4722162	US3136G3FJ93	BC	9019				
SCAGY	I	2016/03/11	2016/03/11	1798039	4723253	US3134G8RG68	UNW	3489				
SCAGY	I	2016/03/11	2016/03/11	1798040	4723253	US3134G8RG68	MGR	3489				
SCAGY	I	2016/03/11	2016/03/11	1798041	4723253	US3134G8RG68	BC	9165				
SCAGY	I	2016/03/11	2016/03/11	1798049	4723250	US3134G8RA98	UNW	25643				
SCAGY	I	2016/03/11	2016/03/11	1798050	4723250	US3134G8RA98	MGR	25643				
SCAGY	I	2016/03/11	2016/03/11	1798051	4723250	US3134G8RA98	BC	9165				
SCAGY	I	2016/03/11	2016/03/11	1798052	4724090	US48248M2017	REG	21111				
SCAGY	I	2016/03/11	2016/03/11	1798053	4724090	US48248M2017	DEP	3960				
SCAGY	I	2016/03/11	2016/03/11	1798054	4724090	US48248M2017	MGR	13042				
SCAGY	I	2016/03/11	2016/03/11	1798055	4724090	US48248M2017	UNW	13042				
SCAGY	I	2016/03/11	2016/03/11	1798056	4724090	US48248M2017	BC	14103				LEGAL MATTERS <BR><BR>        Certain legal matters will be passed upon for us by Simpson Thacher & Bartlett LLP. Certain partners of Simpson Thacher & Bartlett LLP, members of their families and related persons have an interest representing less than 1% of our common units. Certain legal matters related to this offering will be passed upon for the underwriters by Davis Polk & Wardwell LLP, New York, New York.
SCAGY	I	2016/03/11	2016/03/11	1798071	4723240	US3134G8QZ58	UNW	7586				
SCAGY	I	2016/03/11	2016/03/11	1798072	4723240	US3134G8QZ58	MGR	7586				
SCAGY	I	2016/03/11	2016/03/11	1798073	4723240	US3134G8QZ58	BC	9165				
SCAGY	I	2016/03/11	2016/03/11	1798083	4723952	US85254J4094	REG	5591				
SCAGY	I	2016/03/11	2016/03/11	1798083	4723952	US85254J4094	REG	5591				
SCAGY	I	2016/03/11	2016/03/11	1798084	4723952	US85254J4094	MGR	13042				
SCAGY	I	2016/03/11	2016/03/11	1798084	4723952	US85254J4094	MGR	13042				
SCAGY	I	2016/03/11	2016/03/11	1798085	4723952	US85254J4094	BC	21112				LEGAL MATTERS <BR><BR>        Certain legal matters will be passed upon for us by DLA Piper LLP (US), and for the underwriters by Goodwin Procter LLP. Certain U.S. federal income tax matters have been passed upon for us by Hunton & Williams LLP.<BR>
SCAGY	I	2016/03/11	2016/03/11	1798085	4723952	US85254J4094	BC	21112				LEGAL MATTERS <BR><BR>        Certain legal matters will be passed upon for us by DLA Piper LLP (US), and for the underwriters by Goodwin Procter LLP. Certain U.S. federal income tax matters have been passed upon for us by Hunton & Williams LLP.<BR>
SCAGY	I	2016/03/11	2016/03/11	1798088	4721050	US94986RF554	UNW	3632				
SCAGY	I	2016/03/11	2016/03/11	1798098	4724080	US3134G8R920	UNW	3832				
SCAGY	I	2016/03/11	2016/03/11	1798099	4724080	US3134G8R920	BC	9165				
SCAGY	I	2016/03/11	2016/03/11	1798104	4724091	US3134G8RF85	UNW	7588				
SCAGY	I	2016/03/11	2016/03/11	1798105	4724091	US3134G8RF85	BC	9165				
SCAGY	I	2016/03/11	2016/03/11	1798109	4699081	US3136G2XV47	BC	9019				
SCAGY	I	2016/03/11	2016/03/11	1798110	4699081	US3136G2XV47	UNW	5372				
SCAGY	I	2016/03/11	2016/03/11	1798116	4721058	US94986RG966	CAL	3632				
SCAGY	I	2016/03/11	2016/03/11	1798117	4721058	US94986RG966	UNW	3632				
SCAGY	I	2016/03/11	2016/03/11	1798123	4694630	US3136G2X283	UNW	10428				
SCAGY	I	2016/03/11	2016/03/11	1798124	4694630	US3136G2X283	BC	9019				
SCAGY	I	2016/03/11	2016/03/11	1798133	4723257	US3134G8RH42	UNW	19540				
SCAGY	I	2016/03/11	2016/03/11	1798134	4723257	US3134G8RH42	BC	9165				
SCAGY	I	2016/03/11	2016/03/11	1798135	4722245	US38148TM487	CAL	7534				
SCAGY	I	2016/03/11	2016/03/11	1798136	4722245	US38148TM487	UNW	7534				
SCAGY	I	2016/03/11	2016/03/11	1798137	4722245	US38148TM487	UNW	5372				
SCAGY	I	2016/03/11	2016/03/11	1798138	4722245	US38148TM487	BC	11807				
SCAGY	I	2016/03/11	2016/03/11	1798139	4722245	US38148TM487	TST	3623				
SCAGY	I	2016/03/11	2016/03/11	1798143	4723259	US63253XAJ81	MGR	30501				
SCAGY	I	2016/03/11	2016/03/11	1798145	4724174		CAL	3483				
SCAGY	I	2016/03/11	2016/03/11	1798146	4724174		UNW	3483				
SCAGY	I	2016/03/11	2016/03/11	1798147	4724174		GUR	5602	GTD			
SCAGY	I	2016/03/11	2016/03/11	1798148	4724174		BC	11807				
SCAGY	I	2016/03/11	2016/03/11	1798151	4699186	US3135G0H976	UNW	8318				
SCAGY	I	2016/03/11	2016/03/11	1798152	4699186	US3135G0H976	BC	9019				
SCAGY	I	2016/03/11	2016/03/11	1798154	4724174		TST	3623				
SCAGY	I	2016/03/11	2016/03/11	1798170	4724184	US829259AU46	DEP	27820				
SCAGY	I	2016/03/11	2016/03/11	1798171	4722175	US40054K4B93	BC	11807				
SCAGY	I	2016/03/11	2016/03/11	1798172	4722175	US40054K4B93	GUR	5602	GTD			
SCAGY	I	2016/03/11	2016/03/11	1798173	4722175	US40054K4B93	TST	3623				
SCAGY	I	2016/03/11	2016/03/11	1798174	4722175	US40054K4B93	UNW	3483				
SCAGY	I	2016/03/11	2016/03/11	1798175	4722175	US40054K4B93	CAL	3483				
SCAGY	I	2016/03/11	2016/03/11	1798194	4724197	US574599BK14	MGR	3501				
SCAGY	I	2016/03/11	2016/03/11	1798199	4699904	US3136G2XW20	UNW	3594				
SCAGY	I	2016/03/11	2016/03/11	1798200	4699904	US3136G2XW20	BC	9019				
SCAGY	I	2016/03/11	2016/03/11	1798210	4724204	US574599BL96	MGR	3501				
SCAGY	I	2016/03/11	2016/03/11	1798215	4724214	US45905UVJ05	MGR	31085				
SCAGY	I	2016/03/11	2016/03/11	1798230	4717530	US3132X0FN60	CAL	4719				
SCAGY	I	2016/03/11	2016/03/11	1798231	4717530	US3132X0FN60	GUR	20228	BPA			
SCAGY	I	2016/03/11	2016/03/11	1798232	4717530	US3132X0FN60	UNW	20228				
SCAGY	I	2016/03/11	2016/03/11	1798233	4717530	US3132X0FN60	PA	4712				
SCAGY	I	2016/03/11	2016/03/11	1798241	4722183	US084664CE94	GUR	3483	BPA			
SCAGY	I	2016/03/11	2016/03/11	1798241	4722183	US084664CE94	GUR	3483	BPA			
SCAGY	I	2016/03/11	2016/03/11	1798242	4722183	US084664CE94	UNW	3483				
SCAGY	I	2016/03/11	2016/03/11	1798242	4722183	US084664CE94	UNW	3483				
SCAGY	I	2016/03/11	2016/03/11	1798243	4722183	US084664CE94	BC	9757				
SCAGY	I	2016/03/11	2016/03/11	1798243	4722183	US084664CE94	BC	9757				
SCAGY	I	2016/03/11	2016/03/11	1798244	4722183	US084664CE94	TST	4240				
SCAGY	I	2016/03/11	2016/03/11	1798244	4722183	US084664CE94	TST	4240				
SCAGY	I	2016/03/11	2016/03/11	1798245	4722183	US084664CE94	CUST	4240				
SCAGY	I	2016/03/11	2016/03/11	1798245	4722183	US084664CE94	CUST	4240				
SCAGY	I	2016/03/11	2016/03/11	1798246	4722183	US084664CE94	CAL	4240				
SCAGY	I	2016/03/11	2016/03/11	1798246	4722183	US084664CE94	CAL	4240				
SCAGY	I	2016/03/11	2016/03/11	1798247	4722183	US084664CE94	DEP	5158				
SCAGY	I	2016/03/11	2016/03/11	1798247	4722183	US084664CE94	DEP	5158				
SCAGY	I	2016/03/11	2016/03/11	1798249	4717521	US3132X0FL05	UNW	7648				
SCAGY	I	2016/03/11	2016/03/11	1798250	4717521	US3132X0FL05	GUR	7648	BPA			
SCAGY	I	2016/03/11	2016/03/11	1798252	4717521	US3132X0FL05	PA	4712				
SCAGY	I	2016/03/11	2016/03/11	1798262	4722181	US084670BQ02	DEP	5158				
SCAGY	I	2016/03/11	2016/03/11	1798262	4722181	US084670BQ02	DEP	5158				
SCAGY	I	2016/03/11	2016/03/11	1798263	4722181	US084670BQ02	TST	4240				
SCAGY	I	2016/03/11	2016/03/11	1798263	4722181	US084670BQ02	TST	4240				
SCAGY	I	2016/03/11	2016/03/11	1798265	4723038	US084664CG43	BC	9757				
SCAGY	I	2016/03/11	2016/03/11	1798265	4723038	US084664CG43	BC	9757				
SCAGY	I	2016/03/11	2016/03/11	1798266	4723038	US084664CG43	CAL	4240				
SCAGY	I	2016/03/11	2016/03/11	1798266	4723038	US084664CG43	CAL	4240				
SCAGY	I	2016/03/11	2016/03/11	1798267	4723038	US084664CG43	CUST	4240				
SCAGY	I	2016/03/11	2016/03/11	1798267	4723038	US084664CG43	CUST	4240				
SCAGY	I	2016/03/11	2016/03/11	1798268	4723038	US084664CG43	TST	4240				
SCAGY	I	2016/03/11	2016/03/11	1798268	4723038	US084664CG43	TST	4240				
SCAGY	I	2016/03/11	2016/03/11	1798269	4723038	US084664CG43	DEP	5158				
SCAGY	I	2016/03/11	2016/03/11	1798269	4723038	US084664CG43	DEP	5158				
SCAGY	I	2016/03/11	2016/03/11	1798270	4723038	US084664CG43	GUR	3483	BPA			
SCAGY	I	2016/03/11	2016/03/11	1798270	4723038	US084664CG43	GUR	3483	BPA			
SCAGY	I	2016/03/11	2016/03/11	1798271	4723038	US084664CG43	UNW	3483				
SCAGY	I	2016/03/11	2016/03/11	1798271	4723038	US084664CG43	UNW	3483				
SCAGY	I	2016/03/11	2016/03/11	1798272	4717528	US3132X0FJ58	PA	4712				
SCAGY	I	2016/03/11	2016/03/11	1798273	4717528	US3132X0FJ58	UNW	3632				
SCAGY	I	2016/03/11	2016/03/11	1798274	4717528	US3132X0FJ58	GUR	3632	BPA			
SCAGY	I	2016/03/11	2016/03/11	1798280	4717516	US3132X0FM87	GUR	5372	BPA			
SCAGY	I	2016/03/11	2016/03/11	1798281	4717516	US3132X0FM87	UNW	5372				
SCAGY	I	2016/03/11	2016/03/11	1798282	4717516	US3132X0FM87	PA	4712				
SCAGY	I	2016/03/11	2016/03/11	1798285	4722181	US084670BQ02	BC	17764				
SCAGY	I	2016/03/11	2016/03/11	1798285	4722181	US084670BQ02	BC	17764				
SCAGY	I	2016/03/11	2016/03/11	1798292	4717525	US3132X0FH92	GUR	29116	BPA			
SCAGY	I	2016/03/11	2016/03/11	1798293	4717525	US3132X0FH92	UNW	29116				
SCAGY	I	2016/03/11	2016/03/11	1798294	4717525	US3132X0FH92	PA	4712				
SCAGY	I	2016/03/11	2016/03/11	1798295	4722223	US084664CF69	BC	9757				
SCAGY	I	2016/03/11	2016/03/11	1798296	4722223	US084664CF69	CAL	4240				
SCAGY	I	2016/03/11	2016/03/11	1798297	4722223	US084664CF69	CUST	4240				
SCAGY	I	2016/03/11	2016/03/11	1798298	4722223	US084664CF69	TST	4240				
SCAGY	I	2016/03/11	2016/03/11	1798299	4722223	US084664CF69	UNW	3483				
SCAGY	I	2016/03/11	2016/03/11	1798300	4722223	US084664CF69	GUR	3483	BPA			
SCAGY	I	2016/03/11	2016/03/11	1798301	4722223	US084664CF69	DEP	5158				
SCAGY	I	2016/03/11	2016/03/11	1798306	4717518	US3132X0FK22	GUR	32626	BPA			
SCAGY	I	2016/03/11	2016/03/11	1798307	4717518	US3132X0FK22	UNW	32626				
SCAGY	I	2016/03/11	2016/03/11	1798308	4717518	US3132X0FK22	PA	4712				
SCAGY	I	2016/03/11	2016/03/11	1798309	4722194	US084670BR84	BC	17764				
SCAGY	I	2016/03/11	2016/03/11	1798309	4722194	US084670BR84	BC	17764				
SCAGY	I	2016/03/11	2016/03/11	1798310	4722194	US084670BR84	DEP	5158				
SCAGY	I	2016/03/11	2016/03/11	1798310	4722194	US084670BR84	DEP	5158				
SCAGY	I	2016/03/11	2016/03/11	1798311	4722194	US084670BR84	TST	4240				
SCAGY	I	2016/03/11	2016/03/11	1798311	4722194	US084670BR84	TST	4240				
SCAGY	I	2016/03/11	2016/03/11	1798312	4722194	US084670BR84	UNW	3483				
SCAGY	I	2016/03/11	2016/03/11	1798312	4722194	US084670BR84	UNW	3483				
SCAGY	I	2016/03/11	2016/03/11	1798314	4722181	US084670BQ02	UNW	3483				
SCAGY	I	2016/03/11	2016/03/11	1798314	4722181	US084670BQ02	UNW	3483				
SCAGY	I	2016/03/11	2016/03/11	1798315	4724262	US3132X0FF37	CAL	4719				
SCAGY	I	2016/03/11	2016/03/11	1798316	4724262	US3132X0FF37	PA	4712				
SCAGY	I	2016/03/11	2016/03/11	1798317	4724262	US3132X0FF37	GUR	4119	BPA			
SCAGY	I	2016/03/11	2016/03/11	1798318	4724262	US3132X0FF37	UNW	4119				
SCAGY	I	2016/03/11	2016/03/11	1798325	4722229	US084664CH26	BC	9757				
SCAGY	I	2016/03/11	2016/03/11	1798326	4722229	US084664CH26	TST	4240				
SCAGY	I	2016/03/11	2016/03/11	1798327	4722229	US084664CH26	CUST	4240				
SCAGY	I	2016/03/11	2016/03/11	1798328	4722229	US084664CH26	CAL	4240				
SCAGY	I	2016/03/11	2016/03/11	1798329	4722229	US084664CH26	DEP	5158				
SCAGY	I	2016/03/11	2016/03/11	1798330	4722229	US084664CH26	GUR	3483	BPA			
SCAGY	I	2016/03/11	2016/03/11	1798331	4722229	US084664CH26	UNW	3483				
SCAGY	I	2016/03/11	2016/03/11	1798335	4724270	US78013C8230	UNW	10428				
SCAGY	I	2016/03/11	2016/03/11	1798336	4724270	US78013C8230	CAL	10428				
SCAGY	I	2016/03/11	2016/03/11	1798337	4724270	US78013C8230	TST	3623				
SCAGY	I	2016/03/11	2016/03/11	1798344	4724274	US06744K7569	DEP	5158				
SCAGY	I	2016/03/11	2016/03/11	1798347	4724283	US06741U5Y64	DEP	5158				
SCAGY	I	2016/03/11	2016/03/11	1798354	4724294	US06741U5V26	DEP	5158				
SCAGY	I	2016/03/11	2016/03/11	1798360	4722188	US084670BS67	BC	17764				
SCAGY	I	2016/03/11	2016/03/11	1798360	4722188	US084670BS67	BC	17764				
SCAGY	I	2016/03/11	2016/03/11	1798361	4722188	US084670BS67	DEP	5158				
SCAGY	I	2016/03/11	2016/03/11	1798361	4722188	US084670BS67	DEP	5158				
SCAGY	I	2016/03/11	2016/03/11	1798362	4722188	US084670BS67	UNW	3483				
SCAGY	I	2016/03/11	2016/03/11	1798362	4722188	US084670BS67	UNW	3483				
SCAGY	I	2016/03/11	2016/03/11	1798363	4722188	US084670BS67	TST	4240				
SCAGY	I	2016/03/11	2016/03/11	1798363	4722188	US084670BS67	TST	4240				
SCAGY	I	2016/03/11	2016/03/11	1798384	4716690	US3132X0FG10	UNW	29116				
SCAGY	I	2016/03/11	2016/03/11	1798385	4716690	US3132X0FG10	PA	4712				
SCAGY	I	2016/03/11	2016/03/11	1798386	4716690	US3132X0FG10	GUR	29116	BPA			
SCAGY	I	2016/03/11	2016/03/11	1798388	4724347	US90275L8625	DEP	5158				
SCAGY	I	2016/03/11	2016/03/11	1798393	4723191	US571748BA95	TST	3623				
SCAGY	I	2016/03/11	2016/03/11	1798394	4723191	US571748BA95	UNW	3501				
SCAGY	I	2016/03/11	2016/03/11	1798395	4723191	US571748BA95	BC	9535				
SCAGY	I	2016/03/11	2016/03/11	1798396	4715225	US3132X0FD88	GUR	7693	BPA			
SCAGY	I	2016/03/11	2016/03/11	1798397	4715225	US3132X0FD88	UNW	7693				
SCAGY	I	2016/03/11	2016/03/11	1798398	4715225	US3132X0FD88	PA	4712				
SCAGY	I	2016/03/11	2016/03/11	1798399	4724351	US150191AE48	TST	7593				
SCAGY	I	2016/03/11	2016/03/11	1798400	4724351	US150191AE48	DEP	5158				
SCAGY	I	2016/03/11	2016/03/11	1798414	4718352	US22546VYP56	DEP	5158				
SCAGY	I	2016/03/11	2016/03/11	1798415	4718352	US22546VYP56	UNW	3719				
SCAGY	I	2016/03/11	2016/03/11	1798417	4724351	US150191AE48	REG	7593				
SCAGY	I	2016/03/11	2016/03/11	1798418	4724351	US150191AE48	PA	7593				
SCAGY	U	2016/02/27	2016/03/11	1789058	4714551	US3130A7FS94	PA	3492				
SCAGY	I	2016/03/11	2016/03/11	1798424	4724352	US06741U5U43	DEP	27820				
SCAGY	I	2016/03/11	2016/03/11	1798425	4724305	US06744K8633	DEP	27820				
SCAGY	I	2016/03/11	2016/03/11	1798462	4724398		BC	12142				
SCAGY	I	2016/03/11	2016/03/11	1798470	4724351	US150191AE48	UNW	3489				
SCAGY	I	2016/03/11	2016/03/11	1798471	4724351	US150191AE48	GUR	3489	BPA			
SCAGY	I	2016/03/11	2016/03/11	1798472	4724351	US150191AE48	MGR	8318				
SCAGY	I	2016/03/11	2016/03/11	1798519	4720214	XS1378780891	DEP	3556				
SCAGY	I	2016/03/11	2016/03/11	1798587	4704248	USU7264MAC83	TST	31170				
SCAGY	I	2016/03/11	2016/03/11	1798588	4704248	USU7264MAC83	REG	31170				
SCAGY	I	2016/03/11	2016/03/11	1798589	4704248	USU7264MAC83	PA	31170				
SCAGY	I	2016/03/11	2016/03/11	1798590	4704248	USU7264MAC83	CUST	31170				
SCAGY	I	2016/03/11	2016/03/11	1798591	4704248	USU7264MAC83	GUR	3133	BPA			
SCAGY	I	2016/03/11	2016/03/11	1798592	4704248	USU7264MAC83	UNW	3133				
SCAGY	I	2016/03/11	2016/03/11	1798593	4704248	USU7264MAC83	GUR	32727	GTD			
SCAGY	I	2016/03/11	2016/03/11	1798594	4704248	USU7264MAC83	GUR	32728	GTD			
SCAGY	I	2016/03/11	2016/03/11	1798595	4704248	USU7264MAC83	GUR	32729	GTD			
SCAGY	I	2016/03/11	2016/03/11	1799039	4725156	US38373UAC62	TST	10075				
SCAGY	I	2016/03/11	2016/03/11	1799040	4725156	US38373UAC62	REG	10075				
SCAGY	I	2016/03/11	2016/03/11	1799041	4725156	US38373UAC62	PA	10075				
SCAGY	I	2016/03/11	2016/03/11	1799042	4725156	US38373UAC62	BC	9994				As to United States law
EDI_ENDOFFILE
