EDI_SXTCH_20160311
TableName	Actflag	Created	Changed	ISIN	SecID	ScxtcID	EffectiveDate	OldCurenCD	NewCurenCD	OldLocalCode	NewLocalCode	OldPriceTick	NewPriceTick	OldTickSize	NewTickSize	OldISIN	NewISIN	SxtChID
EDI_ENDOFFILE
