EDI_ISSUR_20160311
TableName	Actflag	Created	Changed	IssID	SIC	CIK	GICS	IssuerName	IndusID	CntryofIncorp	FinancialYearEnd	Shortname	LegalName	isstype	CntryofDom	StateofDom	LEI	NAICS	Notes
ISSUR	I	2016/03/11	2016/03/11	180901				Lincoln Finance Limited		US			F	CORP					
ISSUR	I	2016/03/11	2016/03/11	180903				Fifth third bk cincinnati ohio		US			F	CORP					
ISSUR	U	2001/03/07	2016/03/11	10845			15104030	DRDGold Ltd.	102	ZA	3006	Durban Roode Deep	F	CORP					
ISSUR	U	2006/12/22	2016/03/11	105425			10102020	Det Norske Oljeselskap ASA.	110	NO	3112		F	CORP					
EDI_ENDOFFILE
