EDI_PRCHG_20160218
TableName	Actflag	Created	Changed	PrchgID	SecID	EffectiveDate	EventType	OldExchgCD	NewExchgCD	Notes
PRCHG	I	2016/01/16	2016/01/18	122928	4177280	2013/08/01	CORR	USBND		
PRCHG	I	2016/01/16	2016/01/18	122931	4177280	2013/08/02	CORR		USTRCE	
PRCHG	I	2016/01/16	2016/01/18	122937	3990566	2013/02/27	CORR	USBND	USTRCE	
PRCHG	I	2016/01/16	2016/01/18	122937	3990566	2013/02/27	CORR	USBND	USTRCE	
PRCHG	I	2016/01/16	2016/01/18	122952	4576540	2005/02/24	CORR	USBND		
PRCHG	I	2016/01/16	2016/01/18	122954	4576540	2005/02/25	CORR		USTRCE	
PRCHG	I	2016/01/16	2016/01/18	122960	4095073	2013/02/11	CORR	USBND		
PRCHG	I	2016/01/16	2016/01/18	122961	4095073	2013/02/12	CORR		USTRCE	
PRCHG	I	2016/01/16	2016/01/18	122977	4192215	2007/07/13	CORR	USBND		
PRCHG	I	2016/01/16	2016/01/18	122978	4192215	2007/08/14	CORR		USTRCE	
PRCHG	I	2016/01/16	2016/01/18	122981	4192226	2007/07/13	CORR	USBND		
PRCHG	I	2016/01/16	2016/01/18	122982	4192226	2007/08/14	CORR		USTRCE	
PRCHG	I	2016/01/16	2016/01/18	122984	4192550	2007/07/27	CORR	USBND		
PRCHG	I	2016/01/16	2016/01/18	122986	4192550	2007/07/28	CORR		USTRCE	
PRCHG	I	2016/01/16	2016/01/18	122993	4682037	2016/01/13	CORR	USBND		
PRCHG	I	2016/01/16	2016/01/18	122994	4345123	2007/09/25	CORR	USBND		
PRCHG	I	2016/01/16	2016/01/18	122995	4345123	2007/09/26	CORR		USTRCE	
PRCHG	I	2016/01/16	2016/01/18	122996	4682037	2016/01/14	CORR		USNYSE	
PRCHG	I	2016/01/16	2016/01/18	123000	827310	2006/10/31	CORR	USBND		
PRCHG	I	2016/01/16	2016/01/18	123001	827310	2006/11/01	CORR		USTRCE	
PRCHG	I	2016/01/16	2016/01/18	123002	1243048	2007/01/19	CORR	USBND		
PRCHG	I	2016/01/16	2016/01/18	123003	1243048	2007/01/20	CORR		USTRCE	
PRCHG	I	2016/01/16	2016/01/18	123022	2518286	2016/01/15	CORR	IEISE	USBND	
PRCHG	I	2016/01/16	2016/01/18	123023	1401934	2016/01/15	CORR	IEISE	USOTC	
PRCHG	I	2016/01/16	2016/01/18	123024	842679	2016/01/15	CORR	IEISE	USBND	
PRCHG	I	2016/01/18	2016/01/18	123027	4684424	2016/01/16	CORR	USBND		
PRCHG	I	2016/01/18	2016/01/18	123028	4684424	2016/01/17	CORR		USTRCE	
PRCHG	I	2016/01/18	2016/01/18	123029	4686435	2016/01/16	CORR		USTRCE	
PRCHG	I	2016/01/18	2016/01/18	123030	4686443	2016/01/16	CORR		USTRCE	
PRCHG	I	2016/01/18	2016/01/18	123031	4686420	2016/01/16	CORR		USTRCE	
PRCHG	I	2016/01/18	2016/01/18	123032	4686427	2016/01/15	CORR		USTRCE	
PRCHG	I	2016/01/18	2016/01/18	123033	4686414	2016/01/15	CORR		USTRCE	
PRCHG	I	2016/01/18	2016/01/18	123034	4686439	2016/01/15	CORR		USTRCE	
PRCHG	I	2016/01/18	2016/01/18	123035	1118949	2005/10/28	CORR	USBND		
PRCHG	I	2016/01/18	2016/01/18	123035	1118949	2005/10/28	CORR	USBND		
PRCHG	I	2016/01/18	2016/01/18	123036	1118949	2005/10/29	CORR		USTRCE	
PRCHG	I	2016/01/18	2016/01/18	123036	1118949	2005/10/29	CORR		USTRCE	
PRCHG	I	2016/01/18	2016/01/18	123041	4389149	2014/03/06	CORR	USBND		
PRCHG	I	2016/01/18	2016/01/18	123042	4389149	2014/03/07	CORR		USTRCE	
PRCHG	I	2016/01/18	2016/01/18	123043	4684444	2016/01/15	CORR	USBND		
PRCHG	I	2016/01/18	2016/01/18	123044	4684444	2016/01/16	CORR		USTRCE	
PRCHG	I	2016/01/18	2016/01/18	123045	4683272	2016/01/15	CORR	USBND		
PRCHG	I	2016/01/18	2016/01/18	123046	4683272	2016/01/16	CORR		USTRCE	
PRCHG	I	2016/01/18	2016/01/18	123047	4168138	2013/12/30	CORR	USBND		
PRCHG	I	2016/01/18	2016/01/18	123048	4168138	2013/12/31	CORR		USTRCE	
PRCHG	I	2016/01/18	2016/01/18	123049	4266509	2014/05/14	CORR	USBND		
PRCHG	I	2016/01/18	2016/01/18	123050	4266509	2014/05/15	CORR		USTRCE	
PRCHG	I	2016/01/18	2016/01/18	123051	4267011	2014/04/15	CORR	USBND		
PRCHG	I	2016/01/18	2016/01/18	123052	4267011	2014/04/16	CORR		USTRCE	
PRCHG	I	2016/01/18	2016/01/18	123055	4684648	2016/01/15	CORR	USTRCE	USNYSE	
PRCHG	I	2016/01/18	2016/01/18	123055	4684648	2016/01/15	CORR	USTRCE	USNYSE	
PRCHG	I	2016/01/18	2016/01/18	123056	4684657	2016/01/15	CORR	USTRCE	USNYSE	
PRCHG	I	2016/01/18	2016/01/18	123056	4684657	2016/01/15	CORR	USTRCE	USNYSE	
PRCHG	I	2016/01/18	2016/01/18	123057	4684674	2016/01/15	CORR	USTRCE	USNYSE	
PRCHG	I	2016/01/18	2016/01/18	123057	4684674	2016/01/15	CORR	USTRCE	USNYSE	
PRCHG	I	2016/01/18	2016/01/18	123058	4680939	2016/01/15	CORR	USTRCE	USNYSE	
PRCHG	I	2016/01/18	2016/01/18	123058	4680939	2016/01/15	CORR	USTRCE	USNYSE	
PRCHG	I	2016/01/18	2016/01/18	123060	4683646	2016/01/15	CORR	USTRCE	USNYSE	
PRCHG	I	2016/01/18	2016/01/18	123060	4683646	2016/01/15	CORR	USTRCE	USNYSE	
PRCHG	I	2016/01/18	2016/01/18	123061	4683643	2016/01/15	CORR	USTRCE	USNYSE	
PRCHG	I	2016/01/18	2016/01/18	123061	4683643	2016/01/15	CORR	USTRCE	USNYSE	
PRCHG	I	2016/01/18	2016/01/18	123062	4039945	2013/05/18	CORR	USBND		
PRCHG	I	2016/01/18	2016/01/18	123063	4039945	2013/05/25	CORR		USTRCE	
PRCHG	I	2016/01/18	2016/01/18	123068	1371083	2009/02/14	CORR	USBND		
PRCHG	I	2016/01/18	2016/01/18	123069	1371083	2009/02/15	CORR		USTRCE	
PRCHG	I	2016/01/18	2016/01/18	123070	4549767	2010/05/06	CORR	USBND		
PRCHG	I	2016/01/18	2016/01/18	123071	4549767	2010/05/07	CORR		USTRCE	
PRCHG	I	2016/01/18	2016/01/18	123079	4380656	2015/05/13	CORR	USBND	DEBSE	
PRCHG	I	2016/01/19	2016/01/19	123129	98594	2012/08/29	CORR	USBND		
PRCHG	I	2016/01/19	2016/01/19	123130	98594	2012/08/30	CORR		USTRCE	
PRCHG	I	2016/01/19	2016/01/19	123133	4174628	2012/10/05	CORR	USBND		
PRCHG	I	2016/01/19	2016/01/19	123134	4174628	2012/10/06	CORR		USTRCE	
PRCHG	I	2016/01/19	2016/01/19	123136	4257016	1997/01/31	CORR	USBND		
PRCHG	I	2016/01/19	2016/01/19	123137	4257016	1997/02/01	CORR		USTRCE	
PRCHG	I	2016/01/19	2016/01/19	123146	4687464	2015/12/23	CORR		USTRCE	
PRCHG	I	2016/01/19	2016/01/19	123162	4028685	2013/05/02	CORR	USBND		
PRCHG	I	2016/01/19	2016/01/19	123163	4028685	2013/05/03	CORR		USTRCE	
PRCHG	I	2016/01/19	2016/01/19	123195	4684687	2016/01/15	CORR	USBND	DEBSE	
PRCHG	I	2016/01/20	2016/01/20	123248	4681984	2016/01/19	CORR	USBND		
PRCHG	I	2016/01/20	2016/01/20	123249	4681984	2016/01/20	CORR		USTRCE	
PRCHG	I	2016/01/20	2016/01/20	123254	4683273	2016/01/19	CORR	USBND		
PRCHG	I	2016/01/20	2016/01/20	123255	4683273	2016/01/20	CORR		USTRCE	
PRCHG	I	2016/01/20	2016/01/20	123258	4683278	2016/01/19	CORR	USBND		
PRCHG	I	2016/01/20	2016/01/20	123259	4683278	2016/01/20	CORR		USTRCE	
PRCHG	I	2016/01/20	2016/01/20	123262	4686584	2016/01/19	CORR	USBND		
PRCHG	I	2016/01/20	2016/01/20	123263	4686584	2016/01/20	CORR		USTRCE	
PRCHG	I	2016/01/20	2016/01/20	123264	4685412	2016/01/20	CORR		USTRCE	
PRCHG	I	2016/01/20	2016/01/20	123393	1329401	2007/10/17	CORR		USBND	
PRCHG	I	2016/01/20	2016/01/20	123399	4028685	2013/05/04	CORR	USTRCE		
PRCHG	I	2016/01/20	2016/01/20	123400	4028685	2013/05/05	CORR		USTRCE	
PRCHG	I	2016/01/21	2016/01/21	123404	4686601	2016/01/18	CORR	USBND		
PRCHG	I	2016/01/21	2016/01/21	123407	4684453	2016/01/19	CORR	USBND		
PRCHG	I	2016/01/21	2016/01/21	123408	4684453	2016/01/20	CORR		USTRCE	
PRCHG	I	2016/01/21	2016/01/21	123411	4147588	2013/11/26	CORR	USBND		
PRCHG	I	2016/01/21	2016/01/21	123413	4147588	2013/11/27	CORR		USTRCE	
PRCHG	I	2016/01/21	2016/01/21	123416	4687080	2016/01/20	CORR	USBND		
PRCHG	I	2016/01/21	2016/01/21	123417	4687080	2016/01/21	CORR		USTRCE	
PRCHG	I	2016/01/21	2016/01/21	123432	4688704	2016/01/20	CORR	USNYSE	USOTC	
PRCHG	I	2016/01/21	2016/01/21	123432	4688704	2016/01/20	CORR	USNYSE	USOTC	
PRCHG	I	2016/01/21	2016/01/21	123441	4688631	2016/01/20	CORR	USBND		
PRCHG	I	2016/01/21	2016/01/21	123444	4481163	2016/01/20	CORR	USBND		
PRCHG	I	2016/01/21	2016/01/21	123444	4481163	2016/01/20	CORR	USBND		
PRCHG	I	2016/01/21	2016/01/21	123445	4481163	2016/01/21	CORR		USTRCE	
PRCHG	I	2016/01/21	2016/01/21	123445	4481163	2016/01/21	CORR		USTRCE	
PRCHG	I	2016/01/21	2016/01/21	123448	4523934	2016/01/20	CORR	USBND		
PRCHG	I	2016/01/21	2016/01/21	123449	4523934	2016/01/21	CORR		USTRCE	
PRCHG	I	2016/01/21	2016/01/21	123450	4546569	2016/01/19	CORR	USBND		
PRCHG	I	2016/01/21	2016/01/21	123450	4546569	2016/01/19	CORR	USBND		
PRCHG	I	2016/01/21	2016/01/21	123451	4622502	2016/01/20	CORR	USBND		
PRCHG	I	2016/01/21	2016/01/21	123452	4546569	2016/01/20	CORR		USTRCE	
PRCHG	I	2016/01/21	2016/01/21	123452	4546569	2016/01/20	CORR		USTRCE	
PRCHG	I	2016/01/21	2016/01/21	123453	4622502	2016/01/21	CORR		USTRCE	
PRCHG	I	2016/01/21	2016/01/21	123454	3599592	2012/03/06	CORR	USBND		
PRCHG	I	2016/01/21	2016/01/21	123456	3599592	2012/03/07	CORR		USTRCE	
PRCHG	I	2016/01/21	2016/01/21	123458	2223471	2010/11/18	CORR	USBND		
PRCHG	I	2016/01/21	2016/01/21	123459	2223471	2010/11/19	CORR		USTRCE	
PRCHG	I	2016/01/21	2016/01/21	123466	4512599	2015/05/20	CORR	USBND		
PRCHG	I	2016/01/21	2016/01/21	123467	4512599	2015/05/21	CORR		USTRCE	
PRCHG	I	2016/01/21	2016/01/21	123471	4666893	2016/01/19	CORR	USTRCE	USNYSE	
PRCHG	I	2016/01/21	2016/01/21	123471	4666893	2016/01/19	CORR	USTRCE	USNYSE	
PRCHG	I	2016/01/21	2016/01/21	123472	4666898	2016/01/19	CORR	USTRCE	USNYSE	
PRCHG	I	2016/01/21	2016/01/21	123472	4666898	2016/01/19	CORR	USTRCE	USNYSE	
PRCHG	I	2016/01/21	2016/01/21	123474	4666828	2016/01/19	CORR	USTRCE	USNYSE	
PRCHG	I	2016/01/21	2016/01/21	123474	4666828	2016/01/19	CORR	USTRCE	USNYSE	
PRCHG	I	2016/01/21	2016/01/21	123475	4686601	2016/01/19	CORR		USNYSE	
PRCHG	I	2016/01/21	2016/01/21	123476	4514754	2016/01/19	CORR	USTRCE	USNYSE	
PRCHG	I	2016/01/21	2016/01/21	123476	4514754	2016/01/19	CORR	USTRCE	USNYSE	
PRCHG	I	2016/01/21	2016/01/21	123478	4683673	2016/01/21	PRCHG	USOTC	USNYSE	
PRCHG	I	2016/01/21	2016/01/21	123478	4683673	2016/01/21	PRCHG	USOTC	USNYSE	
PRCHG	I	2016/01/22	2016/01/22	123530	4689605	2015/12/31	CORR		USTRCE	
PRCHG	I	2016/01/22	2016/01/22	123541	4688647	2016/01/21	CORR	USBND		
PRCHG	I	2016/01/22	2016/01/22	123542	4688647	2016/01/22	CORR		USTRCE	
PRCHG	I	2016/01/22	2016/01/22	123550	4688627	2016/01/21	CORR	USBND		
PRCHG	I	2016/01/22	2016/01/22	123552	4688627	2016/01/22	CORR		USTRCE	
PRCHG	I	2016/01/22	2016/01/22	123555	3880295	2016/01/19	CORR	USNYSE	DEBSE	
PRCHG	I	2016/01/22	2016/01/22	123555	3880295	2016/01/19	CORR	USNYSE	DEBSE	
PRCHG	I	2016/01/22	2016/01/22	123555	3880295	2016/01/19	CORR	USNYSE	DEBSE	
PRCHG	I	2016/01/22	2016/01/22	123559	4687885	2015/03/19	CORR		USTRCE	
PRCHG	I	2016/01/22	2016/01/22	123561	4685621	2016/01/21	CORR	USTRCE	USNYSE	
PRCHG	I	2016/01/22	2016/01/22	123561	4685621	2016/01/21	CORR	USTRCE	USNYSE	
PRCHG	I	2016/01/22	2016/01/22	123565	4685674	2016/01/21	CORR	USTRCE	USNYSE	
PRCHG	I	2016/01/22	2016/01/22	123565	4685674	2016/01/21	CORR	USTRCE	USNYSE	
PRCHG	I	2016/01/22	2016/01/22	123570	4685680	2016/01/21	CORR	USTRCE	USNYSE	
PRCHG	I	2016/01/22	2016/01/22	123570	4685680	2016/01/21	CORR	USTRCE	USNYSE	
PRCHG	I	2016/01/22	2016/01/22	123571	4685614	2016/01/21	CORR	USTRCE	USNYSE	
PRCHG	I	2016/01/22	2016/01/22	123571	4685614	2016/01/21	CORR	USTRCE	USNYSE	
PRCHG	I	2016/01/22	2016/01/22	123572	4685625	2016/01/21	CORR	USTRCE	USNYSE	
PRCHG	I	2016/01/22	2016/01/22	123572	4685625	2016/01/21	CORR	USTRCE	USNYSE	
PRCHG	I	2016/01/22	2016/01/22	123573	4685660	2016/01/21	CORR	USTRCE	USNYSE	
PRCHG	I	2016/01/22	2016/01/22	123573	4685660	2016/01/21	CORR	USTRCE	USNYSE	
PRCHG	I	2016/01/22	2016/01/22	123574	4688770	2016/01/21	CORR	USTRCE	USNYSE	
PRCHG	I	2016/01/22	2016/01/22	123574	4688770	2016/01/21	CORR	USTRCE	USNYSE	
PRCHG	I	2016/01/22	2016/01/22	123596	4690708	2016/01/21	CORR	USBND		
PRCHG	I	2016/01/22	2016/01/22	123597	4690708	2016/01/22	CORR		USTRCE	
PRCHG	I	2016/01/22	2016/01/22	123598	4690724	2016/01/21	CORR	USBND		
PRCHG	I	2016/01/22	2016/01/22	123599	4690724	2016/01/22	CORR		USTRCE	
PRCHG	I	2016/01/22	2016/01/22	123600	4688673	2016/01/21	CORR	USBND		
PRCHG	I	2016/01/22	2016/01/22	123601	4688673	2016/01/22	CORR		USTRCE	
PRCHG	I	2016/01/22	2016/01/22	123609	977208	2007/12/05	CORR		USTRCE	
PRCHG	I	2016/01/22	2016/01/22	123632	4683644	2016/01/21	CORR	USTRCE	IEISE	
PRCHG	I	2016/01/22	2016/01/22	123633	4683650	2016/01/21	CORR	USTRCE	IEISE	
PRCHG	I	2016/01/22	2016/01/22	123636	4683608	2016/01/21	CORR	USTRCE	IEISE	
PRCHG	I	2016/01/22	2016/01/22	123650	1666584	2016/01/21	CORR	IEISE	USBND	
PRCHG	I	2016/01/22	2016/01/22	123651	1666545	2016/01/21	CORR	IEISE	USBND	
PRCHG	I	2016/01/22	2016/01/22	123652	401569	2016/01/21	CORR	IEISE	USBND	
PRCHG	I	2016/01/22	2016/01/22	123653	401563	2016/01/21	CORR	IEISE	USBND	
PRCHG	I	2016/01/22	2016/01/22	123654	401570	2016/01/21	CORR	IEISE	USBND	
PRCHG	I	2016/01/22	2016/01/22	123655	401568	2016/01/21	CORR	IEISE	USBND	
PRCHG	I	2016/01/23	2016/01/25	123670	4689621	2016/01/22	CORR	USBND		
PRCHG	I	2016/01/23	2016/01/25	123671	4689621	2016/01/23	CORR		USTRCE	
PRCHG	I	2016/01/23	2016/01/25	123673	4689640	2016/01/22	CORR	USBND		
PRCHG	I	2016/01/23	2016/01/25	123674	4689640	2016/01/23	CORR		USTRCE	
PRCHG	I	2016/01/23	2016/01/25	123724	362196	2006/03/31	CORR	IEISE		
PRCHG	I	2016/01/23	2016/01/25	123725	362196	2006/04/01	CORR		USBND	
PRCHG	I	2016/01/23	2016/01/25	123733	1404399	2010/02/02	CORR		USBND	
PRCHG	I	2016/01/25	2016/01/25	123758	4691482	2016/01/22	CORR	USBND		
PRCHG	I	2016/01/25	2016/01/25	123759	4691482	2016/01/23	CORR		USTRCE	
PRCHG	I	2016/01/25	2016/01/25	123760	4691477	2016/01/22	CORR	USBND		
PRCHG	I	2016/01/25	2016/01/25	123761	4691477	2016/01/23	CORR		USTRCE	
PRCHG	I	2016/01/25	2016/01/25	123766	4691475	2016/01/22	CORR	USBND		
PRCHG	I	2016/01/25	2016/01/25	123767	4691475	2016/01/23	CORR		USTRCE	
PRCHG	I	2016/01/25	2016/01/25	123768	4691480	2016/01/22	CORR	USBND		
PRCHG	I	2016/01/25	2016/01/25	123770	4691480	2016/01/23	CORR		USTRCE	
PRCHG	I	2016/01/25	2016/01/25	123783	4689792	2016/01/21	CORR	USBND		
PRCHG	I	2016/01/25	2016/01/25	123784	4689792	2016/01/22	CORR		USTRCE	
PRCHG	I	2016/01/25	2016/01/25	123785	4691478	2016/01/22	CORR	USBND		
PRCHG	I	2016/01/25	2016/01/25	123791	4691783	2016/01/22	CORR	USBND		
PRCHG	I	2016/01/25	2016/01/25	123791	4691783	2016/01/22	CORR	USBND		
PRCHG	I	2016/01/25	2016/01/25	123792	4691783	2016/01/23	CORR		USTRCE	
PRCHG	I	2016/01/25	2016/01/25	123792	4691783	2016/01/23	CORR		USTRCE	
PRCHG	I	2016/01/25	2016/01/25	123794	4685684	2016/01/22	CORR	USTRCE	USNYSE	
PRCHG	I	2016/01/25	2016/01/25	123794	4685684	2016/01/22	CORR	USTRCE	USNYSE	
PRCHG	I	2016/01/26	2016/01/26	123851	4690704	2016/01/23	CORR		USTRCE	
PRCHG	I	2016/01/26	2016/01/26	123852	4691478	2016/01/26	CORR		USTRCE	
PRCHG	I	2016/01/26	2016/01/26	123858	4691636	2016/01/26	CORR		USBND	
PRCHG	I	2016/01/26	2016/01/26	123866	4673109	2006/03/15	CORR	USBND		
PRCHG	I	2016/01/26	2016/01/26	123868	4673109	2006/03/16	CORR		USTRCE	
PRCHG	I	2016/01/26	2016/01/26	123872	4691683	2016/01/25	CORR	USBND		
PRCHG	I	2016/01/26	2016/01/26	123872	4691683	2016/01/25	CORR	USBND		
PRCHG	I	2016/01/26	2016/01/26	123873	4691683	2016/01/26	CORR		USOTC	
PRCHG	I	2016/01/26	2016/01/26	123873	4691683	2016/01/26	CORR		USOTC	
PRCHG	I	2016/01/26	2016/01/26	123920	4693612	2016/01/25	CORR	USBND		
PRCHG	I	2016/01/26	2016/01/26	123945	4693612	2016/01/26	CORR		USTRCE	
PRCHG	I	2016/01/26	2016/01/26	123952	4691592	2016/01/25	CORR	USBND		
PRCHG	I	2016/01/26	2016/01/26	123953	4691615	2016/01/25	CORR	USBND		
PRCHG	I	2016/01/26	2016/01/26	123954	4691592	2016/01/26	CORR		USNYSE	
PRCHG	I	2016/01/26	2016/01/26	123955	4691615	2016/01/26	CORR		USNYSE	
PRCHG	I	2016/01/26	2016/01/26	123956	4691783	2016/01/26	CORR	USTRCE	USNYSE	
PRCHG	I	2016/01/26	2016/01/26	123956	4691783	2016/01/26	CORR	USTRCE	USNYSE	
PRCHG	I	2016/01/26	2016/01/26	123957	4692465	2016/01/26	CORR	USTRCE	USNYSE	
PRCHG	I	2016/01/26	2016/01/26	123957	4692465	2016/01/26	CORR	USTRCE	USNYSE	
PRCHG	I	2016/01/26	2016/01/26	123958	4692469	2016/01/25	CORR	USTRCE	USNYSE	
PRCHG	I	2016/01/26	2016/01/26	123958	4692469	2016/01/25	CORR	USTRCE	USNYSE	
PRCHG	I	2016/01/26	2016/01/26	123959	4692473	2016/01/26	CORR	USTRCE	USNYSE	
PRCHG	I	2016/01/26	2016/01/26	123959	4692473	2016/01/26	CORR	USTRCE	USNYSE	
PRCHG	I	2016/01/26	2016/01/26	123960	3919939	2016/01/25	CORR	USTRCE	USNYSE	
PRCHG	I	2016/01/26	2016/01/26	123960	3919939	2016/01/25	CORR	USTRCE	USNYSE	
PRCHG	I	2016/01/26	2016/01/26	123960	3919939	2016/01/25	CORR	USTRCE	USNYSE	
PRCHG	I	2016/01/26	2016/01/26	123961	4205793	2016/01/25	CORR	USTRCE	USNYSE	
PRCHG	I	2016/01/26	2016/01/26	123961	4205793	2016/01/25	CORR	USTRCE	USNYSE	
PRCHG	I	2016/01/26	2016/01/26	123961	4205793	2016/01/25	CORR	USTRCE	USNYSE	
PRCHG	I	2016/01/27	2016/01/27	124043	4694462	2016/01/26	CORR	USBND		
PRCHG	I	2016/01/27	2016/01/27	124044	4694462	2016/01/27	CORR		USTRCE	
PRCHG	I	2016/01/27	2016/01/27	124045	4694455	2016/01/26	CORR	USBND		
PRCHG	I	2016/01/27	2016/01/27	124046	4694455	2016/01/27	CORR		USTRCE	
PRCHG	I	2016/01/27	2016/01/27	124063	1162873	2006/10/30	CORR		USOTC	
PRCHG	I	2016/01/27	2016/01/27	124098	2066657	2015/08/07	CLEAN	USBND		
PRCHG	I	2016/01/28	2016/01/28	124130	4692448	2016/01/26	CORR	USTRCE	USNYSE	
PRCHG	I	2016/01/28	2016/01/28	124130	4692448	2016/01/26	CORR	USTRCE	USNYSE	
PRCHG	I	2016/01/28	2016/01/28	124131	4693661	2016/01/26	CORR	USTRCE	USNYSE	
PRCHG	I	2016/01/28	2016/01/28	124131	4693661	2016/01/26	CORR	USTRCE	USNYSE	
PRCHG	I	2016/01/28	2016/01/28	124136	4690916	2005/05/26	CLEAN	USTRCE		
PRCHG	I	2016/01/28	2016/01/28	124138	4690916	2005/05/27	CLEAN		USBND	
PRCHG	I	2016/01/28	2016/01/28	124191	4691474	2016/01/27	CORR	USBND		
PRCHG	I	2016/01/28	2016/01/28	124192	4691474	2016/01/28	CORR		USTRCE	
PRCHG	I	2016/01/28	2016/01/28	124193	4695582	2016/01/27	CORR	USBND		
PRCHG	I	2016/01/28	2016/01/28	124194	4695582	2016/01/28	CORR		USTRCE	
PRCHG	I	2016/01/28	2016/01/28	124195	4691388	2016/01/27	CORR	USBND		
PRCHG	I	2016/01/28	2016/01/28	124196	4691388	2016/01/28	CORR		USTRCE	
PRCHG	I	2016/01/28	2016/01/28	124207	4688631	2016/01/25	CORR		USTRCE	
PRCHG	I	2016/01/29	2016/01/29	124282	4690823	2016/01/28	CORR	USTRCE	USNYSE	
PRCHG	I	2016/01/29	2016/01/29	124282	4690823	2016/01/28	CORR	USTRCE	USNYSE	
PRCHG	I	2016/01/29	2016/01/29	124283	4690819	2016/01/28	CORR	USTRCE	USNYSE	
PRCHG	I	2016/01/29	2016/01/29	124283	4690819	2016/01/28	CORR	USTRCE	USNYSE	
PRCHG	I	2016/01/29	2016/01/29	124284	4690820	2016/01/28	CORR	USTRCE	USNYSE	
PRCHG	I	2016/01/29	2016/01/29	124284	4690820	2016/01/28	CORR	USTRCE	USNYSE	
PRCHG	I	2016/01/29	2016/01/29	124285	4690815	2016/01/28	CORR	USTRCE	USNYSE	
PRCHG	I	2016/01/29	2016/01/29	124285	4690815	2016/01/28	CORR	USTRCE	USNYSE	
PRCHG	I	2016/01/29	2016/01/29	124286	4694693	2016/01/28	CORR	USTRCE	USNYSE	
PRCHG	I	2016/01/29	2016/01/29	124286	4694693	2016/01/28	CORR	USTRCE	USNYSE	
PRCHG	I	2016/01/29	2016/01/29	124287	4694684	2016/01/28	CORR	USTRCE	USNYSE	
PRCHG	I	2016/01/29	2016/01/29	124287	4694684	2016/01/28	CORR	USTRCE	USNYSE	
PRCHG	I	2016/01/29	2016/01/29	124290	4691605	2016/01/28	CORR	USBND	LULSE	
PRCHG	I	2016/01/29	2016/01/29	124370	4696594	2016/01/28	CORR	USBND		
PRCHG	I	2016/01/29	2016/01/29	124370	4696594	2016/01/28	CORR	USBND		
PRCHG	I	2016/01/29	2016/01/29	124371	4696594	2016/01/29	CORR		USTRCE	
PRCHG	I	2016/01/29	2016/01/29	124371	4696594	2016/01/29	CORR		USTRCE	
PRCHG	I	2016/01/29	2016/01/29	124372	4693516	2016/01/27	CORR	USBND		
PRCHG	I	2016/01/29	2016/01/29	124373	4693516	2016/01/28	CORR		USTRCE	
PRCHG	I	2016/01/29	2016/01/29	124411	1399146	2016/01/27	CORR	IEISE	USOTC	
PRCHG	I	2016/01/29	2016/01/29	124412	2034334	2016/01/27	CORR	IEISE	USBND	
PRCHG	I	2016/01/29	2016/01/29	124413	2034944	2016/01/27	CORR	IEISE	USBND	
PRCHG	I	2016/01/29	2016/01/29	124414	1399126	2016/01/27	CORR	IEISE	USBND	
PRCHG	I	2016/01/29	2016/01/29	124415	2035036	2016/01/27	CORR	IEISE	USBND	
PRCHG	I	2016/01/29	2016/01/29	124416	2034959	2016/01/27	CORR	IEISE	USBND	
PRCHG	I	2016/02/01	2016/02/01	124463	4688746	2016/01/28	CORR	USTRCE	USNYSE	
PRCHG	I	2016/02/01	2016/02/01	124463	4688746	2016/01/28	CORR	USTRCE	USNYSE	
PRCHG	I	2016/02/01	2016/02/01	124464	4695951	2016/01/28	CORR	GBBND	LULSE	
PRCHG	I	2016/02/01	2016/02/01	124468	4696488	2016/02/01	CORR		USTRCE	
PRCHG	I	2016/02/01	2016/02/01	124509	4591399	2016/01/31	CORR	USBND		
PRCHG	I	2016/02/01	2016/02/01	124510	4591399	2016/02/01	CORR		USTRCE	
PRCHG	I	2016/02/01	2016/02/01	124546	4696721	2016/01/29	CORR	USTRCE	USNYSE	
PRCHG	I	2016/02/01	2016/02/01	124546	4696721	2016/01/29	CORR	USTRCE	USNYSE	
PRCHG	I	2016/02/01	2016/02/01	124547	4696725	2016/01/29	CORR	USTRCE	USNYSE	
PRCHG	I	2016/02/01	2016/02/01	124547	4696725	2016/01/29	CORR	USTRCE	USNYSE	
PRCHG	I	2016/02/01	2016/02/01	124548	4694662	2016/01/29	CORR	USTRCE	USNYSE	
PRCHG	I	2016/02/01	2016/02/01	124548	4694662	2016/01/29	CORR	USTRCE	USNYSE	
PRCHG	I	2016/02/01	2016/02/01	124549	4696607	2016/01/29	CORR	USTRCE	USNYSE	
PRCHG	I	2016/02/01	2016/02/01	124549	4696607	2016/01/29	CORR	USTRCE	USNYSE	
PRCHG	I	2016/02/01	2016/02/01	124550	4481163	2016/01/29	CORR	USTRCE	USNYSE	
PRCHG	I	2016/02/01	2016/02/01	124550	4481163	2016/01/29	CORR	USTRCE	USNYSE	
PRCHG	I	2016/02/01	2016/02/01	124551	3951141	2016/02/01	CORR	USNYSE	USOTC	
PRCHG	I	2016/02/01	2016/02/01	124551	3951141	2016/02/01	CORR	USNYSE	USOTC	
PRCHG	I	2016/02/01	2016/02/01	124551	3951141	2016/02/01	CORR	USNYSE	USOTC	
PRCHG	I	2016/02/01	2016/02/01	124552	4524401	2016/02/01	CORR	USNYSE	DEFSX	
PRCHG	I	2016/02/01	2016/02/01	124552	4524401	2016/02/01	CORR	USNYSE	DEFSX	
PRCHG	I	2016/02/01	2016/02/01	124553	3951142	2016/01/29	CORR	USNYSE	USOTC	
PRCHG	I	2016/02/01	2016/02/01	124553	3951142	2016/01/29	CORR	USNYSE	USOTC	
PRCHG	I	2016/02/01	2016/02/01	124553	3951142	2016/01/29	CORR	USNYSE	USOTC	
PRCHG	I	2016/02/01	2016/02/01	124554	4524438	2016/01/29	CORR	USNYSE	DEBSE	
PRCHG	I	2016/02/01	2016/02/01	124554	4524438	2016/01/29	CORR	USNYSE	DEBSE	
PRCHG	I	2016/02/01	2016/02/01	124555	4524454	2016/01/29	CORR	USNYSE	DEFSX	
PRCHG	I	2016/02/01	2016/02/01	124555	4524454	2016/01/29	CORR	USNYSE	DEFSX	
PRCHG	I	2016/02/01	2016/02/01	124556	3951145	2016/01/29	CORR	USNYSE	USOTC	
PRCHG	I	2016/02/01	2016/02/01	124556	3951145	2016/01/29	CORR	USNYSE	USOTC	
PRCHG	I	2016/02/01	2016/02/01	124556	3951145	2016/01/29	CORR	USNYSE	USOTC	
PRCHG	I	2016/02/01	2016/02/01	124557	4524464	2016/01/29	CORR	USNYSE	DEFSX	
PRCHG	I	2016/02/01	2016/02/01	124557	4524464	2016/01/29	CORR	USNYSE	DEFSX	
PRCHG	I	2016/02/01	2016/02/01	124558	4318469	2016/01/29	CORR	USNYSE	USTRCE	
PRCHG	I	2016/02/01	2016/02/01	124558	4318469	2016/01/29	CORR	USNYSE	USTRCE	
PRCHG	I	2016/02/01	2016/02/01	124559	4696594	2016/02/01	CORR	USTRCE	USNYSE	
PRCHG	I	2016/02/01	2016/02/01	124559	4696594	2016/02/01	CORR	USTRCE	USNYSE	
PRCHG	I	2016/02/01	2016/02/01	124560	4697505	2016/02/01	CORR	USTRCE	USNYSE	
PRCHG	I	2016/02/01	2016/02/01	124560	4697505	2016/02/01	CORR	USTRCE	USNYSE	
PRCHG	I	2016/02/01	2016/02/01	124563	4690744	2016/02/01	PRCHG	USOTC	USNYSE	
PRCHG	I	2016/02/01	2016/02/01	124563	4690744	2016/02/01	PRCHG	USOTC	USNYSE	
PRCHG	I	2016/02/01	2016/02/01	124566	491308	2006/10/06	CORR	IEISE	USBND	
PRCHG	I	2016/02/01	2016/02/01	124573	4688704	2016/02/01	PRCHG	USOTC	USNYSE	
PRCHG	I	2016/02/01	2016/02/01	124573	4688704	2016/02/01	PRCHG	USOTC	USNYSE	
PRCHG	I	2016/02/01	2016/02/01	124589	4686830	2016/01/14	CORR	CHBND		
PRCHG	I	2016/02/01	2016/02/01	124591	4686830	2016/01/15	CORR		USBND	
PRCHG	I	2016/02/01	2016/02/01	124615	3917686	2007/03/01	CORR		USBND	
PRCHG	I	2016/02/01	2016/02/01	124635	843108	2016/01/28	CORR	IEISE	USBND	
PRCHG	I	2016/02/01	2016/02/01	124636	843112	2016/01/28	CORR	IEISE	USBND	
PRCHG	I	2016/02/01	2016/02/01	124637	843106	2016/01/28	CORR	IEISE	USBND	
PRCHG	I	2016/02/02	2016/02/02	124641	4696484	2016/01/29	CLEAN		USBND	
PRCHG	I	2016/02/02	2016/02/02	124642	4696487	2016/02/02	CORR		USBND	
PRCHG	I	2016/02/02	2016/02/02	124671	4685566	2016/02/01	CORR	USBND		
PRCHG	I	2016/02/02	2016/02/02	124672	4676597	2016/02/01	CORR	USBND		
PRCHG	I	2016/02/02	2016/02/02	124673	4685566	2016/02/02	CORR		USTRCE	
PRCHG	I	2016/02/02	2016/02/02	124674	4676597	2016/02/02	CORR		USTRCE	
PRCHG	I	2016/02/02	2016/02/02	124677	4696767	2016/01/29	CORR		USTRCE	
PRCHG	I	2016/02/02	2016/02/02	124678	4690570	2016/02/01	CORR	USBND		
PRCHG	I	2016/02/02	2016/02/02	124679	4697407	2016/02/01	CORR	USBND		
PRCHG	I	2016/02/02	2016/02/02	124680	4690570	2016/02/02	CORR		USTRCE	
PRCHG	I	2016/02/02	2016/02/02	124681	4697407	2016/02/02	CORR		USTRCE	
PRCHG	I	2016/02/02	2016/02/02	124682	4698322	2016/02/01	CORR	USBND		
PRCHG	I	2016/02/02	2016/02/02	124683	4698277	2016/02/01	CORR	USBND		
PRCHG	I	2016/02/02	2016/02/02	124684	4694426	2016/02/01	CORR	USBND		
PRCHG	I	2016/02/02	2016/02/02	124685	4694426	2016/02/02	CORR		USTRCE	
PRCHG	I	2016/02/02	2016/02/02	124686	4695409	2016/02/01	CORR	USBND		
PRCHG	I	2016/02/02	2016/02/02	124687	4695409	2016/02/02	CORR		USTRCE	
PRCHG	I	2016/02/02	2016/02/02	124688	4698316	2016/02/01	CORR	USBND		
PRCHG	I	2016/02/02	2016/02/02	124689	4698277	2016/02/02	CORR		USTRCE	
PRCHG	I	2016/02/02	2016/02/02	124690	4698322	2016/02/02	CORR		USTRCE	
PRCHG	I	2016/02/02	2016/02/02	124691	4695410	2016/02/01	CORR	USBND		
PRCHG	I	2016/02/02	2016/02/02	124692	4698316	2016/02/02	CORR		USTRCE	
PRCHG	I	2016/02/02	2016/02/02	124693	4695410	2016/02/02	CORR		USTRCE	
PRCHG	I	2016/02/02	2016/02/02	124695	4695411	2016/02/01	CORR	USBND		
PRCHG	I	2016/02/02	2016/02/02	124696	4695411	2016/02/02	CORR		USTRCE	
PRCHG	I	2016/02/02	2016/02/02	124697	4695414	2016/02/01	CORR	USBND		
PRCHG	I	2016/02/02	2016/02/02	124698	4695414	2016/02/02	CORR		USTRCE	
PRCHG	I	2016/02/02	2016/02/02	124699	4696540	2016/02/01	CORR	USBND		
PRCHG	I	2016/02/02	2016/02/02	124700	4696540	2016/02/02	CORR		USTRCE	
PRCHG	I	2016/02/02	2016/02/02	124701	4277531	2016/02/01	CORR	USBND		
PRCHG	I	2016/02/02	2016/02/02	124702	4277531	2016/02/02	CORR		USTRCE	
PRCHG	I	2016/02/02	2016/02/02	124783	4698279	2016/02/01	CORR	USOTC	USNYSE	
PRCHG	I	2016/02/02	2016/02/02	124783	4698279	2016/02/01	CORR	USOTC	USNYSE	
PRCHG	I	2016/02/02	2016/02/02	124789	4691683	2016/02/02	PRCHG	USOTC	USNYSE	(As on 02/02/16)  USLISTDELIST<BR>Symbol CUBI-D<BR>Company Name Customers Bancorp, Inc<BR>NASDAQ Action Add<BR>BX Action Add<BR>PSX Action Add<BR>Effective Date 02/02/2016<BR>Primary Listing Market N<BR>
PRCHG	I	2016/02/02	2016/02/02	124789	4691683	2016/02/02	PRCHG	USOTC	USNYSE	(As on 02/02/16)  USLISTDELIST<BR>Symbol CUBI-D<BR>Company Name Customers Bancorp, Inc<BR>NASDAQ Action Add<BR>BX Action Add<BR>PSX Action Add<BR>Effective Date 02/02/2016<BR>Primary Listing Market N<BR>
PRCHG	I	2016/02/03	2016/02/03	124823	1630854	2016/02/01	CORR	USNYSE	USOTC	
PRCHG	I	2016/02/03	2016/02/03	124823	1630854	2016/02/01	CORR	USNYSE	USOTC	
PRCHG	I	2016/02/03	2016/02/03	124823	1630854	2016/02/01	CORR	USNYSE	USOTC	
PRCHG	I	2016/02/03	2016/02/03	124824	4089959	2016/02/01	CORR	USNYSE	USOTC	
PRCHG	I	2016/02/03	2016/02/03	124824	4089959	2016/02/01	CORR	USNYSE	USOTC	
PRCHG	I	2016/02/03	2016/02/03	124824	4089959	2016/02/01	CORR	USNYSE	USOTC	
PRCHG	I	2016/02/03	2016/02/03	124825	2522545	2016/02/01	CORR	USNYSE	USOTC	
PRCHG	I	2016/02/03	2016/02/03	124825	2522545	2016/02/01	CORR	USNYSE	USOTC	
PRCHG	I	2016/02/03	2016/02/03	124825	2522545	2016/02/01	CORR	USNYSE	USOTC	
PRCHG	I	2016/02/03	2016/02/03	124826	983227	2016/02/01	CORR	USNYSE	DEFSX	
PRCHG	I	2016/02/03	2016/02/03	124826	983227	2016/02/01	CORR	USNYSE	DEFSX	
PRCHG	I	2016/02/03	2016/02/03	124826	983227	2016/02/01	CORR	USNYSE	DEFSX	
PRCHG	I	2016/02/03	2016/02/03	124827	2522547	2016/02/01	CORR	USNYSE	DEBSE	
PRCHG	I	2016/02/03	2016/02/03	124827	2522547	2016/02/01	CORR	USNYSE	DEBSE	
PRCHG	I	2016/02/03	2016/02/03	124827	2522547	2016/02/01	CORR	USNYSE	DEBSE	
PRCHG	I	2016/02/03	2016/02/03	124828	4089958	2016/02/01	CORR	USNYSE	DEFSX	
PRCHG	I	2016/02/03	2016/02/03	124828	4089958	2016/02/01	CORR	USNYSE	DEFSX	
PRCHG	I	2016/02/03	2016/02/03	124828	4089958	2016/02/01	CORR	USNYSE	DEFSX	
PRCHG	I	2016/02/03	2016/02/03	124829	4694671	2016/02/02	CORR	USTRCE	USNYSE	
PRCHG	I	2016/02/03	2016/02/03	124829	4694671	2016/02/02	CORR	USTRCE	USNYSE	
PRCHG	I	2016/02/03	2016/02/03	124830	4697484	2016/02/02	CORR	USTRCE	USNYSE	
PRCHG	I	2016/02/03	2016/02/03	124830	4697484	2016/02/02	CORR	USTRCE	USNYSE	
PRCHG	I	2016/02/03	2016/02/03	124831	4697488	2016/02/02	CORR	USTRCE	USNYSE	
PRCHG	I	2016/02/03	2016/02/03	124831	4697488	2016/02/02	CORR	USTRCE	USNYSE	
PRCHG	I	2016/02/03	2016/02/03	124832	4697453	2016/02/02	CORR	USTRCE	USNYSE	
PRCHG	I	2016/02/03	2016/02/03	124832	4697453	2016/02/02	CORR	USTRCE	USNYSE	
PRCHG	I	2016/02/03	2016/02/03	124833	4697459	2016/02/01	CORR	USTRCE	USNYSE	
PRCHG	I	2016/02/03	2016/02/03	124833	4697459	2016/02/01	CORR	USTRCE	USNYSE	
PRCHG	I	2016/02/03	2016/02/03	124834	4697466	2016/02/02	CORR	USTRCE	USNYSE	
PRCHG	I	2016/02/03	2016/02/03	124834	4697466	2016/02/02	CORR	USTRCE	USNYSE	
PRCHG	I	2016/02/03	2016/02/03	124835	4697486	2016/02/02	CORR	USTRCE	USNYSE	
PRCHG	I	2016/02/03	2016/02/03	124835	4697486	2016/02/02	CORR	USTRCE	USNYSE	
PRCHG	I	2016/02/03	2016/02/03	124849	4698279	2016/02/02	CLEAN	USNYSE	USOTC	
PRCHG	I	2016/02/03	2016/02/03	124849	4698279	2016/02/02	CLEAN	USNYSE	USOTC	
PRCHG	I	2016/02/03	2016/02/03	124861	4697439	2016/02/02	CORR	USBND		
PRCHG	I	2016/02/03	2016/02/03	124862	4697439	2016/02/03	CORR		USTRCE	
PRCHG	I	2016/02/03	2016/02/03	124863	4697436	2016/02/02	CORR	USBND		
PRCHG	I	2016/02/03	2016/02/03	124864	4697436	2016/02/03	CORR		USTRCE	
PRCHG	I	2016/02/03	2016/02/03	124866	4685555	2016/02/02	CORR	USBND		
PRCHG	I	2016/02/03	2016/02/03	124867	4685555	2016/02/03	CORR		USTRCE	
PRCHG	I	2016/02/03	2016/02/03	124869	4697422	2016/02/02	CORR	USBND		
PRCHG	I	2016/02/03	2016/02/03	124870	4697422	2016/02/03	CORR		USTRCE	
PRCHG	I	2016/02/03	2016/02/03	124871	4696545	2016/02/02	CORR	USBND		
PRCHG	I	2016/02/03	2016/02/03	124872	4696545	2016/02/03	CORR		USTRCE	
PRCHG	I	2016/02/03	2016/02/03	124873	4694412	2016/02/02	CORR	USBND		
PRCHG	I	2016/02/03	2016/02/03	124874	4694412	2016/02/03	CORR		USTRCE	
PRCHG	I	2016/02/03	2016/02/03	124876	3185424	2016/02/03	CORR	USPAC		
PRCHG	I	2016/02/03	2016/02/03	124876	3185424	2016/02/03	CORR	USPAC		
PRCHG	I	2016/02/04	2016/02/04	125048	4696484	2016/02/03	CORR	USBND		
PRCHG	I	2016/02/04	2016/02/04	125049	4696484	2016/02/04	CORR		USTRCE	
PRCHG	I	2016/02/04	2016/02/04	125050	4696487	2016/02/03	CORR	USBND		
PRCHG	I	2016/02/04	2016/02/04	125051	4696487	2016/02/04	CORR		USTRCE	
PRCHG	I	2016/02/04	2016/02/04	125052	4698968	2016/02/03	CORR	USBND		
PRCHG	I	2016/02/04	2016/02/04	125053	4699961	2016/02/01	CORR	USBND		
PRCHG	I	2016/02/04	2016/02/04	125054	4699961	2016/02/03	CORR		USTRCE	
PRCHG	I	2016/02/04	2016/02/04	125055	4698968	2016/02/04	CORR		USTRCE	
PRCHG	I	2016/02/04	2016/02/04	125056	4699949	2016/02/01	CORR	USBND		
PRCHG	I	2016/02/04	2016/02/04	125057	4698246	2016/02/03	CORR	USBND		
PRCHG	I	2016/02/04	2016/02/04	125058	4698246	2016/02/04	CORR		USTRCE	
PRCHG	I	2016/02/04	2016/02/04	125065	4699949	2016/02/03	CORR		USTRCE	
PRCHG	I	2016/02/04	2016/02/04	125119	834073	2015/06/17	CORR	IEISE	USBND	
PRCHG	I	2016/02/04	2016/02/04	125120	834083	2015/06/17	CORR	IEISE	USBND	
PRCHG	I	2016/02/04	2016/02/04	125121	1606631	2015/06/17	CORR	IEISE	USBND	
PRCHG	I	2016/02/05	2016/02/05	125129	4698888	2016/02/03	CLEAN		USBND	
PRCHG	I	2016/02/05	2016/02/05	125131	4694607	2016/01/28	CORR		USTRCE	
PRCHG	I	2016/02/05	2016/02/05	125134	4699917	2016/02/04	CORR	USBND		
PRCHG	I	2016/02/05	2016/02/05	125134	4699917	2016/02/04	CORR	USBND		
PRCHG	I	2016/02/05	2016/02/05	125136	4699917	2016/02/05	CORR		USTRCE	
PRCHG	I	2016/02/05	2016/02/05	125136	4699917	2016/02/05	CORR		USTRCE	
PRCHG	I	2016/02/05	2016/02/05	125138	4699923	2016/02/04	CORR	USBND		
PRCHG	I	2016/02/05	2016/02/05	125138	4699923	2016/02/04	CORR	USBND		
PRCHG	I	2016/02/05	2016/02/05	125140	4699947	2016/02/04	CORR	USTRCE	LULSE	
PRCHG	I	2016/02/05	2016/02/05	125193	4698310	2016/02/04	CORR	USBND		
PRCHG	I	2016/02/05	2016/02/05	125193	4698310	2016/02/04	CORR	USBND		
PRCHG	I	2016/02/05	2016/02/05	125196	4698310	2016/02/05	CORR		USTRCE	
PRCHG	I	2016/02/05	2016/02/05	125196	4698310	2016/02/05	CORR		USTRCE	
PRCHG	I	2016/02/05	2016/02/05	125198	4698312	2016/02/04	CORR	USBND		
PRCHG	I	2016/02/05	2016/02/05	125199	4698312	2016/02/05	CORR		USTRCE	
PRCHG	I	2016/02/05	2016/02/05	125200	4698314	2016/02/04	CORR	USBND		
PRCHG	I	2016/02/05	2016/02/05	125200	4698314	2016/02/04	CORR	USBND		
PRCHG	I	2016/02/05	2016/02/05	125201	4698314	2016/02/05	CORR		USTRCE	
PRCHG	I	2016/02/05	2016/02/05	125201	4698314	2016/02/05	CORR		USTRCE	
PRCHG	I	2016/02/05	2016/02/05	125206	4696550	2016/02/04	CORR	USBND		
PRCHG	I	2016/02/05	2016/02/05	125207	4696550	2016/02/05	CORR		USTRCE	
PRCHG	I	2016/02/05	2016/02/05	125208	4695404	2016/02/04	CORR	USBND		
PRCHG	I	2016/02/05	2016/02/05	125209	4695404	2016/02/05	CORR		USTRCE	
PRCHG	I	2016/02/05	2016/02/05	125211	4670418	2015/12/14	CORR	CABND		
PRCHG	I	2016/02/05	2016/02/05	125212	4670418	2015/12/15	CORR		USBND	
PRCHG	I	2016/02/05	2016/02/05	125213	4698978	2016/02/04	CORR	USBND		
PRCHG	I	2016/02/05	2016/02/05	125214	4670421	2015/12/14	CORR	CABND		
PRCHG	I	2016/02/05	2016/02/05	125215	4698978	2016/02/05	CORR		USTRCE	
PRCHG	I	2016/02/05	2016/02/05	125216	4670421	2015/12/15	CORR		USBND	
PRCHG	I	2016/02/05	2016/02/05	125217	4698981	2016/02/04	CORR	USBND		
PRCHG	I	2016/02/05	2016/02/05	125218	4698981	2016/02/05	CORR		USTRCE	
PRCHG	I	2016/02/05	2016/02/05	125221	4132802	2016/02/04	CORR	USNYSE	DEBSE	
PRCHG	I	2016/02/05	2016/02/05	125221	4132802	2016/02/04	CORR	USNYSE	DEBSE	
PRCHG	I	2016/02/05	2016/02/05	125221	4132802	2016/02/04	CORR	USNYSE	DEBSE	
PRCHG	I	2016/02/05	2016/02/05	125222	4649348	2016/02/04	CORR	USNYSE	USTRCE	
PRCHG	I	2016/02/05	2016/02/05	125222	4649348	2016/02/04	CORR	USNYSE	USTRCE	
PRCHG	I	2016/02/05	2016/02/05	125223	4134134	2016/02/04	CORR	USNYSE	DEFSX	
PRCHG	I	2016/02/05	2016/02/05	125223	4134134	2016/02/04	CORR	USNYSE	DEFSX	
PRCHG	I	2016/02/05	2016/02/05	125223	4134134	2016/02/04	CORR	USNYSE	DEFSX	
PRCHG	I	2016/02/05	2016/02/05	125224	4699923	2016/02/05	CORR		USNYSE	
PRCHG	I	2016/02/05	2016/02/05	125224	4699923	2016/02/05	CORR		USNYSE	
PRCHG	I	2016/02/05	2016/02/05	125225	4700035	2016/02/05	CORR	USTRCE	USNYSE	
PRCHG	I	2016/02/05	2016/02/05	125225	4700035	2016/02/05	CORR	USTRCE	USNYSE	
PRCHG	I	2016/02/05	2016/02/05	125266	467927	2014/10/26	CORR	IEISE	USBND	
PRCHG	I	2016/02/05	2016/02/05	125267	467968	2014/10/26	CORR	IEISE	USBND	
PRCHG	I	2016/02/05	2016/02/05	125268	467921	2014/10/26	CORR	IEISE	USBND	
PRCHG	I	2016/02/05	2016/02/05	125269	467948	2014/10/26	CORR	IEISE	USBND	
PRCHG	I	2016/02/05	2016/02/05	125270	467940	2014/10/26	CORR	IEISE	USBND	
PRCHG	I	2016/02/05	2016/02/05	125271	467962	2014/10/26	CORR	IEISE	USBND	
PRCHG	I	2016/02/06	2016/02/08	125285	4699917	2016/02/06	CORR	USTRCE	USNYSE	
PRCHG	I	2016/02/06	2016/02/08	125285	4699917	2016/02/06	CORR	USTRCE	USNYSE	
PRCHG	I	2016/02/06	2016/02/08	125352	4699803	2016/02/05	CORR	USBND		
PRCHG	I	2016/02/06	2016/02/08	125353	4699803	2016/02/06	CORR		USTRCE	
PRCHG	I	2016/02/06	2016/02/08	125354	4699811	2016/02/05	CORR	USBND		
PRCHG	I	2016/02/06	2016/02/08	125355	4699811	2016/02/06	CORR		USTRCE	
PRCHG	I	2016/02/06	2016/02/08	125356	4699854	2016/02/05	CORR	USBND		
PRCHG	I	2016/02/06	2016/02/08	125357	4699854	2016/02/06	CORR		USTRCE	
PRCHG	I	2016/02/06	2016/02/08	125368	4699209	2016/02/05	CORR	USTRCE	USNYSE	
PRCHG	I	2016/02/06	2016/02/08	125368	4699209	2016/02/05	CORR	USTRCE	USNYSE	
PRCHG	I	2016/02/06	2016/02/08	125369	4697530	2016/02/05	CORR	USTRCE	USNYSE	
PRCHG	I	2016/02/06	2016/02/08	125369	4697530	2016/02/05	CORR	USTRCE	USNYSE	
PRCHG	I	2016/02/06	2016/02/08	125370	4697539	2016/02/05	CORR	USTRCE	USNYSE	
PRCHG	I	2016/02/06	2016/02/08	125370	4697539	2016/02/05	CORR	USTRCE	USNYSE	
PRCHG	I	2016/02/06	2016/02/08	125372	4698376	2016/02/05	CORR	USTRCE	USNYSE	
PRCHG	I	2016/02/06	2016/02/08	125372	4698376	2016/02/05	CORR	USTRCE	USNYSE	
PRCHG	I	2016/02/06	2016/02/08	125389	1634695	1998/02/15	CORR		USTRCE	
PRCHG	I	2016/02/08	2016/02/08	125409	4697527	2016/02/05	CORR	USTRCE	USNYSE	
PRCHG	I	2016/02/08	2016/02/08	125409	4697527	2016/02/05	CORR	USTRCE	USNYSE	
PRCHG	I	2016/02/08	2016/02/08	125410	4701544	2016/02/05	CORR	USBND		
PRCHG	I	2016/02/08	2016/02/08	125411	4701544	2016/02/06	CORR		USTRCE	
PRCHG	I	2016/02/08	2016/02/08	125412	4701356	2016/02/04	CORR	USBND		
PRCHG	I	2016/02/08	2016/02/08	125413	4701358	2016/02/04	CORR	USBND		
PRCHG	I	2016/02/08	2016/02/08	125414	4701362	2016/02/04	CORR	USBND		
PRCHG	I	2016/02/08	2016/02/08	125415	4701366	2016/02/04	CORR	USBND		
PRCHG	I	2016/02/08	2016/02/08	125416	4701359	2016/02/04	CORR	USBND		
PRCHG	I	2016/02/08	2016/02/08	125417	4701378	2016/02/04	CORR	USBND		
PRCHG	I	2016/02/08	2016/02/08	125418	4701356	2016/02/05	CORR		USTRCE	
PRCHG	I	2016/02/08	2016/02/08	125419	4701358	2016/02/05	CORR		USTRCE	
PRCHG	I	2016/02/08	2016/02/08	125420	4701362	2016/02/05	CORR		USTRCE	
PRCHG	I	2016/02/08	2016/02/08	125421	4701366	2016/02/05	CORR		USTRCE	
PRCHG	I	2016/02/08	2016/02/08	125422	4701359	2016/02/05	CORR		USTRCE	
PRCHG	I	2016/02/08	2016/02/08	125423	4701378	2016/02/05	CORR		USTRCE	
PRCHG	I	2016/02/09	2016/02/09	125447	4701357	2016/02/06	CLEAN		USBND	
PRCHG	I	2016/02/09	2016/02/09	125455	4698227	2016/02/08	CORR	USBND		
PRCHG	I	2016/02/09	2016/02/09	125456	4698227	2016/02/09	CORR		USTRCE	
PRCHG	I	2016/02/09	2016/02/09	125460	4698979	2016/02/08	CORR	USBND		
PRCHG	I	2016/02/09	2016/02/09	125461	4698979	2016/02/09	CORR		USTRCE	
PRCHG	I	2016/02/09	2016/02/09	125462	4699809	2016/02/08	CORR	USTRCE		
PRCHG	I	2016/02/09	2016/02/09	125463	4699809	2016/02/09	CORR		USTRCE	
PRCHG	I	2016/02/09	2016/02/09	125464	4699828	2016/02/08	CORR	USBND		
PRCHG	I	2016/02/09	2016/02/09	125465	4699828	2016/02/09	CORR		USTRCE	
PRCHG	I	2016/02/09	2016/02/09	125468	4699833	2016/02/08	CORR	USBND		
PRCHG	I	2016/02/09	2016/02/09	125469	4699833	2016/02/09	CORR		USTRCE	
PRCHG	I	2016/02/09	2016/02/09	125475	4700609	2016/02/08	CORR	USBND		
PRCHG	I	2016/02/09	2016/02/09	125477	4700609	2016/02/09	CORR		USTRCE	
PRCHG	I	2016/02/09	2016/02/09	125517	4693789	2016/01/30	CORR	USBND	LULSE	
PRCHG	I	2016/02/09	2016/02/09	125537	4698279	2016/02/09	PRCHG	USOTC	USNYSE	
PRCHG	I	2016/02/09	2016/02/09	125537	4698279	2016/02/09	PRCHG	USOTC	USNYSE	
PRCHG	I	2016/02/09	2016/02/09	125548	4702375	2004/02/19	CORR		USTRCE	
PRCHG	I	2016/02/09	2016/02/09	125567	843093	2016/02/08	CORR	IEISE	USBND	
PRCHG	I	2016/02/09	2016/02/09	125568	843098	2015/11/13	CORR	IEISE	USBND	
PRCHG	I	2016/02/09	2016/02/09	125569	843102	2015/11/13	CORR	IEISE	USBND	
PRCHG	I	2016/02/10	2016/02/10	125588	4695470	2016/02/09	PRCHG	USOTC	USNYSE	
PRCHG	I	2016/02/10	2016/02/10	125588	4695470	2016/02/09	PRCHG	USOTC	USNYSE	
PRCHG	I	2016/02/10	2016/02/10	125594	4698888	2016/02/09	CORR	USBND		
PRCHG	I	2016/02/10	2016/02/10	125595	4698888	2016/02/10	CORR		USTRCE	
PRCHG	I	2016/02/10	2016/02/10	125610	4703152	2016/02/09	CORR	USBND		
PRCHG	I	2016/02/10	2016/02/10	125611	4703152	2016/02/10	CORR		USTRCE	
PRCHG	I	2016/02/10	2016/02/10	125612	4701380	2016/02/09	CORR	USBND		
PRCHG	I	2016/02/10	2016/02/10	125613	4701380	2016/02/10	CORR		USTRCE	
PRCHG	I	2016/02/10	2016/02/10	125614	4700622	2016/02/09	CORR	USBND		
PRCHG	I	2016/02/10	2016/02/10	125615	4700622	2016/02/10	CORR		USTRCE	
PRCHG	I	2016/02/10	2016/02/10	125616	4695230	2016/02/09	CORR	USBND		
PRCHG	I	2016/02/10	2016/02/10	125616	4695230	2016/02/09	CORR	USBND		
PRCHG	I	2016/02/10	2016/02/10	125616	4695230	2016/02/09	CORR	USBND		
PRCHG	I	2016/02/10	2016/02/10	125617	4695230	2016/02/10	CORR		USTRCE	
PRCHG	I	2016/02/10	2016/02/10	125617	4695230	2016/02/10	CORR		USTRCE	
PRCHG	I	2016/02/10	2016/02/10	125617	4695230	2016/02/10	CORR		USTRCE	
PRCHG	I	2016/02/10	2016/02/10	125618	4698335	2016/02/09	CORR	USBND		
PRCHG	I	2016/02/10	2016/02/10	125619	4698335	2016/02/10	CORR		USTRCE	
PRCHG	I	2016/02/10	2016/02/10	125620	4701357	2016/02/09	CORR	USBND		
PRCHG	I	2016/02/10	2016/02/10	125621	4701357	2016/02/10	CORR		USTRCE	
PRCHG	I	2016/02/10	2016/02/10	125622	4698320	2016/02/09	CORR	USBND		
PRCHG	I	2016/02/10	2016/02/10	125623	4698320	2016/02/10	CORR		USTRCE	
PRCHG	I	2016/02/10	2016/02/10	125625	4701558	2016/02/09	CORR	USBND		
PRCHG	I	2016/02/10	2016/02/10	125626	4701558	2016/02/10	CORR		USTRCE	
PRCHG	I	2016/02/11	2016/02/11	125672	4525342	2016/02/10	CORR	USBND		
PRCHG	I	2016/02/11	2016/02/11	125673	4554257	2016/02/10	CORR	USBND		
PRCHG	I	2016/02/11	2016/02/11	125674	4554257	2016/02/11	CORR		USTRCE	
PRCHG	I	2016/02/11	2016/02/11	125675	4701562	2016/02/10	CORR	USBND		
PRCHG	I	2016/02/11	2016/02/11	125676	4701562	2016/02/11	CORR		USTRCE	
PRCHG	I	2016/02/11	2016/02/11	125699	4703745	2016/02/10	CORR	USBND		
PRCHG	I	2016/02/11	2016/02/11	125701	4703745	2016/02/11	CORR		USTRCE	
PRCHG	I	2016/02/11	2016/02/11	125718	4699983	2016/02/11	PRCHG	USOTC	USNYSE	
PRCHG	I	2016/02/11	2016/02/11	125718	4699983	2016/02/11	PRCHG	USOTC	USNYSE	
PRCHG	I	2016/02/11	2016/02/11	125732	4703856	2016/02/11	CORR	USTRCE	USNYSE	
PRCHG	I	2016/02/11	2016/02/11	125732	4703856	2016/02/11	CORR	USTRCE	USNYSE	
PRCHG	I	2016/02/11	2016/02/11	125792	4682587	2016/02/10	CORR	IEISE	USBND	
PRCHG	I	2016/02/12	2016/02/12	125835	4702455	2016/02/11	CORR	USBND		
PRCHG	I	2016/02/12	2016/02/12	125836	4702455	2016/02/12	CORR		USTRCE	
PRCHG	I	2016/02/12	2016/02/12	125837	4702491	2016/02/11	CORR	USBND		
PRCHG	I	2016/02/12	2016/02/12	125839	4702491	2016/02/12	CORR		USTRCE	
PRCHG	I	2016/02/12	2016/02/12	125840	4702500	2016/02/11	CORR	USBND		
PRCHG	I	2016/02/12	2016/02/12	125841	4702500	2016/02/12	CORR		USTRCE	
PRCHG	I	2016/02/12	2016/02/12	125843	4702695	2016/02/11	CORR	USBND		
PRCHG	I	2016/02/12	2016/02/12	125844	4702695	2016/02/12	CORR		USTRCE	
PRCHG	I	2016/02/12	2016/02/12	125847	4703072	2016/02/11	CORR	USBND		
PRCHG	I	2016/02/12	2016/02/12	125848	4703072	2016/02/12	CORR		USTRCE	
PRCHG	I	2016/02/13	2016/02/15	125921	4617871	2016/02/12	CORR	USBND		
PRCHG	I	2016/02/13	2016/02/15	125923	4617871	2016/02/13	CORR		USTRCE	
PRCHG	I	2016/02/13	2016/02/15	125958	1547139	2010/08/08	CORR	USTRCE		
PRCHG	I	2016/02/13	2016/02/15	125974	4698314	2016/02/12	CORR	USTRCE	USNYSE	
PRCHG	I	2016/02/13	2016/02/15	125974	4698314	2016/02/12	CORR	USTRCE	USNYSE	
PRCHG	I	2016/02/13	2016/02/15	125975	4702005	2016/02/12	CORR	USTRCE	USNYSE	
PRCHG	I	2016/02/13	2016/02/15	125975	4702005	2016/02/12	CORR	USTRCE	USNYSE	
PRCHG	I	2016/02/13	2016/02/15	125976	1406964	2007/04/12	CORR		USBND	
PRCHG	I	2016/02/15	2016/02/15	125978	4563000	2016/02/12	CORR	USBND		
PRCHG	I	2016/02/15	2016/02/15	125979	4563000	2016/02/13	CORR		USTRCE	
PRCHG	I	2016/02/15	2016/02/15	126021	4704288	2016/02/15	CORR		USBND	
PRCHG	I	2016/02/15	2016/02/15	126022	4704267	2016/02/11	CORR		USBND	
PRCHG	I	2016/02/15	2016/02/15	126023	4704284	2016/02/11	CORR		USBND	
PRCHG	I	2016/02/15	2016/02/15	126024	4704287	2016/02/11	CORR		USBND	
PRCHG	I	2016/02/15	2016/02/15	126026	4704286	2016/02/12	CORR		USTRCE	
PRCHG	I	2016/02/15	2016/02/15	126027	4505854	2015/02/23	CORR	USBND		
PRCHG	I	2016/02/15	2016/02/15	126028	4505854	2015/02/24	CORR		USOTC	
PRCHG	I	2016/02/15	2016/02/15	126056	1401447	2004/08/26	CORR		USBND	
PRCHG	I	2016/02/15	2016/02/15	126057	4691376	2015/04/15	CORR		USBND	
PRCHG	I	2016/02/16	2016/02/16	126098	4450334	2016/02/14	CORR	USBND		
PRCHG	I	2016/02/16	2016/02/16	126100	4450334	2016/02/15	CORR		USTRCE	
PRCHG	I	2016/02/16	2016/02/16	126128	1407279	2007/10/03	CORR		USBND	
PRCHG	I	2016/02/16	2016/02/16	126136	837038	2016/02/15	CORR		USBND	
PRCHG	I	2016/02/16	2016/02/16	126137	2851953	2016/02/15	CORR		USNYSE	
PRCHG	I	2016/02/16	2016/02/16	126138	1547729	2016/02/15	CORR		USBND	
PRCHG	I	2016/02/16	2016/02/16	126139	1546967	2016/02/15	CORR		USBND	
PRCHG	I	2016/02/16	2016/02/16	126145	964004	2007/11/01	CORR	USTRCE		
EDI_ENDOFFILE
