EDI_BBEC_20160218
tablename	ActFlag	Created	Changed	BbecId	SecId	BbeId	Oldexchgcd	Oldcurencd	EffectiveDate	Newexchgcd	Newcurencd	OldbbgexhId	NewbbgexhId	Oldbbgexhtk	Newbbgexhtk	ReleventId	EventType	Notes
BBEC	I	2016/01/18	2016/01/18	99172	4038574	495245			2016/01/17			BBG003SB23Q1	BBG003SB23Q1	RY 2 01/17/25 MTN	RY 2.5 01/17/25 MTN			No further information
BBEC	I	2016/01/18	2016/01/18	99172	4038574	495245			2016/01/17			BBG003SB23Q1	BBG003SB23Q1	RY 2 01/17/25 MTN	RY 2.5 01/17/25 MTN			No further information
BBEC	I	2016/01/18	2016/01/18	99191	4679611	742071			2016/01/15			BBG00BNJMLW2	BBG00BNJMLW2	C 0 07/12/17	C 0 07/12/17 1254			No further information
BBEC	I	2016/01/18	2016/01/18	99192	4666893	734829			2016/01/15			BBG00BP246Y8	BBG00BP246Y8	CS 2.75 03/26/20 WI	CS 2.75 03/26/20			No further information
BBEC	I	2016/01/18	2016/01/18	99192	4666893	734829			2016/01/15			BBG00BP246Y8	BBG00BP246Y8	CS 2.75 03/26/20 WI	CS 2.75 03/26/20			No further information
BBEC	I	2016/01/18	2016/01/18	99193	4666898	734830			2016/01/15			BBG00BP24WX2	BBG00BP24WX2	CS 3.8 09/15/22 WI	CS 3.8 09/15/22			No further information
BBEC	I	2016/01/18	2016/01/18	99193	4666898	734830			2016/01/15			BBG00BP24WX2	BBG00BP24WX2	CS 3.8 09/15/22 WI	CS 3.8 09/15/22			No further information
BBEC	I	2016/01/18	2016/01/18	99194	4666828	734828			2016/01/15			BBG00BP274L4	BBG00BP274L4	CS 3.75 03/26/25 WI	CS 3.75 03/26/25			No further information
BBEC	I	2016/01/18	2016/01/18	99194	4666828	734828			2016/01/15			BBG00BP274L4	BBG00BP274L4	CS 3.75 03/26/25 WI	CS 3.75 03/26/25			No further information
BBEC	I	2016/01/18	2016/01/18	99195	4680116	742072			2016/01/15			BBG00BP9M1R2	BBG00BP9M1R2	C 0 12/06/17	C 0 12/06/17 1544			No further information
BBEC	I	2016/01/18	2016/01/18	99196	4678094	742048			2016/01/15			BBG00BQYYPC6	BBG00BQYYPC6	BACR 0 01/09/19	BACR 0 01/09/19 1444			No further information
BBEC	I	2016/01/18	2016/01/18	99197	4678873	742075			2016/01/15			BBG00BTK0RF3	BBG00BTK0RF3	C 0 01/02/19	C 0 12/31/18 1254			No further information
BBEC	I	2016/01/18	2016/01/18	99198	4676478	742246			2016/01/15			BBG00BTK61T9	BBG00BTK61T9	US 0 01/29/22 0002	GS 0 01/29/22 0002			No further information
BBEC	I	2016/01/18	2016/01/18	99199	4676476	742247			2016/01/15			BBG00BTK61V6	BBG00BTK61V6	US 0 01/29/22 0003	GS 0 01/29/22 0003			No further information
BBEC	I	2016/01/18	2016/01/18	99220	4060092	502572			2016/01/15			BBG004PMH4B6	BBG004PMH4B6	WFC F 01/13/17 MTN	WFC F 02/14/17 MTN			No further information
BBEC	I	2016/01/18	2016/01/18	99220	4060092	502572			2016/01/15			BBG004PMH4B6	BBG004PMH4B6	WFC F 01/13/17 MTN	WFC F 02/14/17 MTN			No further information
BBEC	I	2016/01/18	2016/01/18	99221	4316875	606786			2016/01/17			BBG006QWTC72	BBG006QWTC72	HSBC 0.65 07/17/17	HSBC 1.4 07/17/17			No further information
BBEC	I	2016/01/19	2016/01/19	99262	4611193	715433			2016/01/18			BBG00B2MGNT5	BBG00B2MGNT5	FHLMC 0.5 10/19/18	FHLMC 0.625 10/19/18			No further information
BBEC	I	2016/01/19	2016/01/19	99272	4008635	485044			2016/01/18			BBG0043J7QX5	BBG0043J7QX5	CHCONS 3.125 04/02/18	CHSCOI 3.125 04/02/18			No further information
BBEC	I	2016/01/20	2016/01/20	99290	4305831	601442			2016/01/19			BBG006SY2XV2	BBG006SY2XV2	FHLB 0.72 07/20/18 9018	FHLB 2 07/20/18 9018			No further information
BBEC	I	2016/01/20	2016/01/20	99296	3850049	442751			2016/01/19			BBG002D11KZ4	BBG002D11KZ4	RY 3 01/20/32 MTN	RY 3.5 01/20/32 MTN			No further information
BBEC	I	2016/01/20	2016/01/20	99296	3850049	442751			2016/01/19			BBG002D11KZ4	BBG002D11KZ4	RY 3 01/20/32 MTN	RY 3.5 01/20/32 MTN			No further information
BBEC	I	2016/01/20	2016/01/20	99314	4628557	721673			2016/01/19			BBG00B6S3CF1	BBG00B6S3CF1	B 0 04/21/16	XIB 0 04/21/16			No further information
BBEC	I	2016/01/20	2016/01/20	99323	4565885	702443			2016/01/19			BBG009LR0159	BBG009LR0159	B 0 07/21/16	XIB 0 07/21/16			No further information
BBEC	I	2016/01/21	2016/01/21	99356	4033377	493629			2016/01/20			BBG003D4ZYH9	BBG003D4ZYH9	WFC F 01/19/17 MTN	WFC F 02/17/17 MTN			No further information
BBEC	I	2016/01/21	2016/01/21	99356	4033377	493629			2016/01/20			BBG003D4ZYH9	BBG003D4ZYH9	WFC F 01/19/17 MTN	WFC F 02/17/17 MTN			No further information
BBEC	I	2016/01/22	2016/01/22	99393	4540982	692885			2016/01/21			BBG009H5BD27	BBG009H5BD27	FHLMC 1 07/22/19	FHLMC 1.25 07/22/19			No further information
BBEC	I	2016/01/22	2016/01/22	99395	3880295	444244			2016/01/21			BBG0036RYM56	BBG0036RYM56	NES 9.875 04/15/18	NESC 9.875 04/15/18			No further information
BBEC	I	2016/01/22	2016/01/22	99395	3880295	444244			2016/01/21			BBG0036RYM56	BBG0036RYM56	NES 9.875 04/15/18	NESC 9.875 04/15/18			No further information
BBEC	I	2016/01/22	2016/01/22	99395	3880295	444244			2016/01/21			BBG0036RYM56	BBG0036RYM56	NES 9.875 04/15/18	NESC 9.875 04/15/18			No further information
BBEC	I	2016/01/22	2016/01/22	99396	3988369	478003			2016/01/21			BBG003G0SLS8	BBG003G0SLS8	HTZ 6.25 10/15/22 REGS	HDTFSI 6.25 10/15/22 REGS			No further information
BBEC	I	2016/01/22	2016/01/22	99396	3988369	478003			2016/01/21			BBG003G0SLS8	BBG003G0SLS8	HTZ 6.25 10/15/22 REGS	HDTFSI 6.25 10/15/22 REGS			No further information
BBEC	I	2016/01/22	2016/01/22	99408	4210518	563906			2016/01/21			BBG00636HD75	BBG00636HD75	EIX V5.75 P12/31/49	EIX V5.75 P12/31/49 H			No further information
BBEC	I	2016/01/22	2016/01/22	99408	4210518	563906			2016/01/21			BBG00636HD75	BBG00636HD75	EIX V5.75 P12/31/49	EIX V5.75 P12/31/49 H			No further information
BBEC	I	2016/01/22	2016/01/22	99413	4589338	708478			2016/01/21			BBG009T68K39	BBG009T68K39	GS 0 08/21/30 0000	GS V0 08/21/30 0000			No further information
BBEC	I	2016/01/22	2016/01/22	99419	4426605	650511			2016/01/21			BBG007XGL9G2	BBG007XGL9G2	NGLS 5 01/15/18 144A	NGLS 5 01/15/18			No further information
BBEC	I	2016/01/22	2016/01/22	99420	4055763	501334			2016/01/21			BBG003LNXL33	BBG003LNXL33	NES 9.875 04/15/18 REGs	NESC 9.875 04/15/18 REGs			No further information
BBEC	I	2016/01/22	2016/01/22	99420	4055763	501334			2016/01/21			BBG003LNXL33	BBG003LNXL33	NES 9.875 04/15/18 REGs	NESC 9.875 04/15/18 REGs			No further information
BBEC	I	2016/01/22	2016/01/22	99423	4421684	648686			2016/01/21			BBG007VKNRT9	BBG007VKNRT9	FHLMC 0.75 01/22/18 0000	FHLMC 1.25 01/22/18 0000			No further information
BBEC	I	2016/01/25	2016/01/25	99448	3969730	467509			2016/01/22			BBG003S96337	BBG003S96337	FNMA 0.875 01/23/18	FNMA 1 01/23/18			No further information
BBEC	I	2016/01/25	2016/01/25	99450	4252086	581436			2016/01/22			BBG004M1PTK1	BBG004M1PTK1	JPM F 01/20/17 +3	JPM F 02/22/17 +3			No further information
BBEC	I	2016/01/25	2016/01/25	99452	4034367	493628			2016/01/22			BBG0034YTQT4	BBG0034YTQT4	WFC F 01/20/17 MTN*	WFC F 02/21/17 MTN*			No further information
BBEC	I	2016/01/25	2016/01/25	99452	4034367	493628			2016/01/22			BBG0034YTQT4	BBG0034YTQT4	WFC F 01/20/17 MTN*	WFC F 02/21/17 MTN*			No further information
BBEC	I	2016/01/25	2016/01/25	99454	4027594	491733			2016/01/22			BBG004H13079	BBG004H13079	JPM F 01/20/17 2	JPM F 02/22/17 2			No further information
BBEC	I	2016/01/25	2016/01/25	99454	4027594	491733			2016/01/22			BBG004H13079	BBG004H13079	JPM F 01/20/17 2	JPM F 02/22/17 2			No further information
BBEC	I	2016/01/25	2016/01/25	99468	4684675	744271			2016/01/22			BBG00BVR0VQ4	BBG00BVR0VQ4	JPM 0 01/23/18	JPM 0 01/19/18 0006			No further information
BBEC	I	2016/01/25	2016/01/25	99474	4374344	632047			2016/01/24			BBG0079TL622	BBG0079TL622	C 1.75 10/29/19	C 1.75 10/29/19 MTN			No further information
BBEC	I	2016/01/25	2016/01/25	99480	4676588	742086			2016/01/24			BBG00BTFQSM6	BBG00BTFQSM6	CS 15.5 01/29/18	CS 16.5 01/29/18 0000			No further information
BBEC	I	2016/01/25	2016/01/25	99481	4676492	742087			2016/01/24			BBG00BTFTV00	BBG00BTFTV00	CS 13.5 01/29/18	CS 14.5 01/29/18			No further information
BBEC	I	2016/01/25	2016/01/25	99482	4676581	742085			2016/01/24			BBG00BV67CL0	BBG00BV67CL0	CS 10 07/31/17	CS 11 07/31/17			No further information
BBEC	I	2016/01/25	2016/01/25	99492	675551	412064			2016/01/24			BBG0000DDL18	BBG0000DDL18	ICICI V7.25 P08/29/49 REGS	ICICI V7.25 P12/31/49 REGS			No further information
BBEC	I	2016/01/25	2016/01/25	99492	675551	412064			2016/01/24			BBG0000DDL18	BBG0000DDL18	ICICI V7.25 P08/29/49 REGS	ICICI V7.25 P12/31/49 REGS			No further information
BBEC	I	2016/01/25	2016/01/25	99495	4676474	742088			2016/01/24			BBG00BRGB3L8	BBG00BRGB3L8	CS 8 01/29/19	CS 8.5 01/29/19			No further information
BBEC	I	2016/01/26	2016/01/26	99512	3970373	467551			2016/01/25			BBG001DP5BJ7	BBG001DP5BJ7	JPM 4.25 01/26/26 MTN	JPM 5.25 01/26/26 MTN			No further information
BBEC	I	2016/01/26	2016/01/26	99512	3970373	467551			2016/01/25			BBG001DP5BJ7	BBG001DP5BJ7	JPM 4.25 01/26/26 MTN	JPM 5.25 01/26/26 MTN			No further information
BBEC	I	2016/01/26	2016/01/26	99525	4684701	744270			2016/01/25			BBG00BVHLL67	BBG00BVHLL67	JPM 8.3 01/21/20	JPM 8.4 01/21/20			No further information
BBEC	I	2016/01/26	2016/01/26	99526	4682237	744035			2016/01/25			BBG00BVK8LW6	BBG00BVK8LW6	RABOBK 2.5 01/19/21 MTN	RABOBK 2.5 01/19/21 GMTN			No further information
BBEC	I	2016/01/26	2016/01/26	99527	4686443	744137			2016/01/25			BBG00BVMC9C6	BBG00BVMC9C6	FFCB 3.5 01/15/36	FFCB 3.5 01/15/36 MTN			No further information
BBEC	I	2016/01/26	2016/01/26	99528	4684665	744273			2016/01/25			BBG00BW079H4	BBG00BW079H4	JPM 12.2 02/01/17	JPM V12.2 02/01/17			No further information
BBEC	I	2016/01/26	2016/01/26	99529	4684643	744274			2016/01/25			BBG00BW079K0	BBG00BW079K0	JPM 12.2 02/01/17 0001	JPM V12.2 02/01/17 0001			No further information
BBEC	I	2016/01/27	2016/01/27	99571	4544051	694993			2016/01/26			BBG009GZYB21	BBG009GZYB21	INTAVI 8.25 07/15/17	INTAVI 8.25 07/15/17 144A			No further information
BBEC	I	2016/01/27	2016/01/27	99576	4375968	632245			2016/01/26			BBG007BTXCY8	BBG007BTXCY8	HSBC 0 10/31/16	HSBC V10 10/31/16			No further information
BBEC	I	2016/01/28	2016/01/28	99594	984548	370658			2016/01/27			BBG0000M0DK9	BBG0000M0DK9	ACE 5.8 03/15/18	CB 5.8 03/15/18			No further information
BBEC	I	2016/01/28	2016/01/28	99594	984548	370658			2016/01/27			BBG0000M0DK9	BBG0000M0DK9	ACE 5.8 03/15/18	CB 5.8 03/15/18			No further information
BBEC	I	2016/01/28	2016/01/28	99594	984548	370658			2016/01/27			BBG0000M0DK9	BBG0000M0DK9	ACE 5.8 03/15/18	CB 5.8 03/15/18			No further information
BBEC	I	2016/01/28	2016/01/28	99595	1461078	372391			2016/01/27			BBG0000YBX63	BBG0000YBX63	ACE 5.9 06/15/19	CB 5.9 06/15/19			No further information
BBEC	I	2016/01/28	2016/01/28	99595	1461078	372391			2016/01/27			BBG0000YBX63	BBG0000YBX63	ACE 5.9 06/15/19	CB 5.9 06/15/19			No further information
BBEC	I	2016/01/28	2016/01/28	99595	1461078	372391			2016/01/27			BBG0000YBX63	BBG0000YBX63	ACE 5.9 06/15/19	CB 5.9 06/15/19			No further information
BBEC	I	2016/01/28	2016/01/28	99597	4272185	590105			2016/01/27			BBG003M61JK0	BBG003M61JK0	AVIATR 10.577 01/28/19 144A	AVIATR 10.552 01/28/19 144A			No further information
BBEC	I	2016/01/28	2016/01/28	99598	4272788	589548			2016/01/27			BBG006JR0KD7	BBG006JR0KD7	ACE 3.35 05/15/24	CB 3.35 05/15/24			No further information
BBEC	I	2016/01/28	2016/01/28	99598	4272788	589548			2016/01/27			BBG006JR0KD7	BBG006JR0KD7	ACE 3.35 05/15/24	CB 3.35 05/15/24			No further information
BBEC	I	2016/01/28	2016/01/28	99598	4272788	589548			2016/01/27			BBG006JR0KD7	BBG006JR0KD7	ACE 3.35 05/15/24	CB 3.35 05/15/24			No further information
BBEC	I	2016/01/28	2016/01/28	99601	4462305	664587			2016/01/27			BBG00889YGP4	BBG00889YGP4	ACE 3.15 03/15/25	CB 3.15 03/15/25			No further information
BBEC	I	2016/01/28	2016/01/28	99601	4462305	664587			2016/01/27			BBG00889YGP4	BBG00889YGP4	ACE 3.15 03/15/25	CB 3.15 03/15/25			No further information
BBEC	I	2016/01/28	2016/01/28	99602	261122	364926			2016/01/27			BBG00006F4R1	BBG00006F4R1	ACE 8.875 08/15/29	CB 8.875 08/15/29			No further information
BBEC	I	2016/01/28	2016/01/28	99602	261122	364926			2016/01/27			BBG00006F4R1	BBG00006F4R1	ACE 8.875 08/15/29	CB 8.875 08/15/29			No further information
BBEC	I	2016/01/28	2016/01/28	99602	261122	364926			2016/01/27			BBG00006F4R1	BBG00006F4R1	ACE 8.875 08/15/29	CB 8.875 08/15/29			No further information
BBEC	I	2016/01/28	2016/01/28	99613	1073346	368048			2016/01/27			BBG0000CB759	BBG0000CB759	ACE 6.7 05/15/36	CB 6.7 05/15/36			No further information
BBEC	I	2016/01/28	2016/01/28	99613	1073346	368048			2016/01/27			BBG0000CB759	BBG0000CB759	ACE 6.7 05/15/36	CB 6.7 05/15/36			No further information
BBEC	I	2016/01/28	2016/01/28	99613	1073346	368048			2016/01/27			BBG0000CB759	BBG0000CB759	ACE 6.7 05/15/36	CB 6.7 05/15/36			No further information
BBEC	I	2016/01/28	2016/01/28	99614	3280776	331889			2016/01/27			BBG00289N1B7	BBG00289N1B7	DAEHIM 4.5 11/23/16 EMTN	DAEHIM 4.5 11/23/16			No further information
BBEC	I	2016/01/28	2016/01/28	99615	3972507	469245			2016/01/27			BBG003TNLVW4	BBG003TNLVW4	FNMA 2 01/28/28	FNMA 2.5 01/28/28			No further information
BBEC	I	2016/01/28	2016/01/28	99619	625782	369167			2016/01/27			BBG0000GMS61	BBG0000GMS61	ACE 5.7 02/15/17	CB 5.7 02/15/17			No further information
BBEC	I	2016/01/28	2016/01/28	99619	625782	369167			2016/01/27			BBG0000GMS61	BBG0000GMS61	ACE 5.7 02/15/17	CB 5.7 02/15/17			No further information
BBEC	I	2016/01/28	2016/01/28	99619	625782	369167			2016/01/27			BBG0000GMS61	BBG0000GMS61	ACE 5.7 02/15/17	CB 5.7 02/15/17			No further information
BBEC	I	2016/01/28	2016/01/28	99622	3995690	479296			2016/01/27			BBG0046YZWR2	BBG0046YZWR2	ACE 2.7 03/13/23	CB 2.7 03/13/23			No further information
BBEC	I	2016/01/28	2016/01/28	99622	3995690	479296			2016/01/27			BBG0046YZWR2	BBG0046YZWR2	ACE 2.7 03/13/23	CB 2.7 03/13/23			No further information
BBEC	I	2016/01/28	2016/01/28	99622	3995690	479296			2016/01/27			BBG0046YZWR2	BBG0046YZWR2	ACE 2.7 03/13/23	CB 2.7 03/13/23			No further information
BBEC	I	2016/01/28	2016/01/28	99623	3995703	479297			2016/01/27			BBG0046Z00Y9	BBG0046Z00Y9	ACE 4.15 03/13/43	CB 4.15 03/13/43			No further information
BBEC	I	2016/01/28	2016/01/28	99623	3995703	479297			2016/01/27			BBG0046Z00Y9	BBG0046Z00Y9	ACE 4.15 03/13/43	CB 4.15 03/13/43			No further information
BBEC	I	2016/01/28	2016/01/28	99623	3995703	479297			2016/01/27			BBG0046Z00Y9	BBG0046Z00Y9	ACE 4.15 03/13/43	CB 4.15 03/13/43			No further information
BBEC	I	2016/01/28	2016/01/28	99625	4633906	723060			2016/01/27			BBG00B9Q4CM3	BBG00B9Q4CM3	ACE 2.3 11/03/20	CB 2.3 11/03/20			No further information
BBEC	I	2016/01/28	2016/01/28	99625	4633906	723060			2016/01/27			BBG00B9Q4CM3	BBG00B9Q4CM3	ACE 2.3 11/03/20	CB 2.3 11/03/20			No further information
BBEC	I	2016/01/28	2016/01/28	99626	4633916	723061			2016/01/27			BBG00B9QJFV0	BBG00B9QJFV0	ACE 2.875 11/03/22	CB 2.875 11/03/22			No further information
BBEC	I	2016/01/28	2016/01/28	99626	4633916	723061			2016/01/27			BBG00B9QJFV0	BBG00B9QJFV0	ACE 2.875 11/03/22	CB 2.875 11/03/22			No further information
BBEC	I	2016/01/28	2016/01/28	99627	4633925	723062			2016/01/27			BBG00B9QJFX8	BBG00B9QJFX8	ACE 3.35 05/03/26	CB 3.35 05/03/26			No further information
BBEC	I	2016/01/28	2016/01/28	99627	4633925	723062			2016/01/27			BBG00B9QJFX8	BBG00B9QJFX8	ACE 3.35 05/03/26	CB 3.35 05/03/26			No further information
BBEC	I	2016/01/28	2016/01/28	99628	4633935	723063			2016/01/27			BBG00B9QJG11	BBG00B9QJG11	ACE 4.35 11/03/45	CB 4.35 11/03/45			No further information
BBEC	I	2016/01/28	2016/01/28	99628	4633935	723063			2016/01/27			BBG00B9QJG11	BBG00B9QJG11	ACE 4.35 11/03/45	CB 4.35 11/03/45			No further information
BBEC	I	2016/01/29	2016/01/29	99651	207262	406366			2016/01/28			BBG000043PB9	BBG000043PB9	TELPM 8.35 03/06/17 EMTN	TELPM 8.35 03/06/17 GMTN			No further information
BBEC	I	2016/01/29	2016/01/29	99651	207262	406366			2016/01/28			BBG000043PB9	BBG000043PB9	TELPM 8.35 03/06/17 EMTN	TELPM 8.35 03/06/17 GMTN			No further information
BBEC	I	2016/01/29	2016/01/29	99651	207262	406366			2016/01/28			BBG000043PB9	BBG000043PB9	TELPM 8.35 03/06/17 EMTN	TELPM 8.35 03/06/17 GMTN			No further information
BBEC	I	2016/01/29	2016/01/29	99655	3975059	468668			2016/01/28			BBG00431PPS2	BBG00431PPS2	MIEHOL 6.875 02/06/18 EMTN	MIEHOL 6.875 02/06/18			No further information
BBEC	I	2016/01/29	2016/01/29	99657	4685648	744060			2016/01/28			BBG00BVSGRB0	BBG00BVSGRB0	DB 0 07/19/17	DB 0 07/07/17 0002			No further information
BBEC	I	2016/01/29	2016/01/29	99662	4419056	648579			2016/01/28			BBG007V8MBS3	BBG007V8MBS3	FHLB 0.75 01/29/18	FHLB 1.5 01/29/18			No further information
BBEC	I	2016/01/29	2016/01/29	99663	4420720	648597			2016/01/28			BBG007VHHSF6	BBG007VHHSF6	FHLB 0.75 01/29/18 0000	FHLB 1.25 01/29/18 0000			No further information
BBEC	I	2016/01/29	2016/01/29	99664	4420799	648610			2016/01/28			BBG007VKJZN2	BBG007VKJZN2	FHLB 1.125 01/29/20	FHLB 1.5 01/29/20			No further information
BBEC	I	2016/01/29	2016/01/29	99668	4428266	651997			2016/01/28			BBG007XLQ226	BBG007XLQ226	FHLB 1 01/29/25	FHLB 1.5 01/29/25			No further information
BBEC	I	2016/01/29	2016/01/29	99675	4432256	652037			2016/01/28			BBG00804W828	BBG00804W828	FHLB 2 01/29/30	FHLB 2.8 01/29/30			No further information
BBEC	I	2016/01/29	2016/01/29	99683	4553469	696817			2016/01/28			BBG009L288L3	BBG009L288L3	FHLB 0.625 01/29/20	FHLB 2 01/29/20			No further information
BBEC	I	2016/01/29	2016/01/29	99686	4629407	721501			2016/01/28			BBG00B8GLR08	BBG00B8GLR08	FHLMC 0.5 10/29/18 0000	FHLMC 0.625 10/29/18 0000			No further information
BBEC	I	2016/02/01	2016/02/01	99696	135015	510029			2015/12/21			BBG000007Q49		SBSA 10.75 P12/31/49 B			CORR	No further information
BBEC	I	2016/02/01	2016/02/01	99698	4287661	597171			2015/12/21			BBG006MLLBB5		PVA 6 P12/31/49 B			CORR	No further information
BBEC	I	2016/02/01	2016/02/01	99699	3987687	509821			2015/12/21			BBG0045PKHY3		POST 3.75 P12/31/49			CORR	No further information
BBEC	I	2016/02/01	2016/02/01	99712	1103172	366180			2016/01/29			BBG000088WS2	BBG000088WS2	RRD 5 10/01/33	RRDINC 5 10/01/33			No further information
BBEC	I	2016/02/01	2016/02/01	99712	1103172	366180			2016/01/29			BBG000088WS2	BBG000088WS2	RRD 5 10/01/33	RRDINC 5 10/01/33			No further information
BBEC	I	2016/02/01	2016/02/01	99713	1274501	411876			2016/01/31			BBG0000CYQH9	BBG0000CYQH9	ICICI V7.25 P08/29/49 144A	ICICI V7.25 P12/29/49 144A			No further information
BBEC	I	2016/02/01	2016/02/01	99713	1274501	411876			2016/01/31			BBG0000CYQH9	BBG0000CYQH9	ICICI V7.25 P08/29/49 144A	ICICI V7.25 P12/29/49 144A			No further information
BBEC	I	2016/02/01	2016/02/01	99714	675551	412064			2016/01/31			BBG0000DDL18	BBG0000DDL18	ICICI V7.25 P12/31/49 REGS	ICICI V7.25 P12/29/49 REGS			No further information
BBEC	I	2016/02/01	2016/02/01	99714	675551	412064			2016/01/31			BBG0000DDL18	BBG0000DDL18	ICICI V7.25 P12/31/49 REGS	ICICI V7.25 P12/29/49 REGS			No further information
BBEC	I	2016/02/01	2016/02/01	99717	1719871	407164			2016/01/29			BBG000053DD1	BBG000053DD1	MAGNO F 12/20/16 144A	MAGFIN F 12/20/16 144A			No further information
BBEC	I	2016/02/01	2016/02/01	99718	333147	411185			2016/01/31			BBG0000BH504	BBG0000BH504	RESONA V5.85 P09/29/49 144A	RESONA V5.85 P12/29/49 144A			No further information
BBEC	I	2016/02/01	2016/02/01	99718	333147	411185			2016/01/31			BBG0000BH504	BBG0000BH504	RESONA V5.85 P09/29/49 144A	RESONA V5.85 P12/29/49 144A			No further information
BBEC	I	2016/02/01	2016/02/01	99721	844250	407062			2016/01/29			BBG00004Z0G4	BBG00004Z0G4	MAGNO F 12/20/16 REGS	MAGFIN F 12/20/16 REGS			No further information
BBEC	I	2016/02/01	2016/02/01	99724	2467724	440255			2016/01/31			BBG001DJZMD0	BBG001DJZMD0	RY 3 01/31/22 MTN	RY 5.25 01/31/22 MTN			No further information
BBEC	I	2016/02/01	2016/02/01	99724	2467724	440255			2016/01/31			BBG001DJZMD0	BBG001DJZMD0	RY 3 01/31/22 MTN	RY 5.25 01/31/22 MTN			No further information
BBEC	I	2016/02/01	2016/02/01	99741	3984225	476332			2016/01/31			BBG003SB2NN0	BBG003SB2NN0	FHLB 2.3 02/01/28	FHLB 3 02/01/28			No further information
BBEC	I	2016/02/01	2016/02/01	99743	3975978	471555			2016/01/29			BBG003TLDZT2	BBG003TLDZT2	FNMA 1 01/30/18 0002	FNMA 1.5 01/30/18 0002			No further information
BBEC	I	2016/02/01	2016/02/01	99746	3973784	469255			2016/01/29			BBG0042B0GW3	BBG0042B0GW3	FNMA 1.25 01/30/20 +++*	FNMA 1.5 01/30/20 +++*			No further information
BBEC	I	2016/02/01	2016/02/01	99766	4421773	648719			2016/01/29			BBG007VKDYP9	BBG007VKDYP9	FNMA 1 01/30/30	FNMA 2 01/30/30			No further information
BBEC	I	2016/02/01	2016/02/01	99767	4424418	650300			2016/01/29			BBG007WZCT04	BBG007WZCT04	FHLB 0.625 01/29/18	FHLB 1 01/29/18 0005			No further information
BBEC	I	2016/02/01	2016/02/01	99768	4425521	650514			2016/01/29			BBG007X0G0R0	BBG007X0G0R0	TD 1.6 01/30/20	TD 1.7 01/30/20			No further information
BBEC	I	2016/02/01	2016/02/01	99768	4425521	650514			2016/01/29			BBG007X0G0R0	BBG007X0G0R0	TD 1.6 01/30/20	TD 1.7 01/30/20			No further information
BBEC	I	2016/02/01	2016/02/01	99787	4554286	696880			2016/01/29			BBG009L10KJ9	BBG009L10KJ9	FHLMC 1 07/29/20	FHLMC 1.25 07/29/20 0001			No further information
BBEC	I	2016/02/01	2016/02/01	99788	4554295	696882			2016/01/29			BBG009L1KT71	BBG009L1KT71	FHLMC 0.5 07/30/19	FHLMC 0.75 07/30/19			No further information
BBEC	I	2016/02/01	2016/02/01	99789	4553469	696817			2016/01/29			BBG009L288L3	BBG009L288L3	FHLB 2 01/29/20	FHLB 2 01/29/20 0000			No further information
BBEC	I	2016/02/01	2016/02/01	99790	4560376	702232			2016/01/29			BBG009LQWH51	BBG009LQWH51	FHLMC 0.875 07/29/20	FHLMC 1.25 07/29/20 0002			No further information
BBEC	I	2016/02/01	2016/02/01	99801	4685682	744043			2016/01/29			BBG00BTK57X2	BBG00BTK57X2	CS 13 01/22/19	CS V0 01/22/19 1258			No further information
BBEC	I	2016/02/01	2016/02/01	99803	4689801	745628			2016/01/29			BBG00BVM6JJ4	BBG00BVM6JJ4	C 0 01/02/18	C 0 02/01/18 .			No further information
BBEC	I	2016/02/01	2016/02/01	99804	4684643	744274			2016/01/29			BBG00BW079K0	BBG00BW079K0	JPM V12.2 02/01/17 0001	JPM V0 02/01/17 1523			No further information
BBEC	I	2016/02/01	2016/02/01	99805	4685669	744052			2016/01/29			BBG00BWQFMD3	BBG00BWQFMD3	CS 8 01/22/18 0001	CS V0 01/22/18 1255			No further information
BBEC	I	2016/02/01	2016/02/01	99806	4685678	744053			2016/01/29			BBG00BWQGD88	BBG00BWQGD88	CS 8 01/22/18 0002	CS V0 01/22/18 1256			No further information
BBEC	I	2016/02/02	2016/02/02	99854	2127836	509174			2016/02/01			BBG0016VGLN3	BBG0016VGLN3	FFHCN V5 P12/31/49 I	FFHCN V3.3 P12/31/49 I			No further information
BBEC	I	2016/02/02	2016/02/02	99883	4640690	726237			2016/02/01			BBG00BBK3H52	BBG00BBK3H52	B 0 05/05/16	XIB 0 05/05/16			No further information
BBEC	I	2016/02/02	2016/02/02	99884	4689762	745597			2016/02/01			BBG00BNSG251	BBG00BNSG251	BMO 0 01/27/17	BMO 0 01/27/17 1556			No further information
BBEC	I	2016/02/02	2016/02/02	99887	4309981	603167			2016/02/01			BBG006T615S8	BBG006T615S8	MS V3 07/30/24 MTN	MS V0 07/30/24 MTN			No further information
BBEC	I	2016/02/02	2016/02/02	99889	4676141	740772			2016/02/01			BBG00BSF9840	BBG00BSF9840	BACR 5.65 07/05/17	BACR V5.65 07/05/17			No further information
BBEC	I	2016/02/02	2016/02/02	99890	4676145	740771			2016/02/01			BBG00BSF9LS5	BBG00BSF9LS5	BACR 5.45 06/05/17	BACR V5.45 06/05/17			No further information
BBEC	I	2016/02/02	2016/02/02	99891	4689769	745880			2016/02/01			BBG00BSFSQR4	BBG00BSFSQR4	RY 0 01/19/18	RY 0 01/19/18 1256			No further information
BBEC	I	2016/02/02	2016/02/02	99892	4683628	744013			2016/02/01			BBG00BSG9526	BBG00BSG9526	BACR V0 01/18/19	BACR V0 01/18/19 5451			No further information
BBEC	I	2016/02/02	2016/02/02	99893	4683638	744011			2016/02/01			BBG00BSG9553	BBG00BSG9553	BACR 0 01/18/18	BACR 0 01/18/18 1254			No further information
BBEC	I	2016/02/02	2016/02/02	99894	4676588	742086			2016/02/01			BBG00BTFQSM6	BBG00BTFQSM6	CS 16.5 01/29/18 0000	CS 0 01/29/18 0013			No further information
BBEC	I	2016/02/02	2016/02/02	99895	4676492	742087			2016/02/01			BBG00BTFTV00	BBG00BTFTV00	CS 14.5 01/29/18	CS 0 01/29/18 0012			No further information
BBEC	I	2016/02/02	2016/02/02	99896	4690803	745783			2016/02/01			BBG00BTK8SF3	BBG00BTK8SF3	HSBC 0 01/24/23	HSBC V0 01/24/23 1515			No further information
BBEC	I	2016/02/02	2016/02/02	99897	4684659	743985			2016/02/01			BBG00BVMGQN2	BBG00BVMGQN2	BACR 0 11/02/17	BACR 0 11/02/17 1256			No further information
BBEC	I	2016/02/02	2016/02/02	99898	4684683	744272			2016/02/01			BBG00BVR0VP5	BBG00BVR0VP5	JPM 0 01/18/18	JPM 0 01/18/18 1256			No further information
BBEC	I	2016/02/02	2016/02/02	99899	4684675	744271			2016/02/01			BBG00BVR0VQ4	BBG00BVR0VQ4	JPM 0 01/19/18 0006	JPM V0 01/19/18 0006			No further information
BBEC	I	2016/02/02	2016/02/02	99900	4685688	744049			2016/02/01			BBG00BVVHLH9	BBG00BVVHLH9	CS 9.25 01/22/18	CS V0 01/22/18 4747			No further information
BBEC	I	2016/02/02	2016/02/02	99902	4684665	744273			2016/02/01			BBG00BW079H4	BBG00BW079H4	JPM V12.2 02/01/17	JPM V0 02/01/17 1256			No further information
BBEC	I	2016/02/02	2016/02/02	99903	4687125	745819			2016/02/01			BBG00BW079L9	BBG00BW079L9	JPM 0 02/01/17	JPM 0 02/01/17 1254			No further information
BBEC	I	2016/02/02	2016/02/02	99904	4690805	745818			2016/02/01			BBG00BWDPT37	BBG00BWDPT37	JPM 8.75 01/30/18	JPM 11.95 01/30/18			No further information
BBEC	I	2016/02/02	2016/02/02	99905	4687119	745823			2016/02/01			BBG00BWLWPS2	BBG00BWLWPS2	JPM 0 01/19/18 0005	JPM 7.8 01/23/17 1256			No further information
BBEC	I	2016/02/02	2016/02/02	99906	4690684	745805			2016/02/01			BBG00BWLWQ00	BBG00BWLWQ00	JPM 9 01/23/17	JPM 9 01/23/17 1256			No further information
BBEC	I	2016/02/02	2016/02/02	99907	4690756	745824			2016/02/01			BBG00BWLWRS8	BBG00BWLWRS8	JPM 0 01/30/17	JPM 9.75 01/30/17			No further information
BBEC	I	2016/02/02	2016/02/02	99909	4688751	745919			2016/02/01			BBG00BYR0TK2	BBG00BYR0TK2	WFC 0 01/24/18	WFC 0 01/24/18 4521			No further information
BBEC	I	2016/02/02	2016/02/02	99911	4690734	745921			2016/02/01			BBG00C0BDLS7	BBG00C0BDLS7	WFC 0 07/26/17	WFC 0 07/26/17 1256			No further information
BBEC	I	2016/02/03	2016/02/03	99933	2127836	509174			2016/02/02			BBG0016VGLN3	BBG0016VGLN3	FFHCN V3.3 P12/31/49 I	FFHCN V3.708 P12/31/49 I			No further information
BBEC	I	2016/02/03	2016/02/03	99958	4688775	745813			2016/02/02			BBG00BSCG251	BBG00BSCG251	JPM 0 04/25/17	JPM 6 04/25/17 1546			No further information
BBEC	I	2016/02/03	2016/02/03	99961	4687122	745814			2016/02/02			BBG00BTCSMF2	BBG00BTCSMF2	JPM 0 01/24/18	JPM 0 01/24/18 1256			No further information
BBEC	I	2016/02/03	2016/02/03	99962	4687092	745631			2016/02/02			BBG00BTG2XH5	BBG00BTG2XH5	CS 0 01/16/18	CS 0 01/16/18 1258			No further information
BBEC	I	2016/02/03	2016/02/03	99963	4689799	745629			2016/02/02			BBG00BTG6L32	BBG00BTG6L32	C 0 05/25/17	C 0 04/25/17 5635			No further information
BBEC	I	2016/02/03	2016/02/03	99964	4688762	745625			2016/02/02			BBG00BTK0N99	BBG00BTK0N99	C 10 01/23/17	C 10 01/24/17 1254			No further information
BBEC	I	2016/02/03	2016/02/03	99965	4688763	745626			2016/02/02			BBG00BV5N4W0	BBG00BV5N4W0	C 0 07/26/17	C 0 07/26/17 1264			No further information
BBEC	I	2016/02/03	2016/02/03	99966	4684702	743991			2016/02/02			BBG00BVBGXK4	BBG00BVBGXK4	BACR 0 07/25/17	BACR 0 07/25/17 2452			No further information
BBEC	I	2016/02/03	2016/02/03	99967	4688766	745627			2016/02/02			BBG00BVBP9P2	BBG00BVBP9P2	C 0 01/24/18	C 0 01/24/18 1256			No further information
BBEC	I	2016/02/03	2016/02/03	99968	4682184	744224			2016/02/02			BBG00BVMMX23	BBG00BVMMX23	HSBC 0 01/26/18	HSBC 0 01/26/18 5635			No further information
BBEC	I	2016/02/03	2016/02/03	99970	4684731	743972			2016/02/02			BBG00BW38K28	BBG00BW38K28	BMO 0 01/26/18	BMO 0 01/26/18 4525			No further information
BBEC	I	2016/02/03	2016/02/03	99971	4689786	745851			2016/02/02			BBG00BWN2HY2	BBG00BWN2HY2	MS 0 01/27/21	MS 0 01/27/21 1254			No further information
BBEC	I	2016/02/03	2016/02/03	99972	4687088	745630			2016/02/02			BBG00BYJLDF8	BBG00BYJLDF8	CS 11 01/23/17	CS 11 01/23/17 1256			No further information
BBEC	I	2016/02/03	2016/02/03	99973	4688736	745782			2016/02/02			BBG00BYP6QW3	BBG00BYP6QW3	HSBC 0 07/25/18	HSBC 0 07/25/18 5245			No further information
BBEC	I	2016/02/03	2016/02/03	99974	4687096	745920			2016/02/02			BBG00BYQGJ65	BBG00BYQGJ65	WFC V1.5 01/22/19 *	WFC V1.5 01/22/19 1256			No further information
BBEC	I	2016/02/03	2016/02/03	99975	4688748	745634			2016/02/02			BBG00BYQPZP8	BBG00BYQPZP8	CS 10 01/25/17	CS V0 01/25/17 3365			No further information
BBEC	I	2016/02/03	2016/02/03	99976	4687127	745820			2016/02/02			BBG00BYQX4M1	BBG00BYQX4M1	JPM 0 01/16/19	JPM V0 01/22/19 1256			No further information
BBEC	I	2016/02/03	2016/02/03	99977	4689822	745780			2016/02/02			BBG00BZ0Q5J6	BBG00BZ0Q5J6	HSBC 0 02/15/17	HSBC V0 02/15/17 5245			No further information
BBEC	I	2016/02/03	2016/02/03	99980	4690789	745873			2016/02/02			BBG00BZWV635	BBG00BZWV635	RY 0 07/25/19	RY 0 07/25/19 1455			No further information
BBEC	I	2016/02/03	2016/02/03	99981	4690741	745913			2016/02/02			BBG00BZX03T6	BBG00BZX03T6	UBS 0 07/28/17	UBS V0 07/28/17 5354			No further information
BBEC	I	2016/02/04	2016/02/04	100001	1669175	415250			2016/02/03			BBG0000QKQD7	BBG0000QKQD7	OAK 6.75 12/02/19 REGS	OAKCAM 6.75 12/02/19 REGS			No further information
BBEC	I	2016/02/04	2016/02/04	100004	3953305	462097			2016/02/03			BBG003QH1513	BBG003QH1513	IACI 4.75 12/15/22 REGS	IAC 4.75 12/15/22 REGS			No further information
BBEC	I	2016/02/04	2016/02/04	100004	3953305	462097			2016/02/03			BBG003QH1513	BBG003QH1513	IACI 4.75 12/15/22 REGS	IAC 4.75 12/15/22 REGS			No further information
BBEC	I	2016/02/04	2016/02/04	100005	3648149	443331			2016/02/03			BBG002R2CV09	BBG002R2CV09	ASCMA 9.125 04/01/20 REGS	MONINT 9.125 04/01/20 REGS			No further information
BBEC	I	2016/02/04	2016/02/04	100005	3648149	443331			2016/02/03			BBG002R2CV09	BBG002R2CV09	ASCMA 9.125 04/01/20 REGS	MONINT 9.125 04/01/20 REGS			No further information
BBEC	I	2016/02/04	2016/02/04	100006	3866800	444089			2016/02/03			BBG003590DW4	BBG003590DW4	ASCMA 9.125 04/01/20	MONINT 9.125 04/01/20			No further information
BBEC	I	2016/02/04	2016/02/04	100006	3866800	444089			2016/02/03			BBG003590DW4	BBG003590DW4	ASCMA 9.125 04/01/20	MONINT 9.125 04/01/20			No further information
BBEC	I	2016/02/04	2016/02/04	100022	4073280	507082			2016/02/03			BBG004Q00F08	BBG004Q00F08	IACI 4.75 12/15/22	IAC 4.75 12/15/22			No further information
BBEC	I	2016/02/04	2016/02/04	100022	4073280	507082			2016/02/03			BBG004Q00F08	BBG004Q00F08	IACI 4.75 12/15/22	IAC 4.75 12/15/22			No further information
BBEC	I	2016/02/04	2016/02/04	100023	4075692	510628			2016/02/03			BBG004TNRLM9	BBG004TNRLM9	ASCMA 9.125 04/01/20 144a	MONINT 9.125 04/01/20 144a			No further information
BBEC	I	2016/02/04	2016/02/04	100023	4075692	510628			2016/02/03			BBG004TNRLM9	BBG004TNRLM9	ASCMA 9.125 04/01/20 144a	MONINT 9.125 04/01/20 144a			No further information
BBEC	I	2016/02/04	2016/02/04	100024	4076276	510883			2016/02/03			BBG004TPGVL5	BBG004TPGVL5	ASCMA 9.125 04/01/20 REGs	MONINT 9.125 04/01/20 REGs			No further information
BBEC	I	2016/02/04	2016/02/04	100024	4076276	510883			2016/02/03			BBG004TPGVL5	BBG004TPGVL5	ASCMA 9.125 04/01/20 REGs	MONINT 9.125 04/01/20 REGs			No further information
BBEC	I	2016/02/04	2016/02/04	100026	1669179	414674			2016/02/03			BBG0000MX8B4	BBG0000MX8B4	OAK 6.75 12/02/19 144A	OAKCAM 6.75 12/02/19 144A			No further information
BBEC	I	2016/02/04	2016/02/04	100026	1669179	414674			2016/02/03			BBG0000MX8B4	BBG0000MX8B4	OAK 6.75 12/02/19 144A	OAKCAM 6.75 12/02/19 144A			No further information
BBEC	I	2016/02/04	2016/02/04	100027	4143687	535386			2016/02/03			BBG005KRWSJ9	BBG005KRWSJ9	IACI 4.875 11/30/18 144A	IAC 4.875 11/30/18 144A			No further information
BBEC	I	2016/02/04	2016/02/04	100027	4143687	535386			2016/02/03			BBG005KRWSJ9	BBG005KRWSJ9	IACI 4.875 11/30/18 144A	IAC 4.875 11/30/18 144A			No further information
BBEC	I	2016/02/04	2016/02/04	100028	4141517	535522			2016/02/03			BBG005KSYRY0	BBG005KSYRY0	IACI 4.875 11/30/18 REGS	IAC 4.875 11/30/18 REGS			No further information
BBEC	I	2016/02/04	2016/02/04	100028	4141517	535522			2016/02/03			BBG005KSYRY0	BBG005KSYRY0	IACI 4.875 11/30/18 REGS	IAC 4.875 11/30/18 REGS			No further information
BBEC	I	2016/02/04	2016/02/04	100035	4213517	564934			2016/02/03			BBG005ZNMW04	BBG005ZNMW04	IACI 4.875 11/30/18	IAC 4.875 11/30/18			No further information
BBEC	I	2016/02/04	2016/02/04	100043	4690810	745870			2016/02/03			BBG00BS4Y6C2	BBG00BS4Y6C2	RY 2.75 01/26/26	RY 2.75 01/26/26 1254			No further information
BBEC	I	2016/02/04	2016/02/04	100044	4678082	742387			2016/02/03			BBG00BT7ML89	BBG00BT7ML89	WFC V0 01/26/26	WFC V0 01/26/26 1256			No further information
BBEC	I	2016/02/04	2016/02/04	100045	4690737	745641			2016/02/03			BBG00BZW7YV0	BBG00BZW7YV0	CS 15.4 07/27/18	CS V0 07/27/18 1444			No further information
BBEC	I	2016/02/05	2016/02/05	100061	2301382	410217			2016/02/04			BBG000092RF1	BBG000092RF1	TEBNKZ 14 06/30/22 144A	ALLIBK 14 06/30/22 144A			No further information
BBEC	I	2016/02/05	2016/02/05	100061	2301382	410217			2016/02/04			BBG000092RF1	BBG000092RF1	TEBNKZ 14 06/30/22 144A	ALLIBK 14 06/30/22 144A			No further information
BBEC	I	2016/02/05	2016/02/05	100062	1986345	410285			2016/02/04			BBG000094TZ3	BBG000094TZ3	TEBNKZ 14 06/30/22 REGS	ALLIBK 14 06/30/22 REGS			No further information
BBEC	I	2016/02/05	2016/02/05	100063	4007205	483830			2016/02/04			BBG003FT3CF7	BBG003FT3CF7	SHBASS F 02/03/17	SHBASS F 03/03/17			No further information
BBEC	I	2016/02/05	2016/02/05	100065	4690708	745652			2016/02/04			BBG00BZVB5T3	BBG00BZVB5T3	DB 0 02/24/17	DB 0 02/24/17 1255			No further information
BBEC	I	2016/02/05	2016/02/05	100066	4690799	745871			2016/02/04			BBG00BZWZ6X8	BBG00BZWZ6X8	RY 0 03/27/18	RY 0 03/27/18 1111			No further information
BBEC	I	2016/02/05	2016/02/05	100067	4690791	745825			2016/02/04			BBG00C0DBR75	BBG00C0DBR75	JPM 8.5 01/29/19	JPM V0 01/29/19 2565			No further information
BBEC	I	2016/02/05	2016/02/05	100079	4435130	653732			2016/02/04			BBG0080XVD06	BBG0080XVD06	XNPT 2.5 02/01/22 144A	XNPT 2.5 02/01/22			No further information
BBEC	I	2016/02/05	2016/02/05	100080	146699	143109			2016/02/04			BBG00000J8T9	BBG00000J8T9	LLOYDS F P11/29/49 +2	LLOYDS F 11/29/49 +2			No further information
BBEC	I	2016/02/05	2016/02/05	100092	4676474	742088			2016/02/04			BBG00BRGB3L8	BBG00BRGB3L8	CS 8.5 01/29/19	CS V0 01/29/19 1256			No further information
BBEC	I	2016/02/05	2016/02/05	100093	4676581	742085			2016/02/04			BBG00BV67CL0	BBG00BV67CL0	CS 11 07/31/17	CS 0 07/31/17 1562			No further information
BBEC	I	2016/02/05	2016/02/05	100095	4690759	745633			2016/02/04			BBG00BWHL3K0	BBG00BWHL3K0	CS 0 02/27/17	CS 0 02/27/17 1256			No further information
BBEC	I	2016/02/05	2016/02/05	100096	4690756	745824			2016/02/04			BBG00BWLWRS8	BBG00BWLWRS8	JPM 9.75 01/30/17	JPM V0 01/30/17 1256			No further information
BBEC	I	2016/02/08	2016/02/08	100169	4008161	483474			2016/02/05			BBG004331Z84	BBG004331Z84	AXTEL 8 01/31/20 144a	AXTEL 9 01/31/20 144a			No further information
BBEC	I	2016/02/08	2016/02/08	100201	4362847	627445			2016/02/05			BBG007809PY3	BBG007809PY3	SOCGEN 0 01/12/17 0000	SOCGEN 0 10/13/16 0007			No further information
BBEC	I	2016/02/08	2016/02/08	100213	4676114	740796			2016/02/05			BBG00BH8L0Z7	BBG00BH8L0Z7	CS 8 01/07/19 0000	CS 7 02/26/21			No further information
BBEC	I	2016/02/08	2016/02/08	100214	4677210	742252			2016/02/05			BBG00BSDZNR8	BBG00BSDZNR8	HSBC 0 01/29/19	HSBC 0 01/29/19 0022			No further information
BBEC	I	2016/02/08	2016/02/08	100215	4677235	742255			2016/02/05			BBG00BSDZYS3	BBG00BSDZYS3	HSBC 0 07/29/20	HSBC 0 07/29/20 0023			No further information
BBEC	I	2016/02/08	2016/02/08	100216	4685683	744014			2016/02/05			BBG00BSG9535	BBG00BSG9535	BACR 0 02/28/17	BACR 0 02/28/17 0024			No further information
BBEC	I	2016/02/08	2016/02/08	100217	4685649	744004			2016/02/05			BBG00BTK8TC4	BBG00BTK8TC4	BACR V0 01/29/19	BACR 10.5 01/29/19 4165			No further information
BBEC	I	2016/02/08	2016/02/08	100218	4680132	742344			2016/02/05			BBG00BV5Y699	BBG00BV5Y699	RY V0 02/07/17	RY V0 02/07/17 1256			No further information
BBEC	I	2016/02/08	2016/02/08	100219	4682212	744342			2016/02/05			BBG00BVLPRT6	BBG00BVLPRT6	RY 0 01/31/19	RY 0 01/31/19 1256			No further information
BBEC	I	2016/02/08	2016/02/08	100220	4682218	744343			2016/02/05			BBG00BVLQDZ9	BBG00BVLQDZ9	RY 0 01/29/21	RY 0 01/29/21 1256			No further information
BBEC	I	2016/02/08	2016/02/08	100221	4689801	745628			2016/02/05			BBG00BVM6JJ4	BBG00BVM6JJ4	C 0 02/01/18 .	C 0 02/01/18 1254			No further information
BBEC	I	2016/02/08	2016/02/08	100222	4008227	483932			2016/02/05			BBG00433FY64	BBG00433FY64	AXTEL 8 01/31/20 REGs	AXTEL 9 01/31/20 REGs			No further information
BBEC	I	2016/02/08	2016/02/08	100233	4687127	745820			2016/02/05			BBG00BYQX4M1	BBG00BYQX4M1	JPM V0 01/22/19 1256	JPM 10 01/22/19			No further information
BBEC	I	2016/02/09	2016/02/09	100253	4389950	638581			2016/02/08			BBG007K8V385	BBG007K8V385	LGIH 4.25 11/15/19 144A	LGIH 4.25 11/15/19			No further information
BBEC	I	2016/02/09	2016/02/09	100267	261106	362406			2016/02/08			BBG00002S7Z0	BBG00002S7Z0	ACE 9.7 04/01/30	CB 9.7 04/01/30			No further information
BBEC	I	2016/02/09	2016/02/09	100267	261106	362406			2016/02/08			BBG00002S7Z0	BBG00002S7Z0	ACE 9.7 04/01/30	CB 9.7 04/01/30			No further information
BBEC	I	2016/02/09	2016/02/09	100267	261106	362406			2016/02/08			BBG00002S7Z0	BBG00002S7Z0	ACE 9.7 04/01/30	CB 9.7 04/01/30			No further information
BBEC	I	2016/02/09	2016/02/09	100268	4251347	581424			2016/02/08			BBG001DM5543	BBG001DM5543	JPM 3.25 02/09/26 0000	JPM 4.25 02/09/26 0000			No further information
BBEC	I	2016/02/09	2016/02/09	100270	4207515	562713			2016/02/08			BBG001QL5QZ1	BBG001QL5QZ1	SHBASS F 02/07/17 144A	SHBASS F 03/08/17 144A			No further information
BBEC	I	2016/02/09	2016/02/09	100272	4438129	655563			2016/02/08			BBG0081SRWL6	BBG0081SRWL6	NFLX 5.5 02/15/22 144A	NFLX 5.5 02/15/22			No further information
BBEC	I	2016/02/09	2016/02/09	100273	4438139	655564			2016/02/08			BBG0081SYHF8	BBG0081SYHF8	NFLX 5.875 02/15/25 144A	NFLX 5.875 02/15/25			No further information
BBEC	I	2016/02/09	2016/02/09	100275	4644281	728017			2016/02/08			BBG00BDC7ZN4	BBG00BDC7ZN4	B 0 05/12/16	XIB 0 05/12/16			No further information
BBEC	I	2016/02/09	2016/02/09	100279	4685665	743975			2016/02/08			BBG00BRBB598	BBG00BRBB598	BACR 0 01/29/21	BACR 0 01/29/21 0026			No further information
BBEC	I	2016/02/09	2016/02/09	100280	4685676	743977			2016/02/08			BBG00BRBC8H2	BBG00BRBC8H2	BACR 0 07/29/19	BACR 0 07/29/19 0026			No further information
BBEC	I	2016/02/09	2016/02/09	100281	4685639	743978			2016/02/08			BBG00BRG7V22	BBG00BRG7V22	BACR 14 07/27/18	BACR 0 07/27/18 0028			No further information
BBEC	I	2016/02/09	2016/02/09	100282	4685672	743979			2016/02/08			BBG00BSG9V92	BBG00BSG9V92	BACR 10 01/29/26	BACR V10 01/29/26 0025			No further information
BBEC	I	2016/02/09	2016/02/09	100283	4677185	742268			2016/02/08			BBG00BT5D515	BBG00BT5D515	HSBC 0 01/31/19	HSBC 0 01/31/19 0028			No further information
BBEC	I	2016/02/09	2016/02/09	100285	4694636	747358			2016/02/08			BBG00C0H8FJ3	BBG00C0H8FJ3	RY 0 05/25/21	RY 0 05/25/21 0025			No further information
BBEC	I	2016/02/10	2016/02/10	100317	4070649	505440			2016/02/09			BBG0042MP3H8	BBG0042MP3H8	GS V9 02/11/28 MTN	GS V0 02/11/28 MTN			No further information
BBEC	I	2016/02/10	2016/02/10	100317	4070649	505440			2016/02/09			BBG0042MP3H8	BBG0042MP3H8	GS V9 02/11/28 MTN	GS V0 02/11/28 MTN			No further information
BBEC	I	2016/02/10	2016/02/10	100320	4693762	747125			2016/02/09			BBG00BRZVLX1	BBG00BRZVLX1	CS 8.5 07/31/17	CS 10.45 02/11/19			No further information
BBEC	I	2016/02/10	2016/02/10	100321	4689777	745904			2016/02/09			BBG00BV68927	BBG00BV68927	SPB 6.125 12/15/24 WI	SPB 6.125 12/15/24			No further information
BBEC	I	2016/02/10	2016/02/10	100321	4689777	745904			2016/02/09			BBG00BV68927	BBG00BV68927	SPB 6.125 12/15/24 WI	SPB 6.125 12/15/24			No further information
BBEC	I	2016/02/10	2016/02/10	100322	4684592	743970			2016/02/09			BBG00BVVS8J4	BBG00BVVS8J4	BNP 0 03/20/17	BNP 0 03/20/17 144A			No further information
BBEC	I	2016/02/10	2016/02/10	100323	4690805	745818			2016/02/09			BBG00BWDPT37	BBG00BWDPT37	JPM 11.95 01/30/18	JPM V0 01/30/18 1256			No further information
BBEC	I	2016/02/10	2016/02/10	100324	4687086	745608			2016/02/09			BBG00BYR1RV3	BBG00BYR1RV3	BACR 0 05/09/17	BACR 0 05/04/17 0025			No further information
BBEC	I	2016/02/10	2016/02/10	100325	4695531	747089			2016/02/09			BBG00BZWD8W9	BBG00BZWD8W9	BACR V0 01/30/18	BACR V0 01/30/18 1156			No further information
BBEC	I	2016/02/10	2016/02/10	100326	4694706	747320			2016/02/09			BBG00C01ZCB3	BBG00C01ZCB3	JPM 8.15 02/02/22	JPM V0 02/02/22 0025			No further information
BBEC	I	2016/02/10	2016/02/10	100327	4691592	745842			2016/02/09			BBG00C025R76	BBG00C025R76	MS 2.45 02/01/19	MS 2.45 02/01/19 GMTN			No further information
BBEC	I	2016/02/10	2016/02/10	100328	4691615	745844			2016/02/09			BBG00C025VB2	BBG00C025VB2	MS 3.875 01/27/26	MS 3.875 01/27/26 GMTN			No further information
BBEC	I	2016/02/10	2016/02/10	100329	4691601	745843			2016/02/09			BBG00C03T2V6	BBG00C03T2V6	MS F 02/01/19 MTN	MS F 02/01/19 GMTN			No further information
BBEC	I	2016/02/10	2016/02/10	100330	4696754	747157			2016/02/09			BBG00C0NPG81	BBG00C0NPG81	CS 10 02/22/17 0001	CS 0 02/22/19			No further information
BBEC	I	2016/02/11	2016/02/11	100352	3980678	475384			2016/02/10			BBG0043QDCF3	BBG0043QDCF3	GOLLBZ 10.75 02/12/23 144A	VRGLIN 10.75 02/12/23 144A			No further information
BBEC	I	2016/02/11	2016/02/11	100352	3980678	475384			2016/02/10			BBG0043QDCF3	BBG0043QDCF3	GOLLBZ 10.75 02/12/23 144A	VRGLIN 10.75 02/12/23 144A			No further information
BBEC	I	2016/02/11	2016/02/11	100353	3980402	475406			2016/02/10			BBG0043WPRN5	BBG0043WPRN5	GOLLBZ 10.75 02/12/23 REGS	VRGLIN 10.75 02/12/23 REGS			No further information
BBEC	I	2016/02/11	2016/02/11	100353	3980402	475406			2016/02/10			BBG0043WPRN5	BBG0043WPRN5	GOLLBZ 10.75 02/12/23 REGS	VRGLIN 10.75 02/12/23 REGS			No further information
BBEC	I	2016/02/11	2016/02/11	100356	4198436	558783			2016/02/10			BBG005ZPC6S7	BBG005ZPC6S7	GOLLBZ 0.622 02/14/16	VRGLIN 0.622 02/14/16			No further information
BBEC	I	2016/02/11	2016/02/11	100356	4198436	558783			2016/02/10			BBG005ZPC6S7	BBG005ZPC6S7	GOLLBZ 0.622 02/14/16	VRGLIN 0.622 02/14/16			No further information
BBEC	I	2016/02/11	2016/02/11	100369	4430553	652079			2016/02/10			BBG007Z59T01	BBG007Z59T01	FHLMC 1 02/11/20	FHLMC 1.5 02/11/20			No further information
BBEC	I	2016/02/11	2016/02/11	100376	4463432	664958			2016/02/10			BBG0088BP4F7	BBG0088BP4F7	GOLLBZ 0.983 03/13/18	VRGLIN 0.983 03/13/18			No further information
BBEC	I	2016/02/11	2016/02/11	100398	4645117	727928			2016/02/10			BBG00BFHY5M8	BBG00BFHY5M8	IADB F 10/15/20	IADB F 10/15/20 GMTN			No further information
BBEC	I	2016/02/11	2016/02/11	100399	4693777	747145			2016/02/10			BBG00C02QMD7	BBG00C02QMD7	CS 8 08/04/17	CS 0 08/04/17 3453			No further information
BBEC	I	2016/02/11	2016/02/11	100400	4693772	747146			2016/02/10			BBG00C0307C7	BBG00C0307C7	CS 10 02/13/17	CS 0 02/13/17 3543			No further information
BBEC	I	2016/02/11	2016/02/11	100401	4696744	747148			2016/02/10			BBG00C09VRD5	BBG00C09VRD5	CS 0 08/01/17	CS 0 08/01/17 1356			No further information
BBEC	I	2016/02/11	2016/02/11	100402	4694672	747117			2016/02/10			BBG00C0GX0K8	BBG00C0GX0K8	C 0.0001 06/28/19 MTN	C V0.0001 06/28/19 MTN			No further information
BBEC	I	2016/02/11	2016/02/11	100408	4560453	702229			2016/02/10			BBG009LM19V3	BBG009LM19V3	FHLMC 0.5 08/11/17	FHLMC 0.75 08/11/17			No further information
BBEC	I	2016/02/12	2016/02/12	100421	4309145	603176			2016/02/11			BBG004PFRKG9	BBG004PFRKG9	RY F 02/10/17 144A	RY F 03/10/17 144A			No further information
BBEC	I	2016/02/12	2016/02/12	100421	4309145	603176			2016/02/11			BBG004PFRKG9	BBG004PFRKG9	RY F 02/10/17 144A	RY F 03/10/17 144A			No further information
BBEC	I	2016/02/12	2016/02/12	100422	4696703	747121			2016/02/11			BBG00BS06CK9	BBG00BS06CK9	CS 10 08/03/17	CS 10 08/03/17 1256			No further information
BBEC	I	2016/02/12	2016/02/12	100423	4678718	742074			2016/02/11			BBG00BT75WF6	BBG00BT75WF6	C 0 08/05/19	C 0 08/05/19 2432			No further information
BBEC	I	2016/02/12	2016/02/12	100424	4696722	747122			2016/02/11			BBG00BTFVG00	BBG00BTFVG00	CS 0 02/03/21	CS 0 02/03/21 1266			No further information
BBEC	I	2016/02/12	2016/02/12	100425	4696764	747137			2016/02/11			BBG00BVLB7X0	BBG00BVLB7X0	CS 7.75 02/03/21	CS V0 02/03/21 1256			No further information
BBEC	I	2016/02/12	2016/02/12	100426	4697517	748893			2016/02/11			BBG00C0KMMP8	BBG00C0KMMP8	DB 0 02/06/18	DB 0 02/06/18 0021			No further information
BBEC	I	2016/02/12	2016/02/12	100432	4430648	652205			2016/02/11			BBG007Z6CWK6	BBG007Z6CWK6	SUNE 2.375 04/15/22 144A	SUNE 2.375 04/15/22			No further information
BBEC	I	2016/02/12	2016/02/12	100445	4442344	657137			2016/02/11			BBG00830JQJ0	BBG00830JQJ0	FHLB 2.25 02/12/30	FHLB 2.875 02/12/30			No further information
BBEC	I	2016/02/12	2016/02/12	100449	4634686	723211			2016/02/11			BBG00B9V80M4	BBG00B9V80M4	FHLB 0.5 11/12/20 0000	FHLB 1.95 11/12/20 0000			No further information
BBEC	I	2016/02/15	2016/02/15	100477	402743	411931			2016/02/12			BBG0000D2XL2	BBG0000D2XL2	UBS 5.875 07/15/16 MTN	UBS 5.875 07/15/16 GMTN			No further information
BBEC	I	2016/02/15	2016/02/15	100477	402743	411931			2016/02/12			BBG0000D2XL2	BBG0000D2XL2	UBS 5.875 07/15/16 MTN	UBS 5.875 07/15/16 GMTN			No further information
BBEC	I	2016/02/15	2016/02/15	100477	402743	411931			2016/02/12			BBG0000D2XL2	BBG0000D2XL2	UBS 5.875 07/15/16 MTN	UBS 5.875 07/15/16 GMTN			No further information
BBEC	I	2016/02/15	2016/02/15	100477	402743	411931			2016/02/12			BBG0000D2XL2	BBG0000D2XL2	UBS 5.875 07/15/16 MTN	UBS 5.875 07/15/16 GMTN			No further information
BBEC	I	2016/02/15	2016/02/15	100504	1114264	406665			2016/02/12			BBG00004G6P2	BBG00004G6P2	UBS 7.375 06/15/17 MTN	UBS 7.375 06/15/17 GMTN			No further information
BBEC	I	2016/02/15	2016/02/15	100504	1114264	406665			2016/02/12			BBG00004G6P2	BBG00004G6P2	UBS 7.375 06/15/17 MTN	UBS 7.375 06/15/17 GMTN			No further information
BBEC	I	2016/02/15	2016/02/15	100504	1114264	406665			2016/02/12			BBG00004G6P2	BBG00004G6P2	UBS 7.375 06/15/17 MTN	UBS 7.375 06/15/17 GMTN			No further information
BBEC	I	2016/02/15	2016/02/15	100506	2035101	414573			2016/02/12			BBG0000MFVT4	BBG0000MFVT4	UBS 4.875 08/04/20 MTN	UBS 4.875 08/04/20 GMTN			No further information
BBEC	I	2016/02/15	2016/02/15	100506	2035101	414573			2016/02/12			BBG0000MFVT4	BBG0000MFVT4	UBS 4.875 08/04/20 MTN	UBS 4.875 08/04/20 GMTN			No further information
BBEC	I	2016/02/15	2016/02/15	100506	2035101	414573			2016/02/12			BBG0000MFVT4	BBG0000MFVT4	UBS 4.875 08/04/20 MTN	UBS 4.875 08/04/20 GMTN			No further information
BBEC	I	2016/02/15	2016/02/15	100507	4271231	590120			2016/02/12			BBG001712DK4	BBG001712DK4	UBS V0 10/05/17 MTN	UBS V0 10/05/17 GMTN			No further information
BBEC	I	2016/02/15	2016/02/15	100508	4271257	590123			2016/02/12			BBG001854CD2	BBG001854CD2	UBS V0 10/31/22 MTN	UBS V0 10/31/22 GMTN			No further information
BBEC	I	2016/02/15	2016/02/15	100511	4582242	706829			2016/02/12			BBG009S4WSR5	BBG009S4WSR5	CS V0 08/20/18 1526	CS 8.3 08/20/18			No further information
BBEC	I	2016/02/15	2016/02/15	100516	4471530	669568			2016/02/12			BBG008CV2H91	BBG008CV2H91	UBS F 09/26/16 MTN	UBS F 09/26/16 GMTN			No further information
BBEC	I	2016/02/15	2016/02/15	100517	4471532	669570			2016/02/12			BBG008CV3GL8	BBG008CV3GL8	UBS F 03/26/18 MTN	UBS F 03/26/18 GMTN			No further information
BBEC	I	2016/02/15	2016/02/15	100518	4471535	669569			2016/02/12			BBG008CV3J41	BBG008CV3J41	UBS 1.8 03/26/18 MTN	UBS 1.8 03/26/18 GMTN			No further information
BBEC	I	2016/02/15	2016/02/15	100518	4471535	669569			2016/02/12			BBG008CV3J41	BBG008CV3J41	UBS 1.8 03/26/18 MTN	UBS 1.8 03/26/18 GMTN			No further information
BBEC	I	2016/02/15	2016/02/15	100519	4471536	669571			2016/02/12			BBG008CV3JW0	BBG008CV3JW0	UBS 2.35 03/26/20 MTN	UBS 2.35 03/26/20 GMTN			No further information
BBEC	I	2016/02/15	2016/02/15	100519	4471536	669571			2016/02/12			BBG008CV3JW0	BBG008CV3JW0	UBS 2.35 03/26/20 MTN	UBS 2.35 03/26/20 GMTN			No further information
BBEC	I	2016/02/15	2016/02/15	100520	4494358	675586			2016/02/12			BBG008HNLRT9	BBG008HNLRT9	CS V0 04/24/17 0014	CS 9.1 04/24/17			No further information
BBEC	I	2016/02/15	2016/02/15	100524	3975052	469191			2016/02/14			BBG0042YRTD7	BBG0042YRTD7	FHLB 2 02/14/28 0003	FHLB 2.5 02/14/28 0003			No further information
BBEC	I	2016/02/15	2016/02/15	100526	4328070	609980			2016/02/12			BBG006YPC8Y5	BBG006YPC8Y5	UBS 1.375 08/14/17 MTN	UBS 1.375 08/14/17 GMTN			No further information
BBEC	I	2016/02/15	2016/02/15	100526	4328070	609980			2016/02/12			BBG006YPC8Y5	BBG006YPC8Y5	UBS 1.375 08/14/17 MTN	UBS 1.375 08/14/17 GMTN			No further information
BBEC	I	2016/02/15	2016/02/15	100527	4326640	609982			2016/02/12			BBG006YPCFV2	BBG006YPCFV2	UBS 2.375 08/14/19 MTN	UBS 2.375 08/14/19 GMTN			No further information
BBEC	I	2016/02/15	2016/02/15	100528	4328056	609983			2016/02/12			BBG006YPCHZ4	BBG006YPCHZ4	UBS F 08/14/19 MTN	UBS F 08/14/19 GMTN			No further information
BBEC	I	2016/02/15	2016/02/15	100529	4328053	609981			2016/02/12			BBG006YQ9G15	BBG006YQ9G15	UBS F 08/14/17 MTN	UBS F 08/14/17 GMTN			No further information
BBEC	I	2016/02/15	2016/02/15	100531	4696751	747132			2016/02/12			BBG00BS9KK08	BBG00BS9KK08	CS 0 11/01/19	CS 0 11/01/19 1256			No further information
BBEC	I	2016/02/15	2016/02/15	100532	4676112	740940			2016/02/12			BBG00BSF8MG7	BBG00BSF8MG7	RY 0 02/03/21	RY 0 02/03/21 0024			No further information
BBEC	I	2016/02/15	2016/02/15	100533	4674121	740907			2016/02/12			BBG00BSG5WD9	BBG00BSG5WD9	JPM 6.25 03/28/17 0000	JPM V0 03/28/17 0027			No further information
BBEC	I	2016/02/15	2016/02/15	100534	4696689	747123			2016/02/12			BBG00BTFVGT9	BBG00BTFVGT9	CS 30 02/03/20	CS 0 02/03/20 0026			No further information
BBEC	I	2016/02/15	2016/02/15	100535	4687100	745784			2016/02/12			BBG00BYQLTZ5	BBG00BYQLTZ5	HSBC 0 02/01/19	HSBC 0 02/01/19 6879			No further information
BBEC	I	2016/02/15	2016/02/15	100536	4692477	747140			2016/02/12			BBG00BZT3QL9	BBG00BZT3QL9	CS V0 01/28/19 0025	CS 9.5 01/28/19 0000			No further information
BBEC	I	2016/02/15	2016/02/15	100537	4690782	745609			2016/02/12			BBG00BZWG525	BBG00BZWG525	BACR 0 02/01/19	BACR V0 02/01/19 1326			No further information
BBEC	I	2016/02/15	2016/02/15	100538	4697493	749117			2016/02/12			BBG00C01ZCR6	BBG00C01ZCR6	JPM 11.6 08/05/19	JPM V0 08/05/19 0015			No further information
BBEC	I	2016/02/15	2016/02/15	100539	4696715	747142			2016/02/12			BBG00C049488	BBG00C049488	CS 7 02/03/21	CS V0 02/03/21 0027			No further information
BBEC	I	2016/02/15	2016/02/15	100540	4697468	748833			2016/02/12			BBG00C0CLGJ7	BBG00C0CLGJ7	C 0 08/01/16	C 0 08/01/16 9800			No further information
BBEC	I	2016/02/15	2016/02/15	100542	4697521	749060			2016/02/12			BBG00C2ZNXB3	BBG00C2ZNXB3	GS 0 02/23/17	GS 0 02/23/17 9809			No further information
BBEC	I	2016/02/16	2016/02/16	100570	2381365	439868			2016/02/15			BBG001931PL1	BBG001931PL1	STATEC V0 12/01/22	STATEC V0 12/01/22 144A			No further information
BBEC	I	2016/02/16	2016/02/16	100573	4060092	502572			2016/02/15			BBG004PMH4B6	BBG004PMH4B6	WFC F 02/14/17 MTN	WFC F 03/15/17 MTN			No further information
BBEC	I	2016/02/16	2016/02/16	100573	4060092	502572			2016/02/15			BBG004PMH4B6	BBG004PMH4B6	WFC F 02/14/17 MTN	WFC F 03/15/17 MTN			No further information
EDI_ENDOFFILE
