EDI_ICC_20160218
TableName	Actflag	Created	Changed	IccID	SecID	ISIN	EffectiveDate	OldISIN	NewISIN	OldUSCode	NewUSCode	OldVALOREN	NewVALOREN	EventType	RelEventID	OldCommonCode	NewCommonCode
ICC	I	2016/01/19	2016/01/19	284679	4243795	XS1056559245	2014/04/17	XS1056559245	XS1056559245	402312AA0				CORR		105655924	105655924
ICC	I	2016/01/19	2016/01/19	284680	4245735	XS1056559088	2014/04/17	XS1056559088	XS1056559088		402312AA0			CORR		105655908	105655908
ICC	I	2016/02/11	2016/02/11	286717	4701359	US3130A7B611	2016/02/11	US3130A7B611	US3130A7B611	3130A7B61	3130A7B61			CORR			136479067
ICC	I	2016/01/16	2016/01/18	284296	4669030	US3130A6X286	2016/01/15	US3130A6X286	US3130A6X286	3130A6X28	3130A6X28			CORR			133987657
ICC	I	2016/01/16	2016/01/18	284301	4677775	US3130A6YM31	2016/01/15	US3130A6YM31	US3130A6YM31	3130A6YM3	3130A6YM3			CORR			134454628
ICC	I	2016/01/16	2016/01/18	284520	4360871	US40433BPP75	2014/10/28		US40433BPP75	40433BPP7	40433BPP7			CORR			
ICC	I	2016/01/18	2016/01/18	284522	4372216	XS1121908211	2016/01/15	XS1121908211	XS1121908211		Y8T52AAH2			CORR		112190821	112190821
ICC	I	2016/01/18	2016/01/18	284523	4567859		2016/01/15	USM2054GAA96		M2054GAA9				CORR			
ICC	I	2016/01/18	2016/01/18	284524	4353847	XS1106874198	2016/01/15	XS1106874198	XS1106874198		M2054GAA9			CORR		110687419	110687419
ICC	I	2016/01/19	2016/01/19	284656	4043266	US92851WAA45	2013/05/23		US92851WAA45		92851WAA4			CORR			
ICC	I	2016/01/19	2016/01/19	284657	4043269	USP97999AB58	2013/05/23		USP97999AB58		P97999AB5			CORR			
ICC	I	2016/01/19	2016/01/19	284668	4541259	XS1242956966	2015/06/26	XS1242956966	XS1242956966		G7016VAA9			CORR		124295696	124295696
ICC	I	2016/01/19	2016/01/19	284670	4069761	XS0951555886	2013/07/11	XS0951555886	XS0951555886		D5S25QWK0			CORR		095155588	095155588
ICC	I	2016/01/19	2016/01/19	284672	2429818	XS0591920607	2011/02/09	XS0591920607	XS0591920607		P15171BR4	012473997	012473997	CORR		059192060	059192060
ICC	I	2016/01/19	2016/01/19	284673	3393433	NO0010633118	2011/12/20	NO0010633118	NO0010633118		M8260QAA4			CORR			
ICC	I	2016/01/19	2016/01/19	284682	645290	XS0316913119	2007/09/05	XS0316913119	XS0316913119		U3823DBB2			CORR		031691311	031691311
ICC	I	2016/01/19	2016/01/19	284684	3899151	XS0827817650	2012/09/13	XS0827817650	XS0827817650		N04895ZZ9			CORR		082781765	082781765
ICC	I	2016/01/19	2016/01/19	284685	4026199	XS0925043100	2013/05/03	XS0925043100	XS0925043100		G0175XAA7			CORR		092504310	092504310
ICC	I	2016/01/19	2016/01/19	284690	1189141	XS0392499280	2008/10/20	XS0392499280	XS0392499280		U4806CAB4			CORR		039249928	039249928
ICC	I	2016/01/19	2016/01/19	284690	1189141	XS0392499280	2008/10/20	XS0392499280	XS0392499280		U4806CAB4			CORR		039249928	039249928
ICC	I	2016/01/20	2016/01/20	284723	4669007	US3130A6WW31	2015/12/20	US3130A6WW31	US3130A6WW31	3130A6WW3	3130A6WW3			CORR			133987703
ICC	I	2016/01/20	2016/01/20	284757	4684455	US3130A73M52	2016/01/20	US3130A73M52	US3130A73M52	3130A73M5	3130A73M5			CORR			134933283
ICC	I	2016/01/20	2016/01/20	284765	4688805	US798110AQ55	2011/03/01		US798110AQ55		798110AQ5			CLEAN			
ICC	I	2016/01/21	2016/01/21	284806	4687136	US3134G8HY84	2016/01/21	US3134G8HY84	US3134G8HY84	3134G8HY8	3134G8HY8			CORR			135193615
ICC	I	2016/01/22	2016/01/22	284847	4671610	USU2481AAC28	2016/01/20		USU2481AAC28					CORR			
ICC	I	2016/01/22	2016/01/22	284851	4688627	US3130A74J15	2016/01/21	US3130A74J15	US3130A74J15	3130A74J1	3130A74J1			CORR			135194328
ICC	I	2016/01/22	2016/01/22	284854	4683617	US676167BQ13	2016/01/20	US676167BQ13	US676167BQ13	676167BQ1	676167BQ1			CORR			134667494
ICC	I	2016/01/22	2016/01/22	284862	4688770	US53944VAM19	2016/01/21	US53944VAM19	US53944VAM19	53944VAM1	53944VAM1			CORR			132282447
ICC	I	2016/01/22	2016/01/22	284862	4688770	US53944VAM19	2016/01/21	US53944VAM19	US53944VAM19	53944VAM1	53944VAM1			CORR			132282447
ICC	I	2016/01/22	2016/01/22	284864	4688746	US53944VAN91	2016/01/22	US53944VAN91	US53944VAN91	53944VAN9	53944VAN9			CORR			132284105
ICC	I	2016/01/22	2016/01/22	284864	4688746	US53944VAN91	2016/01/22	US53944VAN91	US53944VAN91	53944VAN9	53944VAN9			CORR			132284105
ICC	I	2016/01/23	2016/01/25	284894	4543803	US45950VGJ98	2015/06/13	US45950VGJ98	US45950VGJ98		45950VGJ9			CORR			
ICC	I	2016/01/23	2016/01/25	284895	4606381	US45950VGT70	2015/09/19	US45950VGT70	US45950VGT70		45950VGT7			CORR			
ICC	I	2016/01/23	2016/01/25	284926	4690744	US0605052861	2016/01/22		US0605052861		060505286			CORR			
ICC	I	2016/01/23	2016/01/25	284926	4690744	US0605052861	2016/01/22		US0605052861		060505286			CORR			
ICC	I	2016/01/23	2016/01/25	284937	4691654	US25152RZQ90	2016/01/22	US23204G5062	US25152RZQ90	23204G506	25152RZQ9			CLEAN			
ICC	I	2016/01/23	2016/01/25	284942	4690790	US3134G8JL46	2016/01/22	US3134G8JL46	US3134G8JL46	3134G8JL4	3134G8JL4			CORR			135363243
ICC	I	2016/01/23	2016/01/25	284946	4294405	US89640RAN98	2015/12/07	US89640RAN98	US89640RAN98		89640RAN9			CORR		108257768	108257768
ICC	I	2016/01/23	2016/01/25	284948	4529168	US90270KEW53	2015/06/11	US90270KEW53	US90270KEW53		90270KEW5			CLEAN			
ICC	I	2016/01/23	2016/01/25	284949	4529215	US90270KEX37	2015/06/11	US90270KEX37	US90270KEX37		90270KEX3			CLEAN			
ICC	I	2016/01/23	2016/01/25	284951	4684687	US68323ADK79	2016/01/21	US68323ADK79	US68323ADK79	68323ADK7	68323ADK7			CORR			134876735
ICC	I	2016/01/25	2016/01/25	284957	4566041	XS1267602305	2016/01/22	XS1267602305	XS1267602305		Y17650AB1			CORR		126760230	126760230
ICC	I	2016/01/25	2016/01/25	285021	1791883	USG33088AB47	2006/07/19		USG33088AB47	G33088AB4	G33088AB4			CORR			
ICC	I	2016/01/25	2016/01/25	285039	4684721	US865622CA00	2016/01/20	US865622CA00	US865622CA00	865622CA0	865622CA0			CORR			134088532
ICC	I	2016/01/26	2016/01/26	285063	4513961	XS1165128239	2015/01/21	XS1165128239	XS1165128239		G21594AB5			CORR		116512823	116512823
ICC	I	2016/01/26	2016/01/26	285114	4691560	US90290W2089	2016/01/25		US90290W2089		90290W208			CORR			
ICC	I	2016/01/26	2016/01/26	285136	4684686	US3134G8HL63	2016/01/26	US3134G8HL63	US3134G8HL63	3134G8HL6	3134G8HL6			CORR			134892820
ICC	I	2016/01/26	2016/01/26	285137	4692435	US3134G8JN02	2016/01/26	US3134G8JN02	US3134G8JN02	3134G8JN0	3134G8JN0			CORR			135423530
ICC	I	2016/01/26	2016/01/26	285145	4666898	US225433AH43	2016/01/15	US225433AH43	US225433AH43	225433AH4	225433AH4		30190769	CORR			
ICC	I	2016/01/26	2016/01/26	285145	4666898	US225433AH43	2016/01/15	US225433AH43	US225433AH43	225433AH4	225433AH4		30190769	CORR			
ICC	I	2016/01/26	2016/01/26	285147	4514754	US225433AF86	2016/01/16	US225433AF86	US225433AF86	225433AF8	225433AF8		30190768	CORR		123824962	123824962
ICC	I	2016/01/26	2016/01/26	285147	4514754	US225433AF86	2016/01/16	US225433AF86	US225433AF86	225433AF8	225433AF8		30190768	CORR		123824962	123824962
ICC	I	2016/01/26	2016/01/26	285149	4666893	US225433AD39	2016/01/15	US225433AD39	US225433AD39	225433AD3	225433AD3		30190766	CORR			
ICC	I	2016/01/26	2016/01/26	285149	4666893	US225433AD39	2016/01/15	US225433AD39	US225433AD39	225433AD3	225433AD3		30190766	CORR			
ICC	I	2016/01/26	2016/01/26	285153	4693612	US06741U3G76	2016/01/26	US06741U3G76	US06741U3G76		06741U3G7			CORR			
ICC	I	2016/01/26	2016/01/26	285152	153591	GB0008387283	2012/04/17	GB0008387283	GB0008387283		G84228AB4			CORR		001040260	001040260
ICC	I	2016/01/26	2016/01/26	285154	566846	XS0275486792	2006/12/02	XS0275486792	XS0275486792		U36964DG3			CORR		027548679	027548679
ICC	I	2016/01/26	2016/01/26	285157	4690572	US3130A75F83	2016/01/25	US3130A75F83	US3130A75F83	3130A75F8	3130A75F8			CORR			135363308
ICC	I	2016/01/26	2016/01/26	285196	4685515	US865622CB82	2016/01/20	US865622CB82	US865622CB82	865622CB8	865622CB8			CORR			134088575
ICC	I	2016/01/26	2016/01/26	285201	4684714	US654579AE17	2016/01/20	US654579AE17	US654579AE17	654579AE1	654579AE1			CORR			134135786
ICC	I	2016/01/26	2016/01/26	285202	4685544	USJ54675AC78	2016/01/20	USJ54675AC78	USJ54675AC78	J54675AC7	J54675AC7			CORR			134135654
ICC	I	2016/01/27	2016/01/27	285245	4693763	US3134G8JY66	2016/01/27	US3134G8JY66	US3134G8JY66	3134G8JY6	3134G8JY6			CORR			135523364
ICC	I	2016/01/27	2016/01/27	285248	4691783	US780082AD52	2016/01/23	US780082AD52	US780082AD52	780082AD5	780082AD5			CORR			135447471
ICC	I	2016/01/27	2016/01/27	285248	4691783	US780082AD52	2016/01/23	US780082AD52	US780082AD52	780082AD5	780082AD5			CORR			135447471
ICC	I	2016/01/27	2016/01/27	285249	4694561	US04057PHH47	2008/11/25		US04057PHH47		04057PHH4			CLEAN			
ICC	I	2016/01/27	2016/01/27	285250	4678712	US3130A6ZD23	2016/01/26	US3130A6ZD23	US3130A6ZD23	3130A6ZD2	3130A6ZD2			CORR			134481668
ICC	I	2016/01/27	2016/01/27	285253	4690575	US3130A75H40	2016/01/27	US3130A75H40	US3130A75H40	3130A75H4	3130A75H4			CORR			135363421
ICC	I	2016/01/27	2016/01/27	285284	4694808	US83715AAL35	2010/12/01	US83715AAL35	US83715AAL35	83715AAL3	83715AAL3			CLEAN			056160574
ICC	I	2016/01/27	2016/01/27	285353	326024	US071813AM10	1998/02/16	US071813AM10	US071813AM10	071813AM1	071813AM1			CORR			035050850
ICC	I	2016/01/27	2016/01/27	285353	326024	US071813AM10	1998/02/16	US071813AM10	US071813AM10	071813AM1	071813AM1			CORR			035050850
ICC	I	2016/01/27	2016/01/27	285353	326024	US071813AM10	1998/02/16	US071813AM10	US071813AM10	071813AM1	071813AM1			CORR			035050850
ICC	I	2016/01/28	2016/01/28	285394	4695520	US36252QAA94	2016/01/28				36252QAA9			CORR			
ICC	I	2016/01/28	2016/01/28	285402	4677000	US3130A6YB75	2016/01/27	US3130A6YB75	US3130A6YB75	3130A6YB7	3130A6YB7			CORR			134269197
ICC	I	2016/01/28	2016/01/28	285404	4677905	US3130A6Z422	2016/01/27	US3130A6Z422	US3130A6Z422	3130A6Z42	3130A6Z42			CORR			134454709
ICC	I	2016/01/28	2016/01/28	285418	4685449	US3130A73W35	2016/01/27	US3130A73W35	US3130A73W35	3130A73W3	3130A73W3			CORR			135003875
ICC	I	2016/01/28	2016/01/28	285421	4693519	US3130A75V34	2016/01/27	US3130A75V34	US3130A75V34	3130A75V3	3130A75V3			CORR			135542288
ICC	I	2016/01/29	2016/01/29	285460	4695520	US36252QAA94	2016/01/29		US36252QAA94	36252QAA9	36252QAA9			CORR			
ICC	I	2016/01/29	2016/01/29	285462	4691605	US459058EV16	2016/01/27	US459058EV16	US459058EV16	459058EV1	459058EV1			CORR			135212091
ICC	I	2016/01/29	2016/01/29	285502	4695609	US12802DAP15	2016/01/28	US12802DAP15	US12802DAP15	12802DAP1	12802DAP1			CORR			135317063
ICC	I	2016/02/01	2016/02/01	285535	4695951	US62944BBE39	2016/01/28	US62944BBE39	US62944BBE39	62944BBE3	62944BBE3			CORR			135114316
ICC	I	2016/02/01	2016/02/01	285539	4677002	US3130A6YD32	2016/01/29	US3130A6YD32	US3130A6YD32	3130A6YD3	3130A6YD3			CORR			134269359
ICC	I	2016/02/01	2016/02/01	285540	4677003	US3130A6YE15	2016/01/29	US3130A6YE15	US3130A6YE15	3130A6YE1	3130A6YE1			CORR			134269456
ICC	I	2016/02/01	2016/02/01	285542	4677008	US3130A6YH46	2016/01/29	US3130A6YH46	US3130A6YH46	3130A6YH4	3130A6YH4			CORR			134269634
ICC	I	2016/02/01	2016/02/01	285543	4677857	US3130A6YQ45	2016/01/29	US3130A6YQ45	US3130A6YQ45	3130A6YQ4	3130A6YQ4			CORR			134454555
ICC	I	2016/02/01	2016/02/01	285545	3994779	XS0897434949	2016/01/31	XS0897434949	XS0897434949		Y3119PBU2			CORR		089743494	089743494
ICC	I	2016/02/01	2016/02/01	285553	4679298	US3130A6ZX86	2016/01/29	US3130A6ZX86	US3130A6ZX86	3130A6ZX8	3130A6ZX8			CORR			134558377
ICC	I	2016/02/01	2016/02/01	285557	4679395	US3130A72G93	2016/01/29	US3130A72G93	US3130A72G93	3130A72G9	3130A72G9			CORR			134559322
ICC	I	2016/02/01	2016/02/01	285559	4681981	US3130A72S32	2016/01/29	US3130A72S32	US3130A72S32	3130A72S3	3130A72S3			CORR			134702087
ICC	I	2016/02/01	2016/02/01	285564	4694566	US3134G8K248	2016/01/28	UA3134G8K248	US3134G8K248	3134G8K24	3134G8K24			CLEAN			
ICC	I	2016/02/01	2016/02/01	285589	4527592	US66987MAD11	2015/06/10		US66987MAD11		66987MAD1			CORR			
ICC	I	2016/02/01	2016/02/01	285592	4686830	US902674VQ07	2016/01/16	US902674VQ07	US902674VQ07		902674VQ0			CORR			
ICC	I	2016/02/01	2016/02/01	285595	4044410	XS0938722583	2013/05/30	XS0938722583	XS0938722583		U37818AF5			CORR		093872258	093872258
ICC	I	2016/02/01	2016/02/01	285597	4044370	XS0938722237	2013/05/30	XS0938722237	XS0938722237		U37818AD0			CORR		093872223	093872223
ICC	I	2016/02/01	2016/02/01	285602	4387460	XS1139232372	2014/11/20	XS1139232372	XS1139232372		U9273AAH8			CORR		113923237	113923237
ICC	I	2016/02/01	2016/02/01	285604	620497	XS0309847738	2007/07/24	XS0309847738	XS0309847738		U38239BC9			CORR		030984773	030984773
ICC	I	2016/02/01	2016/02/01	285607	4698098	US21987CQN91	2016/01/29	US21987CQN91	US21987CQN91		21987CQN9			CORR			
ICC	I	2016/02/02	2016/02/02	285647	4690570	US3130A75D36	2016/02/01	US3130A75D36	US3130A75D36	3130A75D3	3130A75D3			CORR			135363391
ICC	I	2016/02/02	2016/02/02	285656	4695410	US3130A76N09	2016/02/02	US3130A76N09	US3130A76N09	3130A76N0	3130A76N0			CORR			135806277
ICC	I	2016/02/02	2016/02/02	285658	4695411	US3130A76P56	2016/02/01	US3130A76P56	US3130A76P56	3130A76P5	3130A76P5			CORR			135806269
ICC	I	2016/02/02	2016/02/02	285660	4696540	US3130A76T78	2016/02/01	US3130A76T78	US3130A76T78	3130A76T7	3130A76T7			CORR			135885363
ICC	I	2016/02/02	2016/02/02	285663	4698277	US5394E8CR81	2016/02/02	US5394E8CR81	US5394E8CR81		5394E8CR8			CORR			
ICC	I	2016/02/02	2016/02/02	285674	4698279	US05990K8743	2016/01/31		US05990K8743		05990K874			CORR			
ICC	I	2016/02/02	2016/02/02	285674	4698279	US05990K8743	2016/01/31		US05990K8743		05990K874			CORR			
ICC	I	2016/02/02	2016/02/02	285678	481816	USG7618CAC94	2006/10/25	USG7618CAC94	USG7618CAC94	G7618CAC9	G7618CAC9			CORR			027262155
ICC	I	2016/02/03	2016/02/03	285728	4697422	US3130A76Y63	2016/02/02	US3130A76Y63	US3130A76Y63	3130A76Y6	3130A76Y6			CORR			136051571
ICC	I	2016/02/03	2016/02/03	285731	4697436	US3130A77D18	2016/02/03	US3130A77D18	US3130A77D18	3130A77D1	3130A77D1			CORR			136052098
ICC	I	2016/02/03	2016/02/03	285732	4697439	US3130A77E90	2016/02/02	US3130A77E90	US3130A77E90	3130A77E9	3130A77E9			CORR			136052608
ICC	I	2016/02/03	2016/02/03	285733	4637080	XS1316202255	2016/02/02	XS1316202255	XS1316202255		Y0488DAB1			CORR		131620225	131620225
ICC	I	2016/02/03	2016/02/03	285743	4695601	US00182EAZ25	2016/02/03	US00182EAZ25	US00182EAZ25	00182EAZ2	00182EAZ2			CORR			135790290
ICC	I	2016/02/03	2016/02/03	285746	4695605	US00182FAZ99	2016/02/03	US00182FAZ99	US00182FAZ99	00182FAZ9	00182FAZ9			CORR			135765376
ICC	I	2016/02/03	2016/02/03	285747	4695603	US00182EAY59	2016/02/03	US00182EAY59	US00182EAY59	00182EAY5	00182EAY5			CORR			135790559
ICC	I	2016/02/03	2016/02/03	285749	4695607	US00182FAY25	2016/02/03	US00182FAY25	US00182FAY25	00182FAY2	00182FAY2			CORR			135718769
ICC	I	2016/02/03	2016/02/03	285751	4689604	US46115LVG03	2016/01/21	US46115LVG03	US46115LVG03		46115LVG0			CLEAN			
ICC	I	2016/02/04	2016/02/04	285793	4452814	US48125UCJ97	2016/02/03		US48125UCJ97	48125UCJ9	48125UCJ9			CORR			
ICC	I	2016/02/04	2016/02/04	285799	4698231	US3130A77G49	2016/02/03	US3130A77G49	US3130A77G49	3130A77G4	3130A77G4			CORR			136124587
ICC	I	2016/02/04	2016/02/04	285800	4698246	US3130A77K50	2016/02/03	US3130A77K50	US3130A77K50	3130A77K5	3130A77K5			CORR			136124650
ICC	I	2016/02/04	2016/02/04	285802	4699171	US3134G8KR96	2016/02/03	US3134G8KR96	US3134G8KR96	3134G8KR9	3134G8KR9			CORR			136171747
ICC	I	2016/02/04	2016/02/04	285858	4297645	DE000A1ZK3M0	2014/06/26	DE000A1ZK3M0	DE000A1ZK3M0		U9291NAQ8			CORR		108330635	108330635
ICC	I	2016/02/04	2016/02/04	285860	4027264	XS0926023036	2013/04/30	XS0926023036	XS0926023036		W9T26PHM4			CORR		092602303	092602303
ICC	I	2016/02/04	2016/02/04	285863	4424933	XS1170496472	2015/01/23	XS1170496472	XS1170496472		D5S25RHS8			CORR		117049647	117049647
ICC	I	2016/02/05	2016/02/05	285919	4699983	US33616C8376	2016/02/03		US33616C8376		33616C837			CORR			
ICC	I	2016/02/05	2016/02/05	285919	4699983	US33616C8376	2016/02/03		US33616C8376		33616C837			CORR			
ICC	I	2016/02/05	2016/02/05	285932	4695404	US3130A76L43	2016/02/04	US3130A76L43	US3130A76L43	3130A76L4	3130A76L4			CORR			135806307
ICC	I	2016/02/05	2016/02/05	285933	4698978	US3130A7A886	2016/02/04	US3130A7A886	US3130A7A886	3130A7A88	3130A7A88			CORR			136153358
ICC	I	2016/02/05	2016/02/05	285934	4698981	US3130A7AA32	2016/02/04	US3130A7AA32	US3130A7AA32	3130A7AA3	3130A7AA3			CORR			136150561
ICC	I	2016/02/05	2016/02/05	285952	4699531	US302154BZ10	2016/02/05	US302154BZ10	US302154BZ10	302154BZ1	302154BZ1			CORR			136146041
ICC	I	2016/02/05	2016/02/05	285956	4698370	US3135G0H893	2016/02/02	US3135G0H893	US3135G0H893	3135G0H89	3135G0H89			CORR			136156616
ICC	I	2016/02/05	2016/02/05	286112	1986345	USY2497PAD51	2016/02/05	USY8584LAA18	USY2497PAD51	Y8584LAA1	Y2497PAD5			CORR		052282667	052282667
ICC	I	2016/02/05	2016/02/05	286113	2301382	US34955XAA90	2016/02/05	US87971SAA87	US34955XAA90	87971SAA8	34955XAA9			CORR		052282632	052282632
ICC	I	2016/02/05	2016/02/05	286113	2301382	US34955XAA90	2016/02/05	US87971SAA87	US34955XAA90	87971SAA8	34955XAA9			CORR		052282632	052282632
ICC	I	2016/02/05	2016/02/05	286117	4697452	US500498AD29	2016/02/04	US500498AD29	US500498AD29	500498AD2	500498AD2			CORR			135673838
ICC	I	2016/02/06	2016/02/08	286120	4700815	US3134G8KZ13	2016/02/05	US3134G8KZ13	US3134G8KZ13	3134G8KZ1	3134G8KZ1			CORR			136316222
ICC	I	2016/02/06	2016/02/08	286137	4698400	US90015LAA52	2016/02/06	US90015LAA52	US90015LAA52	90015LAA5	90015LAA5			CORR			134563338
ICC	I	2016/02/06	2016/02/08	286142	4701501	US42809H4048	2016/02/05	US42809H5037	US42809H4048	42809H503	42809H404			CLEAN			
ICC	I	2016/02/06	2016/02/08	286142	4701501	US42809H4048	2016/02/05	US42809H5037	US42809H4048	42809H503	42809H404			CLEAN			
ICC	I	2016/02/09	2016/02/09	286376	4693789	US25714PDJ49	2016/01/29	US25714PDJ49	US25714PDJ49	25714PDJ4	25714PDJ4			CORR			135401803
ICC	I	2016/02/09	2016/02/09	286382	4702129	US3134G8L980	2016/02/09	US3134G8L980	US3134G8L980	3134G8L98	3134G8L98			CORR			136355937
ICC	I	2016/02/09	2016/02/09	286392	4692441	USP3579EBK21	2016/01/29	USP3579EBK21	USP3579EBK21	P3579EBK2	P3579EBK2			CORR			135402117
ICC	I	2016/02/10	2016/02/10	286568	4697432	US3130A77C35	2016/02/10	US3130A77C35	US3130A77C35	3130A77C3	3130A77C3			CORR			136052896
ICC	I	2016/02/10	2016/02/10	286584	4702566	US3135G0J386	2016/02/09	US3135G0J386	US3135G0J386	3135G0J38	3135G0J38			CORR			136375709
ICC	I	2016/02/10	2016/02/10	286590	3603452	XS0754808227	2016/02/09	XS0754808227	XS0754808227		Y7996XAD3	018112417	018112417	CORR		075480822	075480822
ICC	I	2016/02/10	2016/02/10	286593	4421095	XS1165658896	2016/02/09	XS1165658896	XS1165658896		G463PCAA7			CORR		116565889	116565889
ICC	I	2016/02/10	2016/02/10	286653	4697575	US045167DJ91	2016/02/09	US045167DJ91	US045167DJ91	045167DJ9	045167DJ9			CORR			135893242
ICC	I	2016/02/11	2016/02/11	286689	4699947	US676167BR95	2016/02/10	US676167BR95	US676167BR95	676167BR9	676167BR9			CORR			136232215
ICC	I	2016/02/11	2016/02/11	286702	4703293	US3134G8LP22	2016/02/10	US3134G8LP22	US3134G8LP22	3134G8LP2	3134G8LP2			CORR			136519921
ICC	I	2016/02/11	2016/02/11	286703	4702668	US3134G8LF40	2016/02/09	US3134G8LF40	US3134G8LF40	3134G8LF4	3134G8LF4			CORR			136514865
ICC	I	2016/02/11	2016/02/11	286708	4683264	US3130A72X27	2016/02/11	US3130A72X27	US3130A72X27	3130A72X2	3130A72X2			CORR			134777486
ICC	I	2016/02/11	2016/02/11	286738	683366	US912810EB09	1998/11/23	US912810EB09	US912810EB09	912810EB0	912810EB0			CORR			004653874
ICC	I	2016/02/11	2016/02/11	286748	773560	US912810ES34	1994/08/15	US912810ES34	US912810ES34	912810ES3	912810ES3			CORR			005238455
ICC	I	2016/02/11	2016/02/11	286753	683441	US912810ET17	1995/02/15	US912810ET17	US912810ET17	912810ET1	912810ET1			CORR			005576989
ICC	I	2016/02/11	2016/02/11	286758	683447	US912810EX29	1996/08/15	US912810EX29	US912810EX29	912810EX2	912810EX2			CORR			006869505
ICC	I	2016/02/12	2016/02/12	286790	4598629	US902674UX66	2015/09/03	US902674UX66	US902674UX66		902674UX6			CORR			
ICC	I	2016/02/12	2016/02/12	286811	4696734	US71656LBK61	2016/02/05	US71656LBK61	US71656LBK61	71656LBK6	71656LBK6			CORR			135892700
ICC	I	2016/02/12	2016/02/12	286813	4703820	US3134G8LX55	2016/02/11	US3134G8LX55	US3134G8LX55	3134G8LX5	3134G8LX5			CORR			136613944
ICC	I	2016/02/12	2016/02/12	286815	4696740	US71656MBK45	2016/02/05	US71656MBK45	US71656MBK45	71656MBK4	71656MBK4			CORR			135892971
ICC	I	2016/02/12	2016/02/12	286816	4703127	US3130A7BX26	2016/02/12	US3130A7BX26	US3130A7BX26	3130A7BX2	3130A7BX2			CORR			136519972
ICC	I	2016/02/12	2016/02/12	286818	4703072	US3130A7BM60	2016/02/12	US3130A7BM60	US3130A7BM60	3130A7BM6	3130A7BM6			CORR			136521152
ICC	I	2016/02/12	2016/02/12	286819	4703096	US3130A7BU86	2016/02/12	US3130A7BU86	US3130A7BU86	3130A7BU8	3130A7BU8			CORR			136521233
ICC	I	2016/02/12	2016/02/12	286821	4696716	US71656LBH33	2016/02/05	US71656LBH33	US71656LBH33	71656LBH3	71656LBH3			CORR			135892572
ICC	I	2016/02/12	2016/02/12	286825	4696720	US71656MBH16	2016/02/05	US71656MBH16	US71656MBH16	71656MBH1	71656MBH1			CORR			135892599
ICC	I	2016/02/13	2016/02/15	286895	4700620	US3130A7AZ82	2016/02/12	US3130A7AZ82	US3130A7AZ82	3130A7AZ8	3130A7AZ8			CORR			136316320
ICC	I	2016/02/13	2016/02/15	286929	4704383	US3134G8M558	2016/02/13	US3134G8M558	US3134G8M558	3134G8M55	3134G8M55			CORR			136700189
ICC	I	2016/02/13	2016/02/15	286931	4704381	US3134G8M483	2016/02/13	US3134G8M483	US3134G8M483	3134G8M48	3134G8M48			CORR			136700065
ICC	I	2016/02/13	2016/02/15	286959	4700731	XS1362384262	2016/02/12	XS1362384262	XS1362384262		74005PBR4			CORR		136238426	136238426
EDI_ENDOFFILE
